\contentsline {section}{\numberline {1}Exact Model}{2}{section.1}
\contentsline {section}{\numberline {2}Milp 2 Phases}{2}{section.2}
\contentsline {section}{\numberline {3}Milp 3 Phases Per modello a 3 indici}{2}{section.3}
\contentsline {section}{\numberline {4}Full Greedy}{2}{section.4}
\contentsline {section}{\numberline {5}Milp Greedy Shortest Path}{3}{section.5}
\contentsline {section}{\numberline {6}Milp exact Greedy SP}{3}{section.6}
\contentsline {section}{\numberline {7}Oracle centers' minimization}{3}{section.7}
