\relax 
\providecommand\hyper@newdestlabel[2]{}
\providecommand\HyperFirstAtBeginDocument{\AtBeginDocument}
\HyperFirstAtBeginDocument{\ifx\hyper@anchor\@undefined
\global\let\oldcontentsline\contentsline
\gdef\contentsline#1#2#3#4{\oldcontentsline{#1}{#2}{#3}}
\global\let\oldnewlabel\newlabel
\gdef\newlabel#1#2{\newlabelxx{#1}#2}
\gdef\newlabelxx#1#2#3#4#5#6{\oldnewlabel{#1}{{#2}{#3}}}
\AtEndDocument{\ifx\hyper@anchor\@undefined
\let\contentsline\oldcontentsline
\let\newlabel\oldnewlabel
\fi}
\fi}
\global\let\hyper@last\relax 
\gdef\HyperFirstAtBeginDocument#1{#1}
\providecommand\HyField@AuxAddToFields[1]{}
\providecommand\HyField@AuxAddToCoFields[2]{}
\@writefile{toc}{\contentsline {section}{\numberline {1}Exact Model}{2}{section.1}}
\@writefile{toc}{\contentsline {section}{\numberline {2}Milp 2 Phases}{2}{section.2}}
\@writefile{toc}{\contentsline {section}{\numberline {3}Milp 3 Phases Per modello a 3 indici}{2}{section.3}}
\@writefile{toc}{\contentsline {section}{\numberline {4}Full Greedy}{2}{section.4}}
\@writefile{toc}{\contentsline {section}{\numberline {5}Milp Greedy Shortest Path}{3}{section.5}}
\@writefile{toc}{\contentsline {section}{\numberline {6}Milp exact Greedy SP}{3}{section.6}}
\@writefile{toc}{\contentsline {section}{\numberline {7}Oracle centers' minimization}{3}{section.7}}
