\relax 
\providecommand\hyper@newdestlabel[2]{}
\providecommand\HyperFirstAtBeginDocument{\AtBeginDocument}
\HyperFirstAtBeginDocument{\ifx\hyper@anchor\@undefined
\global\let\oldcontentsline\contentsline
\gdef\contentsline#1#2#3#4{\oldcontentsline{#1}{#2}{#3}}
\global\let\oldnewlabel\newlabel
\gdef\newlabel#1#2{\newlabelxx{#1}#2}
\gdef\newlabelxx#1#2#3#4#5#6{\oldnewlabel{#1}{{#2}{#3}}}
\AtEndDocument{\ifx\hyper@anchor\@undefined
\let\contentsline\oldcontentsline
\let\newlabel\oldnewlabel
\fi}
\fi}
\global\let\hyper@last\relax 
\gdef\HyperFirstAtBeginDocument#1{#1}
\providecommand\HyField@AuxAddToFields[1]{}
\providecommand\HyField@AuxAddToCoFields[2]{}
\@writefile{toc}{\contentsline {section}{\numberline {1}Sommario}{2}{section.1}}
\@writefile{lof}{\contentsline {figure}{\numberline {1}{\ignorespaces Embedding VN a forma di stella su di una data rete di substrato.}}{2}{figure.1}}
\newlabel{VNE}{{1}{2}{Embedding VN a forma di stella su di una data rete di substrato}{figure.1}{}}
\@writefile{toc}{\contentsline {section}{\numberline {2}Introduzione}{3}{section.2}}
\@writefile{toc}{\contentsline {subsection}{\numberline {2.1}Modello Matematico}{3}{subsection.2.1}}
\@writefile{toc}{\contentsline {subsection}{\numberline {2.2}Euristica Two-phase MILP-based}{6}{subsection.2.2}}
\@writefile{lot}{\contentsline {table}{\numberline {1}{\ignorespaces Tabella Modello Matematico e Miglior Euristica nota}}{6}{table.1}}
\newlabel{tab:exact_milp_2_phase}{{1}{6}{Tabella Modello Matematico e Miglior Euristica nota}{table.1}{}}
\@writefile{toc}{\contentsline {section}{\numberline {3}Idea Euristica di base}{7}{section.3}}
\@writefile{toc}{\contentsline {subsection}{\numberline {3.1}Fase 1 Greedy}{7}{subsection.3.1}}
\@writefile{toc}{\contentsline {section}{\numberline {4}Versioni Randomizzate dell'Euristica di base}{7}{section.4}}
\@writefile{toc}{\contentsline {subsection}{\numberline {4.1}Euristica Progressiva}{8}{subsection.4.1}}
\@writefile{toc}{\contentsline {subsection}{\numberline {4.2}Euristica Progressiva GRASP}{9}{subsection.4.2}}
\@writefile{toc}{\contentsline {subsection}{\numberline {4.3}Euristica Selezione manuale}{9}{subsection.4.3}}
\@writefile{toc}{\contentsline {subsection}{\numberline {4.4}Euristica Selezione Randomizzata (Automatic Random)}{9}{subsection.4.4}}
\@writefile{toc}{\contentsline {subsection}{\numberline {4.5}Euristica Pseudosmart}{10}{subsection.4.5}}
\@writefile{toc}{\contentsline {subsection}{\numberline {4.6}Euristica Selezione Range}{11}{subsection.4.6}}
\@writefile{toc}{\contentsline {section}{\numberline {5}Risultati}{11}{section.5}}
\@writefile{toc}{\contentsline {subsection}{5.1\nobreakspace  {}\nobreakspace  {}Tabella Risultati Euristiche}{12}{section*.2}}
