{
    "france": [
        {
            "file_name": "../../Data/Networks/IstanzeFrance/france_s_t_29.dat",

            "results": [
                {
                    "Exact optimal solution": 476.814
                },

                {
                    "Exact execution time": 1369.541
                },

                {
                    "Solution found with the Deterministic heuristic": 865.440542781
                },

                {
                    "Deterministic Heutistic Phase1 Time": 13.013797998428345
                },

                {
                    "Deterministic Heutistic Phase2 Time": 15.859570026397705
                },

                {
                    "Deterministic Heutistic Total_Time = Phase1 + Phase2": 28.873378038406372
                },

                {
                    "Deterministic Heutistic Gap from optimum": 81.50485153141474
                },

                {
                    "Best Solution found with the Randomized Heuristic": 680.880083061
                },

                {
                    "Randomized Heuristic total execution time": 419.1158609390259
                },

                {
                    "Randomized Heutistic Gap from optimum": 42.797837953793305
                }
            ]
        }
    ]
}