#Physical network
param n := 50;
param: N: aa :=
1 100.000
2 50.000
3 100.000
4 50.000
5 100.000
6 10.000
7 50.000
8 50.000
9 50.000
10 50.000
11 50.000
12 10.000
13 50.000
14 10.000
15 10.000
16 10.000
17 50.000
18 50.000
19 10.000
20 50.000
21 50.000
22 100.000
23 50.000
24 10.000
25 10.000
26 50.000
27 50.000
28 500.000
29 100.000
30 100.000
31 100.000
32 10.000
33 100.000
34 50.000
35 50.000
36 100.000
37 50.000
38 100.000
39 100.000
40 100.000
41 50.000
42 50.000
43 50.000
44 10.000
45 100.000
46 50.000
47 10.000
48 100.000
49 100.100
50 100.000
;

 

param: L: dist c a :=
1 30 0.849293824303462 84.9293824303462 500
1 47 1.19570063142912 119.570063142912 500
1 49 0.711196175467784 71.1196175467784 500
2 35 0.693757882838098 69.3757882838098 500
2 48 0.912688336728371 91.2688336728371 500
2 50 1.72261429228949 172.261429228949 500
3 9 1.61978393620878 161.978393620878 500
3 32 1.61623018162637 161.623018162637 500
3 38 0.66573267908373 66.573267908373 500
4 12 1.52829970882678 152.829970882678 500
4 21 1.57003184681076 157.003184681076 500
4 32 1.55322245670091 155.322245670091 500
4 33 1.79078195210919 179.078195210919 500
4 44 2.1964744478368 219.64744478368 500
5 6 2.06400096899202 206.400096899202 500
5 23 1.26649121591901 126.649121591901 500
5 36 0.902718117686801 90.2718117686801 500
5 45 1.22384639559056 122.384639559056 500
6 22 1.40630722105804 140.630722105804 500
6 23 0.836002392341075 83.6002392341075 500
6 26 1.41534448103633 141.534448103633 500
6 33 1.0989540481749 109.89540481749 500
7 8 0.507740090991444 50.7740090991444 500
7 23 1.13569362065656 113.569362065656 500
7 39 0.639999999999999 63.9999999999999 500
8 16 1.50658554353877 150.658554353877 500
9 12 0.822253002426869 82.2253002426869 500
9 14 1.89517809189532 189.517809189532 500
10 17 0.237697286480091 23.7697286480091 500
10 24 1.01074230147946 101.074230147946 500
10 34 0.430813184570759 43.0813184570759 500
11 15 0.432897216438268 43.2897216438268 500
11 26 2.06874358005046 206.874358005046 500
11 36 0.483838816136118 48.3838816136118 500
11 45 0.834505841801003 83.4505841801003 500
12 14 2.69046464388589 269.046464388589 500
12 32 1.3851353724456 138.51353724456 500
13 15 0.326496554346291 32.6496554346291 500
13 30 0.325729949498049 32.5729949498049 500
14 26 1.56732255773979 156.732255773979 500
14 32 1.3875157656762 138.75157656762 500
14 50 1.6077624202599 160.77624202599 500
15 49 0.653758365147246 65.3758365147246 500
16 28 0.796115569499806 79.6115569499806 500
17 19 1.07424392015966 107.424392015966 500
17 20 0.451774279923064 45.1774279923064 500
17 29 1.22249744376011 122.249744376011 500
18 25 1.19707978013163 119.707978013163 500
18 31 1.41661568535718 141.661568535718 500
19 20 1.02004901843 102.004901843 500
19 26 0.781024967590663 78.1024967590663 500
19 50 0.828733974204028 82.8733974204028 500
20 26 1.12609946274741 112.609946274741 500
20 45 0.724706837279736 72.4706837279736 500
21 44 2.02338824747007 202.338824747007 500
22 23 1.22024587686253 122.024587686253 500
22 28 0.780896920214188 78.0896920214188 500
22 44 1.46013697987552 146.013697987552 500
23 40 1.69295599470276 169.295599470276 500
24 25 0.782304288624319 78.2304288624319 500
24 29 0.996895180046527 99.6895180046527 500
24 43 0.747261667690777 74.7261667690777 500
25 34 0.486621002423862 48.6621002423862 500
25 43 1.39742620556507 139.742620556507 500
25 46 0.740945342113706 74.0945342113706 500
27 31 1.14157785542643 114.157785542643 500
27 35 1.32189258262538 132.189258262538 500
28 44 1.54693244842818 154.693244842818 500
29 30 0.845044377532919 84.5044377532919 500
29 45 0.721248916810277 72.1248916810277 500
29 47 1.06212052046837 106.212052046837 500
31 46 1.08295890965448 108.295890965448 500
32 33 1.08977061806602 108.977061806602 500
33 44 1.4227438279606 142.27438279606 500
35 38 1.51921032118664 151.921032118664 500
35 41 1.93610433603151 193.610433603151 500
35 42 0.996443676280803 99.6443676280803 500
36 40 0.530094331227944 53.0094331227944 500
37 39 1.11359777298628 111.359777298628 500
37 49 2.36425463941598 236.425463941598 500
38 42 1.20353645561736 120.353645561736 500
38 50 1.08060168424818 108.060168424818 500
39 40 0.849293824303461 84.9293824303461 500
39 49 2.51872983862899 251.872983862899 500
41 42 1.43589693223434 143.589693223434 500
43 47 0.626817357768596 62.6817357768596 500
46 48 0.952732911156114 95.2732911156114 500
46 50 1.3559129765586 135.59129765586 500
30 1 0.849293824303462 84.9293824303462 500
47 1 1.19570063142912 119.570063142912 500
49 1 0.711196175467784 71.1196175467784 500
35 2 0.693757882838098 69.3757882838098 500
48 2 0.912688336728371 91.2688336728371 500
50 2 1.72261429228949 172.261429228949 500
9 3 1.61978393620878 161.978393620878 500
32 3 1.61623018162637 161.623018162637 500
38 3 0.66573267908373 66.573267908373 500
12 4 1.52829970882678 152.829970882678 500
21 4 1.57003184681076 157.003184681076 500
32 4 1.55322245670091 155.322245670091 500
33 4 1.79078195210919 179.078195210919 500
44 4 2.1964744478368 219.64744478368 500
6 5 2.06400096899202 206.400096899202 500
23 5 1.26649121591901 126.649121591901 500
36 5 0.902718117686801 90.2718117686801 500
45 5 1.22384639559056 122.384639559056 500
22 6 1.40630722105804 140.630722105804 500
23 6 0.836002392341075 83.6002392341075 500
26 6 1.41534448103633 141.534448103633 500
33 6 1.0989540481749 109.89540481749 500
8 7 0.507740090991444 50.7740090991444 500
23 7 1.13569362065656 113.569362065656 500
39 7 0.639999999999999 63.9999999999999 500
16 8 1.50658554353877 150.658554353877 500
12 9 0.822253002426869 82.2253002426869 500
14 9 1.89517809189532 189.517809189532 500
17 10 0.237697286480091 23.7697286480091 500
24 10 1.01074230147946 101.074230147946 500
34 10 0.430813184570759 43.0813184570759 500
15 11 0.432897216438268 43.2897216438268 500
26 11 2.06874358005046 206.874358005046 500
36 11 0.483838816136118 48.3838816136118 500
45 11 0.834505841801003 83.4505841801003 500
14 12 2.69046464388589 269.046464388589 500
32 12 1.3851353724456 138.51353724456 500
15 13 0.326496554346291 32.6496554346291 500
30 13 0.325729949498049 32.5729949498049 500
26 14 1.56732255773979 156.732255773979 500
32 14 1.3875157656762 138.75157656762 500
50 14 1.6077624202599 160.77624202599 500
49 15 0.653758365147246 65.3758365147246 500
28 16 0.796115569499806 79.6115569499806 500
19 17 1.07424392015966 107.424392015966 500
20 17 0.451774279923064 45.1774279923064 500
29 17 1.22249744376011 122.249744376011 500
25 18 1.19707978013163 119.707978013163 500
31 18 1.41661568535718 141.661568535718 500
20 19 1.02004901843 102.004901843 500
26 19 0.781024967590663 78.1024967590663 500
50 19 0.828733974204028 82.8733974204028 500
26 20 1.12609946274741 112.609946274741 500
45 20 0.724706837279736 72.4706837279736 500
44 21 2.02338824747007 202.338824747007 500
23 22 1.22024587686253 122.024587686253 500
28 22 0.780896920214188 78.0896920214188 500
44 22 1.46013697987552 146.013697987552 500
40 23 1.69295599470276 169.295599470276 500
25 24 0.782304288624319 78.2304288624319 500
29 24 0.996895180046527 99.6895180046527 500
43 24 0.747261667690777 74.7261667690777 500
34 25 0.486621002423862 48.6621002423862 500
43 25 1.39742620556507 139.742620556507 500
46 25 0.740945342113706 74.0945342113706 500
31 27 1.14157785542643 114.157785542643 500
35 27 1.32189258262538 132.189258262538 500
44 28 1.54693244842818 154.693244842818 500
30 29 0.845044377532919 84.5044377532919 500
45 29 0.721248916810277 72.1248916810277 500
47 29 1.06212052046837 106.212052046837 500
46 31 1.08295890965448 108.295890965448 500
33 32 1.08977061806602 108.977061806602 500
44 33 1.4227438279606 142.27438279606 500
38 35 1.51921032118664 151.921032118664 500
41 35 1.93610433603151 193.610433603151 500
42 35 0.996443676280803 99.6443676280803 500
40 36 0.530094331227944 53.0094331227944 500
39 37 1.11359777298628 111.359777298628 500
49 37 2.36425463941598 236.425463941598 500
42 38 1.20353645561736 120.353645561736 500
50 38 1.08060168424818 108.060168424818 500
40 39 0.849293824303461 84.9293824303461 500
49 39 2.51872983862899 251.872983862899 500
42 41 1.43589693223434 143.589693223434 500
47 43 0.626817357768596 62.6817357768596 500
48 46 0.952732911156114 95.2732911156114 500
50 46 1.3559129765586 135.59129765586 500
;

param k := 4 ;

param vn:=
1 28
2 28
3 28
4 28
;

param Pk:=
1 100
2 100
3 100
4 100
;

param vl:=
1 2 29
1 3 36
1 4 17
1 5 22
1 6 27
1 7 12
1 8 14
1 9 49
1 10 6
1 11 42
1 12 13
1 13 34
1 14 19
1 15 11
1 16 25
1 17 15
1 18 5
1 19 41
1 20 30
1 21 7
1 22 4
1 23 47
1 24 31
1 25 10
1 26 46
1 27 28
1 28 40
2 2 16
2 3 13
2 4 26
2 5 6
2 6 36
2 7 34
2 8 31
2 9 48
2 10 22
2 11 17
2 12 7
2 13 37
2 14 27
2 15 40
2 16 14
2 17 44
2 18 3
2 19 29
2 20 35
2 21 8
2 22 32
2 23 50
2 24 30
2 25 49
2 26 24
2 27 33
2 28 10
3 2 28
3 3 7
3 4 22
3 5 4
3 6 9
3 7 32
3 8 33
3 9 17
3 10 15
3 11 12
3 12 49
3 13 50
3 14 21
3 15 44
3 16 20
3 17 48
3 18 35
3 19 29
3 20 11
3 21 37
3 22 13
3 23 19
3 24 14
3 25 26
3 26 30
3 27 8
3 28 1
4 2 22
4 3 44
4 4 23
4 5 47
4 6 2
4 7 8
4 8 4
4 9 27
4 10 37
4 11 38
4 12 43
4 13 18
4 14 36
4 15 6
4 16 32
4 17 35
4 18 3
4 19 45
4 20 46
4 21 14
4 22 21
4 23 20
4 24 11
4 25 40
4 26 12
4 27 41
4 28 5
;

set Vf[ 1 ] := 4 5 6 7 10 11 12 13 14 15 17 19 22 25 27 28 29 30 31 34 36 40 41 42 46 47 49;
set Vf[ 2 ] := 3 6 7 8 10 13 14 16 17 22 24 26 27 29 30 31 32 33 34 35 36 37 40 44 48 49 50;
set Vf[ 3 ] := 1 4 7 8 9 11 12 13 14 15 17 19 20 21 22 26 28 29 30 32 33 35 37 44 48 49 50;
set Vf[ 4 ] := 2 3 4 5 6 8 11 12 14 18 20 21 22 23 27 32 35 36 37 38 40 41 43 44 45 46 47;


param loc:=
1 2 29 1
1 3 36 1
1 4 17 1
1 5 22 1
1 6 27 1
1 7 12 1
1 8 14 1
1 9 49 1
1 10 6 1
1 11 42 1
1 12 13 1
1 13 34 1
1 14 19 1
1 15 11 1
1 16 25 1
1 17 15 1
1 18 5 1
1 19 41 1
1 20 30 1
1 21 7 1
1 22 4 1
1 23 47 1
1 24 31 1
1 25 10 1
1 26 46 1
1 27 28 1
1 28 40 1
2 2 16 1
2 3 13 1
2 4 26 1
2 5 6 1
2 6 36 1
2 7 34 1
2 8 31 1
2 9 48 1
2 10 22 1
2 11 17 1
2 12 7 1
2 13 37 1
2 14 27 1
2 15 40 1
2 16 14 1
2 17 44 1
2 18 3 1
2 19 29 1
2 20 35 1
2 21 8 1
2 22 32 1
2 23 50 1
2 24 30 1
2 25 49 1
2 26 24 1
2 27 33 1
2 28 10 1
3 2 28 1
3 3 7 1
3 4 22 1
3 5 4 1
3 6 9 1
3 7 32 1
3 8 33 1
3 9 17 1
3 10 15 1
3 11 12 1
3 12 49 1
3 13 50 1
3 14 21 1
3 15 44 1
3 16 20 1
3 17 48 1
3 18 35 1
3 19 29 1
3 20 11 1
3 21 37 1
3 22 13 1
3 23 19 1
3 24 14 1
3 25 26 1
3 26 30 1
3 27 8 1
3 28 1 1
4 2 22 1
4 3 44 1
4 4 23 1
4 5 47 1
4 6 2 1
4 7 8 1
4 8 4 1
4 9 27 1
4 10 37 1
4 11 38 1
4 12 43 1
4 13 18 1
4 14 36 1
4 15 6 1
4 16 32 1
4 17 35 1
4 18 3 1
4 19 45 1
4 20 46 1
4 21 14 1
4 22 21 1
4 23 20 1
4 24 11 1
4 25 40 1
4 26 12 1
4 27 41 1
4 28 5 1
;



#q[k,l,1] = value
param qout:=
1 2 4.98513792659536  
1 3 6.34649885041358  
1 4 5.09742981699042  
1 5 15.8193684004662  
1 6 63.3708355080814  
1 7 8.3674055350279  
1 8 6.31947669819484  
1 9 10.223372722974  
1 10 5.79847609890043  
1 11 6.3979770037358  
1 12 0.6  
1 13 13.7483069483781  
1 14 13.7177698362783  
1 15 4.13844553940482  
1 16 9.75673820487272  
1 17 10.7968929105583  
1 18 63.3764372984481  
1 19 14.8133264722733  
1 20 69.1680007497301  
1 21 13.2608150502892  
1 22 9.83012997196195  
1 23 6.91477620771707  
1 24 7.37754572403108  
1 25 5.89973114978998  
1 26 9.10252704332629  
1 27 50.6806118419686  
1 28 10.9656125628591  
2 2 4.49946792415304  
2 3 3.78676249904425  
2 4 1.40877013035202  
2 5 9.14078106049739  
2 6 1.61113579171583  
2 7 4.10041424365647  
2 8 3.53015558008479  
2 9 12.2444581687013  
2 10 6.2812243821275  
2 11 5.12363787093235  
2 12 8.24634444175123  
2 13 1.35710532428376  
2 14 13.8619026628732  
2 15 5.82768246492357  
2 16 6.70195600202527  
2 17 11.4879543459206  
2 18 15.20320575871  
2 19 0.6  
2 20 4.40365683845848  
2 21 9.40810790681118  
2 22 11.1600336484091  
2 23 3.26714485539648  
2 24 5.42937412139783  
2 25 12.8135726508116  
2 26 0.6  
2 27 11.4251362455444  
2 28 9.60013493315289  
3 2 48.3422754169008  
3 3 8.84629726940157  
3 4 65.9339865691138  
3 5 5.20493836056804  
3 6 55.937098470646  
3 7 6.14645234605343  
3 8 0.775679252935543  
3 9 0.771061033835832  
3 10 9.85008764383957  
3 11 5.08009483467752  
3 12 1.43454226541339  
3 13 8.69184454324922  
3 14 6.26650100174673  
3 15 11.1521139307941  
3 16 56.6597293094736  
3 17 4.67642200128974  
3 18 4.49342281302749  
3 19 15.6313758940052  
3 20 5.70467250456678  
3 21 6.87562498630702  
3 22 8.29344960078719  
3 23 20.8530010476853  
3 24 3  
3 25 6.49588098072051  
3 26 13.8769481341419  
3 27 52.0053102243268  
3 28 9.18394199607553  
4 2 4.58415364303005  
4 3 12.5500916507874  
4 4 17.5746462235452  
4 5 12.8270776843364  
4 6 2.06483250187331  
4 7 11.8294842916491  
4 8 11.5792127490133  
4 9 54.9649486817141  
4 10 60.6397557747864  
4 11 3.74570110827269  
4 12 3.23040562694733  
4 13 5.91596906930565  
4 14 14.2115219225998  
4 15 6.38969001165048  
4 16 15.5276936606622  
4 17 8.86698362049656  
4 18 6.49020943297568  
4 19 73.2182619072036  
4 20 13.3684868601599  
4 21 3.30341474151801  
4 22 8.80485168150911  
4 23 2.60295971625029  
4 24 8.89617544892007  
4 25 60.4670120933077  
4 26 11.5551072600159  
4 27 4.43830848043444  
4 28 12.430746452031                                                                                          
;

#q[k,1,l] = value
param qin:=
1 2 6.19246034928247  
1 3 7.49198234395436  
1 4 3.66190111193029  
1 5 22.4457906771087  
1 6 82.0243267381952  
1 7 15.3889525939462  
1 8 6.82998161397576  
1 9 15.0941542803242  
1 10 5.58057719102309  
1 11 11.4329282954847  
1 12 0.817047953606586  
1 13 21.6245065793137  
1 14 21.9249056344336  
1 15 3.93581570996802  
1 16 16.9540564968809  
1 17 10.6402201204306  
1 18 72.7476726956475  
1 19 26.7119491066479  
1 20 95.475923935422  
1 21 15.2546460209197  
1 22 12.4213476577352  
1 23 11.1759397899923  
1 24 8.47243068190821  
1 25 6.35445122884374  
1 26 16.049700560967  
1 27 64.990642984122  
1 28 12.1676400867086  
2 2 5.49985905401132  
2 3 6.80379706955743  
2 4 2.67037068544466  
2 5 16.6570139719887  
2 6 2.77394966069185  
2 7 4.69889310514785  
2 8 2.91617146079011  
2 9 16.5914029989864  
2 10 8.78118495615729  
2 11 8.36743320226085  
2 12 9.47228523514756  
2 13 1.90704385047668  
2 14 18.4888423872474  
2 15 9.94459449642942  
2 16 7.66490298381698  
2 17 15.4308117152637  
2 18 22.6565534675752  
2 19 1.33073541226715  
2 20 5.54808163942936  
2 21 11.8373384666827  
2 22 12.9836612866331  
2 23 2.83307528481644  
2 24 9.08932895836166  
2 25 15.7671066277255  
2 26 1.16607533035011  
2 27 7.99759537188105  
2 28 11.4777171319047  
3 2 68.3303533959123  
3 3 12.6931161994898  
3 4 89.7324520210277  
3 5 7.69749677379807  
3 6 91.368331663202  
3 7 9.67994268408617  
3 8 1.9993198592223  
3 9 0.539742723685082  
3 10 14.8165849190504  
3 11 3.97865451646348  
3 12 1.55410530309051  
3 13 13.7523870896812  
3 14 5.48915690660419  
3 15 15.2968834649655  
3 16 68.0698475804318  
3 17 6.37993998095345  
3 18 4.67740525344653  
3 19 23.9395029240002  
3 20 9.24535538028788  
3 21 13.0701001930932  
3 22 9.92489979709015  
3 23 26.3544828153569  
3 24 6.21183230250639  
3 25 8.73389354704377  
3 26 19.4074174533892  
3 27 79.7843388276326  
3 28 8.80934203528121  
4 2 7.70579151673878  
4 3 20.6100500367907  
4 4 12.4140733152135  
4 5 19.6718289547837  
4 6 1.44538275131131  
4 7 13.8108405932014  
4 8 14.3666951455464  
4 9 76.1679384789392  
4 10 83.2359160293871  
4 11 6.80385906084458  
4 12 5.30822903976216  
4 13 7.70611800048316  
4 14 22.2392295416993  
4 15 10.3703368809349  
4 16 17.5552356615384  
4 17 13.3048069627146  
4 18 9.90224869706809  
4 19 100.029199619909  
4 20 19.3109674354631  
4 21 6.84265583671558  
4 22 10.6035704187045  
4 23 2.36381485034738  
4 24 16.2819084540687  
4 25 86.3627421438594  
4 26 17.8878361713813  
4 27 5.21719842386611  
4 28 18.0577192352983                                                                                                 
;