{
    "france": [
        {
            "file_name": "../../Data/Networks/IstanzeFrance/france_s_t_4.dat",

            "results": [
                {
                    "Exact optimal solution": 0.1
                },

                {
                    "Exact execution time": 0.28
                },

                {
                    "Solution found with the Deterministic heuristic": 0.1
                },

                {
                    "Deterministic Heutistic Phase1 Time": 1.7961499691009521
                },

                {
                    "Deterministic Heutistic Phase2 Time": 0.5852160453796387
                },

                {
                    "Deterministic Heutistic Total_Time = Phase1 + Phase2": 2.3813791275024414
                },

                {
                    "Deterministic Heutistic Gap from optimum": 0.0
                },

                {
                    "Best Solution found with the Randomized Heuristic": 0.1
                },

                {
                    "Randomized Heuristic total execution time": 0.00012803077697753906
                },

                {
                    "Randomized Heutistic Gap from optimum": 0.0
                }
            ]
        },

        {
            "file_name": "../../Data/Networks/IstanzeFrance/france_s_t_5.dat",

            "results": [
                {
                    "Exact optimal solution": 0.1
                },

                {
                    "Exact execution time": 106.02
                },

                {
                    "Solution found with the Deterministic heuristic": 0.1
                },

                {
                    "Deterministic Heutistic Phase1 Time": 2.3387629985809326
                },

                {
                    "Deterministic Heutistic Phase2 Time": 0.8040261268615723
                },

                {
                    "Deterministic Heutistic Total_Time = Phase1 + Phase2": 3.14280104637146
                },

                {
                    "Deterministic Heutistic Gap from optimum": 0.0
                },

                {
                    "Best Solution found with the Randomized Heuristic": 0.1
                },

                {
                    "Randomized Heuristic total execution time": 0.0001609325408935547
                },

                {
                    "Randomized Heutistic Gap from optimum": 0.0
                }
            ]
        },

        {
            "file_name": "../../Data/Networks/IstanzeFrance/france_s_t_6.dat",

            "results": [
                {
                    "Exact optimal solution": 0.1
                },

                {
                    "Exact execution time": 106.02
                },

                {
                    "Solution found with the Deterministic heuristic": 0.1
                },

                {
                    "Deterministic Heutistic Phase1 Time": 2.6847050189971924
                },

                {
                    "Deterministic Heutistic Phase2 Time": 0.829988956451416
                },

                {
                    "Deterministic Heutistic Total_Time = Phase1 + Phase2": 3.514708995819092
                },

                {
                    "Deterministic Heutistic Gap from optimum": 0.0
                },

                {
                    "Best Solution found with the Randomized Heuristic": 0.1
                },

                {
                    "Randomized Heuristic total execution time": 0.00015687942504882812
                },

                {
                    "Randomized Heutistic Gap from optimum": 0.0
                }
            ]
        },

        {
            "file_name": "../../Data/Networks/IstanzeFrance/france_s_t_7.dat",

            "results": [
                {
                    "Exact optimal solution": 0.1
                },

                {
                    "Exact execution time": 106.02
                },

                {
                    "Solution found with the Deterministic heuristic": 0.1
                },

                {
                    "Deterministic Heutistic Phase1 Time": 3.101891040802002
                },

                {
                    "Deterministic Heutistic Phase2 Time": 0.9346160888671875
                },

                {
                    "Deterministic Heutistic Total_Time = Phase1 + Phase2": 4.0365190505981445
                },

                {
                    "Deterministic Heutistic Gap from optimum": 0.0
                },

                {
                    "Best Solution found with the Randomized Heuristic": 0.1
                },

                {
                    "Randomized Heuristic total execution time": 0.0001678466796875
                },

                {
                    "Randomized Heutistic Gap from optimum": 0.0
                }
            ]
        },

        {
            "file_name": "../../Data/Networks/IstanzeFrance/france_s_t_8.dat",

            "results": [
                {
                    "Exact optimal solution": 0.1
                },

                {
                    "Exact execution time": 106.02
                },

                {
                    "Solution found with the Deterministic heuristic": 0.1
                },

                {
                    "Deterministic Heutistic Phase1 Time": 3.60044002532959
                },

                {
                    "Deterministic Heutistic Phase2 Time": 1.0914740562438965
                },

                {
                    "Deterministic Heutistic Total_Time = Phase1 + Phase2": 4.6919310092926025
                },

                {
                    "Deterministic Heutistic Gap from optimum": 0.0
                },

                {
                    "Best Solution found with the Randomized Heuristic": 0.1
                },

                {
                    "Randomized Heuristic total execution time": 0.0002739429473876953
                },

                {
                    "Randomized Heutistic Gap from optimum": 0.0
                }
            ]
        },

        {
            "file_name": "../../Data/Networks/IstanzeFrance/france_s_t_9.dat",

            "results": [
                {
                    "Exact optimal solution": 0.1
                },

                {
                    "Exact execution time": 106.02
                },

                {
                    "Solution found with the Deterministic heuristic": 0.1
                },

                {
                    "Deterministic Heutistic Phase1 Time": 4.050678968429565
                },

                {
                    "Deterministic Heutistic Phase2 Time": 1.196610927581787
                },

                {
                    "Deterministic Heutistic Total_Time = Phase1 + Phase2": 5.247300863265991
                },

                {
                    "Deterministic Heutistic Gap from optimum": 0.0
                },

                {
                    "Best Solution found with the Randomized Heuristic": 0.1
                },

                {
                    "Randomized Heuristic total execution time": 0.00019693374633789062
                },

                {
                    "Randomized Heutistic Gap from optimum": 0.0
                }
            ]
        },

        {
            "file_name": "../../Data/Networks/IstanzeFrance/france_s_t_10.dat",

            "results": [
                {
                    "Exact optimal solution": 0.1
                },

                {
                    "Exact execution time": 106.02
                },

                {
                    "Solution found with the Deterministic heuristic": 0.1
                },

                {
                    "Deterministic Heutistic Phase1 Time": 4.412079095840454
                },

                {
                    "Deterministic Heutistic Phase2 Time": 1.4385550022125244
                },

                {
                    "Deterministic Heutistic Total_Time = Phase1 + Phase2": 5.850646018981934
                },

                {
                    "Deterministic Heutistic Gap from optimum": 0.0
                },

                {
                    "Best Solution found with the Randomized Heuristic": 0.1
                },

                {
                    "Randomized Heuristic total execution time": 0.0003039836883544922
                },

                {
                    "Randomized Heutistic Gap from optimum": 0.0
                }
            ]
        },

        {
            "file_name": "../../Data/Networks/IstanzeFrance/france_s_t_11.dat",

            "results": [
                {
                    "Exact optimal solution": 0.1
                },

                {
                    "Exact execution time": 106.02
                },

                {
                    "Solution found with the Deterministic heuristic": 0.1
                },

                {
                    "Deterministic Heutistic Phase1 Time": 4.61257791519165
                },

                {
                    "Deterministic Heutistic Phase2 Time": 1.3359150886535645
                },

                {
                    "Deterministic Heutistic Total_Time = Phase1 + Phase2": 5.948502063751221
                },

                {
                    "Deterministic Heutistic Gap from optimum": 0.0
                },

                {
                    "Best Solution found with the Randomized Heuristic": 0.1
                },

                {
                    "Randomized Heuristic total execution time": 0.0007958412170410156
                },

                {
                    "Randomized Heutistic Gap from optimum": 0.0
                }
            ]
        },

        {
            "file_name": "../../Data/Networks/IstanzeFrance/france_s_t_12.dat",

            "results": [
                {
                    "Exact optimal solution": 0.1
                },

                {
                    "Exact execution time": 106.02
                },

                {
                    "Solution found with the Deterministic heuristic": 0.1
                },

                {
                    "Deterministic Heutistic Phase1 Time": 5.0460429191589355
                },

                {
                    "Deterministic Heutistic Phase2 Time": 1.5812249183654785
                },

                {
                    "Deterministic Heutistic Total_Time = Phase1 + Phase2": 6.627281904220581
                },

                {
                    "Deterministic Heutistic Gap from optimum": 0.0
                },

                {
                    "Best Solution found with the Randomized Heuristic": 0.1
                },

                {
                    "Randomized Heuristic total execution time": 0.0008988380432128906
                },

                {
                    "Randomized Heutistic Gap from optimum": 0.0
                }
            ]
        },

        {
            "file_name": "../../Data/Networks/IstanzeFrance/france_s_t_13.dat",

            "results": [
                {
                    "Exact optimal solution": 0.1
                },

                {
                    "Exact execution time": 106.02
                },

                {
                    "Solution found with the Deterministic heuristic": 0.1
                },

                {
                    "Deterministic Heutistic Phase1 Time": 5.8341991901397705
                },

                {
                    "Deterministic Heutistic Phase2 Time": 1.6041760444641113
                },

                {
                    "Deterministic Heutistic Total_Time = Phase1 + Phase2": 7.438387155532837
                },

                {
                    "Deterministic Heutistic Gap from optimum": 0.0
                },

                {
                    "Best Solution found with the Randomized Heuristic": 0.1
                },

                {
                    "Randomized Heuristic total execution time": 0.0010428428649902344
                },

                {
                    "Randomized Heutistic Gap from optimum": 0.0
                }
            ]
        },

        {
            "file_name": "../../Data/Networks/IstanzeFrance/france_s_t_14.dat",

            "results": [
                {
                    "Exact optimal solution": 0.1
                },

                {
                    "Exact execution time": 106.02
                },

                {
                    "Solution found with the Deterministic heuristic": 0.1
                },

                {
                    "Deterministic Heutistic Phase1 Time": 6.043110132217407
                },

                {
                    "Deterministic Heutistic Phase2 Time": 1.8410730361938477
                },

                {
                    "Deterministic Heutistic Total_Time = Phase1 + Phase2": 7.88419508934021
                },

                {
                    "Deterministic Heutistic Gap from optimum": 0.0
                },

                {
                    "Best Solution found with the Randomized Heuristic": 0.1
                },

                {
                    "Randomized Heuristic total execution time": 0.003756999969482422
                },

                {
                    "Randomized Heutistic Gap from optimum": 0.0
                }
            ]
        },

        {
            "file_name": "../../Data/Networks/IstanzeFrance/france_s_t_15.dat",

            "results": [
                {
                    "Exact optimal solution": 0.1
                },

                {
                    "Exact execution time": 106.02
                },

                {
                    "Solution found with the Deterministic heuristic": 0.1
                },

                {
                    "Deterministic Heutistic Phase1 Time": 6.375905990600586
                },

                {
                    "Deterministic Heutistic Phase2 Time": 2.0188229084014893
                },

                {
                    "Deterministic Heutistic Total_Time = Phase1 + Phase2": 8.394739866256714
                },

                {
                    "Deterministic Heutistic Gap from optimum": 0.0
                },

                {
                    "Best Solution found with the Randomized Heuristic": 0.1
                },

                {
                    "Randomized Heuristic total execution time": 0.007599830627441406
                },

                {
                    "Randomized Heutistic Gap from optimum": 0.0
                }
            ]
        },

        {
            "file_name": "../../Data/Networks/IstanzeFrance/france_s_t_16.dat",

            "results": [
                {
                    "Exact optimal solution": 0.1
                },

                {
                    "Exact execution time": 106.02
                },

                {
                    "Solution found with the Deterministic heuristic": 0.1
                },

                {
                    "Deterministic Heutistic Phase1 Time": 6.705081939697266
                },

                {
                    "Deterministic Heutistic Phase2 Time": 2.0725622177124023
                },

                {
                    "Deterministic Heutistic Total_Time = Phase1 + Phase2": 8.777654886245728
                },

                {
                    "Deterministic Heutistic Gap from optimum": 0.0
                },

                {
                    "Best Solution found with the Randomized Heuristic": 0.1
                },

                {
                    "Randomized Heuristic total execution time": 0.02418208122253418
                },

                {
                    "Randomized Heutistic Gap from optimum": 0.0
                }
            ]
        },

        {
            "file_name": "../../Data/Networks/IstanzeFrance/france_s_t_17.dat",

            "results": [
                {
                    "Exact optimal solution": 0.1
                },

                {
                    "Exact execution time": 106.02
                },

                {
                    "Solution found with the Deterministic heuristic": 0.1
                },

                {
                    "Deterministic Heutistic Phase1 Time": 7.414191007614136
                },

                {
                    "Deterministic Heutistic Phase2 Time": 2.3798859119415283
                },

                {
                    "Deterministic Heutistic Total_Time = Phase1 + Phase2": 9.794089078903198
                },

                {
                    "Deterministic Heutistic Gap from optimum": 0.0
                },

                {
                    "Best Solution found with the Randomized Heuristic": 0.1
                },

                {
                    "Randomized Heuristic total execution time": 0.2035970687866211
                },

                {
                    "Randomized Heutistic Gap from optimum": 0.0
                }
            ]
        },

        {
            "file_name": "../../Data/Networks/IstanzeFrance/france_s_t_18.dat",

            "results": [
                {
                    "Exact optimal solution": 0.1
                },

                {
                    "Exact execution time": 106.02
                },

                {
                    "Solution found with the Deterministic heuristic": 0.1
                },

                {
                    "Deterministic Heutistic Phase1 Time": 8.885287046432495
                },

                {
                    "Deterministic Heutistic Phase2 Time": 2.450010061264038
                },

                {
                    "Deterministic Heutistic Total_Time = Phase1 + Phase2": 11.335312128067017
                },

                {
                    "Deterministic Heutistic Gap from optimum": 0.0
                },

                {
                    "Best Solution found with the Randomized Heuristic": 0.1
                },

                {
                    "Randomized Heuristic total execution time": 0.006006956100463867
                },

                {
                    "Randomized Heutistic Gap from optimum": 0.0
                }
            ]
        },

        {
            "file_name": "../../Data/Networks/IstanzeFrance/france_s_t_19.dat",

            "results": [
                {
                    "Exact optimal solution": 0.1
                },

                {
                    "Exact execution time": 106.02
                },

                {
                    "Solution found with the Deterministic heuristic": 0.1
                },

                {
                    "Deterministic Heutistic Phase1 Time": 8.2428879737854
                },

                {
                    "Deterministic Heutistic Phase2 Time": 2.6179111003875732
                },

                {
                    "Deterministic Heutistic Total_Time = Phase1 + Phase2": 10.860811948776245
                },

                {
                    "Deterministic Heutistic Gap from optimum": 0.0
                },

                {
                    "Best Solution found with the Randomized Heuristic": 0.1
                },

                {
                    "Randomized Heuristic total execution time": 0.18251514434814453
                },

                {
                    "Randomized Heutistic Gap from optimum": 0.0
                }
            ]
        },

        {
            "file_name": "../../Data/Networks/IstanzeFrance/france_s_t_20.dat",

            "results": [
                {
                    "Exact optimal solution": 0.1
                },

                {
                    "Exact execution time": 106.02
                },

                {
                    "Solution found with the Deterministic heuristic": 0.1
                },

                {
                    "Deterministic Heutistic Phase1 Time": 8.587879180908203
                },

                {
                    "Deterministic Heutistic Phase2 Time": 2.7111449241638184
                },

                {
                    "Deterministic Heutistic Total_Time = Phase1 + Phase2": 11.299034118652344
                },

                {
                    "Deterministic Heutistic Gap from optimum": 0.0
                },

                {
                    "Best Solution found with the Randomized Heuristic": 0.1
                },

                {
                    "Randomized Heuristic total execution time": 0.19372797012329102
                },

                {
                    "Randomized Heutistic Gap from optimum": 0.0
                }
            ]
        },

        {
            "file_name": "../../Data/Networks/IstanzeFrance/france_s_t_21.dat",

            "results": [
                {
                    "Exact optimal solution": 0.1
                },

                {
                    "Exact execution time": 106.02
                },

                {
                    "Solution found with the Deterministic heuristic": 0.1
                },

                {
                    "Deterministic Heutistic Phase1 Time": 9.338369131088257
                },

                {
                    "Deterministic Heutistic Phase2 Time": 2.932689905166626
                },

                {
                    "Deterministic Heutistic Total_Time = Phase1 + Phase2": 12.271075010299683
                },

                {
                    "Deterministic Heutistic Gap from optimum": 0.0
                },

                {
                    "Best Solution found with the Randomized Heuristic": 0.1
                },

                {
                    "Randomized Heuristic total execution time": 0.183211088180542
                },

                {
                    "Randomized Heutistic Gap from optimum": 0.0
                }
            ]
        },

        {
            "file_name": "../../Data/Networks/IstanzeFrance/france_s_t_22.dat",

            "results": [
                {
                    "Exact optimal solution": 0.1
                },

                {
                    "Exact execution time": 106.02
                },

                {
                    "Solution found with the Deterministic heuristic": 0.1
                },

                {
                    "Deterministic Heutistic Phase1 Time": 9.9776611328125
                },

                {
                    "Deterministic Heutistic Phase2 Time": 3.380647897720337
                },

                {
                    "Deterministic Heutistic Total_Time = Phase1 + Phase2": 13.358329057693481
                },

                {
                    "Deterministic Heutistic Gap from optimum": 0.0
                },

                {
                    "Best Solution found with the Randomized Heuristic": 0.1
                },

                {
                    "Randomized Heuristic total execution time": 0.24255013465881348
                },

                {
                    "Randomized Heutistic Gap from optimum": 0.0
                }
            ]
        },

        {
            "file_name": "../../Data/Networks/IstanzeFrance/france_s_t_23.dat",

            "results": [
                {
                    "Exact optimal solution": 0.1
                },

                {
                    "Exact execution time": 106.02
                },

                {
                    "Solution found with the Deterministic heuristic": 0.1
                },

                {
                    "Deterministic Heutistic Phase1 Time": 10.113195896148682
                },

                {
                    "Deterministic Heutistic Phase2 Time": 3.0663039684295654
                },

                {
                    "Deterministic Heutistic Total_Time = Phase1 + Phase2": 13.179512023925781
                },

                {
                    "Deterministic Heutistic Gap from optimum": 0.0
                },

                {
                    "Best Solution found with the Randomized Heuristic": 0.1
                },

                {
                    "Randomized Heuristic total execution time": 0.17951393127441406
                },

                {
                    "Randomized Heutistic Gap from optimum": 0.0
                }
            ]
        },

        {
            "file_name": "../../Data/Networks/IstanzeFrance/france_s_t_24.dat",

            "results": [
                {
                    "Exact optimal solution": 30.67
                },

                {
                    "Exact execution time": 106.02
                },

                {
                    "Solution found with the Deterministic heuristic": 36.1614589586
                },

                {
                    "Deterministic Heutistic Phase1 Time": 10.346206188201904
                },

                {
                    "Deterministic Heutistic Phase2 Time": 3.2298460006713867
                },

                {
                    "Deterministic Heutistic Total_Time = Phase1 + Phase2": 13.576064109802246
                },

                {
                    "Deterministic Heutistic Gap from optimum": 17.904985192696444
                },

                {
                    "Best Solution found with the Randomized Heuristic": 36.1614589586
                },

                {
                    "Randomized Heuristic total execution time": 0.27149415016174316
                },

                {
                    "Randomized Heutistic Gap from optimum": 17.904985192696444
                }
            ]
        },

        {
            "file_name": "../../Data/Networks/IstanzeFrance/france_s_t_25.dat",

            "results": [
                {
                    "Exact optimal solution": 137.19
                },

                {
                    "Exact execution time": 106.02
                },

                {
                    "Solution found with the Deterministic heuristic": 156.315508793
                },

                {
                    "Deterministic Heutistic Phase1 Time": 10.637912034988403
                },

                {
                    "Deterministic Heutistic Phase2 Time": 3.367418050765991
                },

                {
                    "Deterministic Heutistic Total_Time = Phase1 + Phase2": 14.005348205566406
                },

                {
                    "Deterministic Heutistic Gap from optimum": 13.94089131350681
                },

                {
                    "Best Solution found with the Randomized Heuristic": 156.315508793
                },

                {
                    "Randomized Heuristic total execution time": 0.17677688598632812
                },

                {
                    "Randomized Heutistic Gap from optimum": 13.94089131350681
                }
            ]
        },

        {
            "file_name": "../../Data/Networks/IstanzeFrance/france_s_t_26.dat",

            "results": [
                {
                    "Exact optimal solution": 181.87
                },

                {
                    "Exact execution time": 106.02
                },

                {
                    "Solution found with the Deterministic heuristic": 258.95973664
                },

                {
                    "Deterministic Heutistic Phase1 Time": 11.081094026565552
                },

                {
                    "Deterministic Heutistic Phase2 Time": 3.6710238456726074
                },

                {
                    "Deterministic Heutistic Total_Time = Phase1 + Phase2": 14.752133131027222
                },

                {
                    "Deterministic Heutistic Gap from optimum": 42.38727477868807
                },

                {
                    "Best Solution found with the Randomized Heuristic": 258.95973664
                },

                {
                    "Randomized Heuristic total execution time": 0.18494296073913574
                },

                {
                    "Randomized Heutistic Gap from optimum": 42.38727477868807
                }
            ]
        },

        {
            "file_name": "../../Data/Networks/IstanzeFrance/france_s_t_27.dat",

            "results": [
                {
                    "Exact optimal solution": 220.76
                },

                {
                    "Exact execution time": 106.02
                },

                {
                    "Solution found with the Deterministic heuristic": 387.088855273
                },

                {
                    "Deterministic Heutistic Phase1 Time": 12.010658025741577
                },

                {
                    "Deterministic Heutistic Phase2 Time": 3.846763849258423
                },

                {
                    "Deterministic Heutistic Total_Time = Phase1 + Phase2": 15.857436895370483
                },

                {
                    "Deterministic Heutistic Gap from optimum": 75.34374672630912
                },

                {
                    "Best Solution found with the Randomized Heuristic": 387.088855273
                },

                {
                    "Randomized Heuristic total execution time": 0.35613393783569336
                },

                {
                    "Randomized Heutistic Gap from optimum": 75.34374672630912
                }
            ]
        },

        {
            "file_name": "../../Data/Networks/IstanzeFrance/france_s_t_28.dat",

            "results": [
                {
                    "Exact optimal solution": 436.83
                },

                {
                    "Exact execution time": 106.02
                },

                {
                    "Solution found with the Deterministic heuristic": 699.827417159
                },

                {
                    "Deterministic Heutistic Phase1 Time": 13.539683818817139
                },

                {
                    "Deterministic Heutistic Phase2 Time": 4.044096946716309
                },

                {
                    "Deterministic Heutistic Total_Time = Phase1 + Phase2": 17.58379292488098
                },

                {
                    "Deterministic Heutistic Gap from optimum": 60.20589638051416
                },

                {
                    "Best Solution found with the Randomized Heuristic": 699.827417159
                },

                {
                    "Randomized Heuristic total execution time": 0.22994089126586914
                },

                {
                    "Randomized Heutistic Gap from optimum": 60.20589638051416
                }
            ]
        },

        {
            "file_name": "../../Data/Networks/IstanzeFrance/france_s_t_29.dat",

            "results": [
                {
                    "Exact optimal solution": 477.91
                },

                {
                    "Exact execution time": 106.02
                },

                {
                    "Solution found with the Deterministic heuristic": 1285.93156745
                },

                {
                    "Deterministic Heutistic Phase1 Time": 13.334998846054077
                },

                {
                    "Deterministic Heutistic Phase2 Time": 3.999506950378418
                },

                {
                    "Deterministic Heutistic Total_Time = Phase1 + Phase2": 17.33451795578003
                },

                {
                    "Deterministic Heutistic Gap from optimum": 169.0740029398841
                },

                {
                    "Best Solution found with the Randomized Heuristic": 1285.93156745
                },

                {
                    "Randomized Heuristic total execution time": 0.1832900047302246
                },

                {
                    "Randomized Heutistic Gap from optimum": 169.0740029398841
                }
            ]
        },

        {
            "file_name": "../../Data/Networks/IstanzeFrance/france_s_t_30.dat",

            "results": [
                {
                    "Exact optimal solution": 695.55
                },

                {
                    "Exact execution time": 106.02
                },

                {
                    "Solution found with the Deterministic heuristic": 1832.80258572
                },

                {
                    "Deterministic Heutistic Phase1 Time": 13.639194965362549
                },

                {
                    "Deterministic Heutistic Phase2 Time": 4.139381170272827
                },

                {
                    "Deterministic Heutistic Total_Time = Phase1 + Phase2": 17.778591871261597
                },

                {
                    "Deterministic Heutistic Gap from optimum": 163.5040738580979
                },

                {
                    "Best Solution found with the Randomized Heuristic": 1832.80258572
                },

                {
                    "Randomized Heuristic total execution time": 0.18262100219726562
                },

                {
                    "Randomized Heutistic Gap from optimum": 163.5040738580979
                }
            ]
        }
    ]
}