{
    "france": [
        {
            "file_name": "../../Data/Networks/IstanzeFrance/france_s_t_29.dat",

            "results": [
                {
                    "Exact optimal solution": 476.814
                },

                {
                    "Exact execution time": 1369.541
                },

                {
                    "Solution found with the Deterministic heuristic": 865.440542781
                },

                {
                    "Deterministic Heutistic Phase1 Time": 12.770124912261963
                },

                {
                    "Deterministic Heutistic Phase2 Time": 16.59885597229004
                },

                {
                    "Deterministic Heutistic Total_Time = Phase1 + Phase2": 29.36899185180664
                },

                {
                    "Deterministic Heutistic Gap from optimum": 81.50485153141474
                },

                {
                    "Best Solution found with the Randomized Heuristic": 728.533984272
                },

                {
                    "Randomized Heuristic total execution time": 1168.021878004074
                },

                {
                    "Randomized Heutistic Gap from optimum": 52.79207075966727
                }
            ]
        }
    ]
}