#Physical network
param n := 50;
param: N: aa :=
1 100.000
2 50.000
3 100.000
4 50.000
5 100.000
6 10.000
7 50.000
8 50.000
9 50.000
10 50.000
11 50.000
12 10.000
13 50.000
14 10.000
15 10.000
16 10.000
17 50.000
18 50.000
19 10.000
20 50.000
21 50.000
22 100.000
23 50.000
24 10.000
25 10.000
26 50.000
27 50.000
28 500.000
29 100.000
30 100.000
31 100.000
32 10.000
33 100.000
34 50.000
35 50.000
36 100.000
37 50.000
38 100.000
39 100.000
40 100.000
41 50.000
42 50.000
43 50.000
44 10.000
45 100.000
46 50.000
47 10.000
48 100.000
49 100.100
50 100.000
;

 

param: L: dist c a :=
1 30 0.849293824303462 84.9293824303462 500
1 47 1.19570063142912 119.570063142912 500
1 49 0.711196175467784 71.1196175467784 500
2 35 0.693757882838098 69.3757882838098 500
2 48 0.912688336728371 91.2688336728371 500
2 50 1.72261429228949 172.261429228949 500
3 9 1.61978393620878 161.978393620878 500
3 32 1.61623018162637 161.623018162637 500
3 38 0.66573267908373 66.573267908373 500
4 12 1.52829970882678 152.829970882678 500
4 21 1.57003184681076 157.003184681076 500
4 32 1.55322245670091 155.322245670091 500
4 33 1.79078195210919 179.078195210919 500
4 44 2.1964744478368 219.64744478368 500
5 6 2.06400096899202 206.400096899202 500
5 23 1.26649121591901 126.649121591901 500
5 36 0.902718117686801 90.2718117686801 500
5 45 1.22384639559056 122.384639559056 500
6 22 1.40630722105804 140.630722105804 500
6 23 0.836002392341075 83.6002392341075 500
6 26 1.41534448103633 141.534448103633 500
6 33 1.0989540481749 109.89540481749 500
7 8 0.507740090991444 50.7740090991444 500
7 23 1.13569362065656 113.569362065656 500
7 39 0.639999999999999 63.9999999999999 500
8 16 1.50658554353877 150.658554353877 500
9 12 0.822253002426869 82.2253002426869 500
9 14 1.89517809189532 189.517809189532 500
10 17 0.237697286480091 23.7697286480091 500
10 24 1.01074230147946 101.074230147946 500
10 34 0.430813184570759 43.0813184570759 500
11 15 0.432897216438268 43.2897216438268 500
11 26 2.06874358005046 206.874358005046 500
11 36 0.483838816136118 48.3838816136118 500
11 45 0.834505841801003 83.4505841801003 500
12 14 2.69046464388589 269.046464388589 500
12 32 1.3851353724456 138.51353724456 500
13 15 0.326496554346291 32.6496554346291 500
13 30 0.325729949498049 32.5729949498049 500
14 26 1.56732255773979 156.732255773979 500
14 32 1.3875157656762 138.75157656762 500
14 50 1.6077624202599 160.77624202599 500
15 49 0.653758365147246 65.3758365147246 500
16 28 0.796115569499806 79.6115569499806 500
17 19 1.07424392015966 107.424392015966 500
17 20 0.451774279923064 45.1774279923064 500
17 29 1.22249744376011 122.249744376011 500
18 25 1.19707978013163 119.707978013163 500
18 31 1.41661568535718 141.661568535718 500
19 20 1.02004901843 102.004901843 500
19 26 0.781024967590663 78.1024967590663 500
19 50 0.828733974204028 82.8733974204028 500
20 26 1.12609946274741 112.609946274741 500
20 45 0.724706837279736 72.4706837279736 500
21 44 2.02338824747007 202.338824747007 500
22 23 1.22024587686253 122.024587686253 500
22 28 0.780896920214188 78.0896920214188 500
22 44 1.46013697987552 146.013697987552 500
23 40 1.69295599470276 169.295599470276 500
24 25 0.782304288624319 78.2304288624319 500
24 29 0.996895180046527 99.6895180046527 500
24 43 0.747261667690777 74.7261667690777 500
25 34 0.486621002423862 48.6621002423862 500
25 43 1.39742620556507 139.742620556507 500
25 46 0.740945342113706 74.0945342113706 500
27 31 1.14157785542643 114.157785542643 500
27 35 1.32189258262538 132.189258262538 500
28 44 1.54693244842818 154.693244842818 500
29 30 0.845044377532919 84.5044377532919 500
29 45 0.721248916810277 72.1248916810277 500
29 47 1.06212052046837 106.212052046837 500
31 46 1.08295890965448 108.295890965448 500
32 33 1.08977061806602 108.977061806602 500
33 44 1.4227438279606 142.27438279606 500
35 38 1.51921032118664 151.921032118664 500
35 41 1.93610433603151 193.610433603151 500
35 42 0.996443676280803 99.6443676280803 500
36 40 0.530094331227944 53.0094331227944 500
37 39 1.11359777298628 111.359777298628 500
37 49 2.36425463941598 236.425463941598 500
38 42 1.20353645561736 120.353645561736 500
38 50 1.08060168424818 108.060168424818 500
39 40 0.849293824303461 84.9293824303461 500
39 49 2.51872983862899 251.872983862899 500
41 42 1.43589693223434 143.589693223434 500
43 47 0.626817357768596 62.6817357768596 500
46 48 0.952732911156114 95.2732911156114 500
46 50 1.3559129765586 135.59129765586 500
30 1 0.849293824303462 84.9293824303462 500
47 1 1.19570063142912 119.570063142912 500
49 1 0.711196175467784 71.1196175467784 500
35 2 0.693757882838098 69.3757882838098 500
48 2 0.912688336728371 91.2688336728371 500
50 2 1.72261429228949 172.261429228949 500
9 3 1.61978393620878 161.978393620878 500
32 3 1.61623018162637 161.623018162637 500
38 3 0.66573267908373 66.573267908373 500
12 4 1.52829970882678 152.829970882678 500
21 4 1.57003184681076 157.003184681076 500
32 4 1.55322245670091 155.322245670091 500
33 4 1.79078195210919 179.078195210919 500
44 4 2.1964744478368 219.64744478368 500
6 5 2.06400096899202 206.400096899202 500
23 5 1.26649121591901 126.649121591901 500
36 5 0.902718117686801 90.2718117686801 500
45 5 1.22384639559056 122.384639559056 500
22 6 1.40630722105804 140.630722105804 500
23 6 0.836002392341075 83.6002392341075 500
26 6 1.41534448103633 141.534448103633 500
33 6 1.0989540481749 109.89540481749 500
8 7 0.507740090991444 50.7740090991444 500
23 7 1.13569362065656 113.569362065656 500
39 7 0.639999999999999 63.9999999999999 500
16 8 1.50658554353877 150.658554353877 500
12 9 0.822253002426869 82.2253002426869 500
14 9 1.89517809189532 189.517809189532 500
17 10 0.237697286480091 23.7697286480091 500
24 10 1.01074230147946 101.074230147946 500
34 10 0.430813184570759 43.0813184570759 500
15 11 0.432897216438268 43.2897216438268 500
26 11 2.06874358005046 206.874358005046 500
36 11 0.483838816136118 48.3838816136118 500
45 11 0.834505841801003 83.4505841801003 500
14 12 2.69046464388589 269.046464388589 500
32 12 1.3851353724456 138.51353724456 500
15 13 0.326496554346291 32.6496554346291 500
30 13 0.325729949498049 32.5729949498049 500
26 14 1.56732255773979 156.732255773979 500
32 14 1.3875157656762 138.75157656762 500
50 14 1.6077624202599 160.77624202599 500
49 15 0.653758365147246 65.3758365147246 500
28 16 0.796115569499806 79.6115569499806 500
19 17 1.07424392015966 107.424392015966 500
20 17 0.451774279923064 45.1774279923064 500
29 17 1.22249744376011 122.249744376011 500
25 18 1.19707978013163 119.707978013163 500
31 18 1.41661568535718 141.661568535718 500
20 19 1.02004901843 102.004901843 500
26 19 0.781024967590663 78.1024967590663 500
50 19 0.828733974204028 82.8733974204028 500
26 20 1.12609946274741 112.609946274741 500
45 20 0.724706837279736 72.4706837279736 500
44 21 2.02338824747007 202.338824747007 500
23 22 1.22024587686253 122.024587686253 500
28 22 0.780896920214188 78.0896920214188 500
44 22 1.46013697987552 146.013697987552 500
40 23 1.69295599470276 169.295599470276 500
25 24 0.782304288624319 78.2304288624319 500
29 24 0.996895180046527 99.6895180046527 500
43 24 0.747261667690777 74.7261667690777 500
34 25 0.486621002423862 48.6621002423862 500
43 25 1.39742620556507 139.742620556507 500
46 25 0.740945342113706 74.0945342113706 500
31 27 1.14157785542643 114.157785542643 500
35 27 1.32189258262538 132.189258262538 500
44 28 1.54693244842818 154.693244842818 500
30 29 0.845044377532919 84.5044377532919 500
45 29 0.721248916810277 72.1248916810277 500
47 29 1.06212052046837 106.212052046837 500
46 31 1.08295890965448 108.295890965448 500
33 32 1.08977061806602 108.977061806602 500
44 33 1.4227438279606 142.27438279606 500
38 35 1.51921032118664 151.921032118664 500
41 35 1.93610433603151 193.610433603151 500
42 35 0.996443676280803 99.6443676280803 500
40 36 0.530094331227944 53.0094331227944 500
39 37 1.11359777298628 111.359777298628 500
49 37 2.36425463941598 236.425463941598 500
42 38 1.20353645561736 120.353645561736 500
50 38 1.08060168424818 108.060168424818 500
40 39 0.849293824303461 84.9293824303461 500
49 39 2.51872983862899 251.872983862899 500
42 41 1.43589693223434 143.589693223434 500
47 43 0.626817357768596 62.6817357768596 500
48 46 0.952732911156114 95.2732911156114 500
50 46 1.3559129765586 135.59129765586 500
;

param k := 26 ;

param vn:=
1 28
2 28
3 28
4 28
5 28
6 28
7 28
8 28
9 28
10 28
11 28
12 28
13 28
14 28
15 28
16 28
17 28
18 28
19 28
20 28
21 28
22 28
23 28
24 28
25 28
26 28
;

param Pk:=
1 100
2 100
3 100
4 100
5 100
6 100
7 100
8 100
9 100
10 100
11 100
12 100
13 100
14 100
15 100
16 100
17 100
18 100
19 100
20 100
21 100
22 100
23 100
24 100
25 100
26 100
;

param an:=
1 1 2 1
1 1 3 1
1 1 4 1
1 1 5 1
1 1 6 1
1 1 7 1
1 1 8 1
1 1 9 1
1 1 10 1
1 1 11 1
1 1 12 1
1 1 13 1
1 1 14 1
1 1 15 1
1 1 16 1
1 1 17 1
1 1 18 1
1 1 19 1
1 1 20 1
1 1 21 1
1 1 22 1
1 1 23 1
1 1 24 1
1 1 25 1
1 1 26 1
1 1 27 1
1 1 28 1
2 1 2 1
2 1 3 1
2 1 4 1
2 1 5 1
2 1 6 1
2 1 7 1
2 1 8 1
2 1 9 1
2 1 10 1
2 1 11 1
2 1 12 1
2 1 13 1
2 1 14 1
2 1 15 1
2 1 16 1
2 1 17 1
2 1 18 1
2 1 19 1
2 1 20 1
2 1 21 1
2 1 22 1
2 1 23 1
2 1 24 1
2 1 25 1
2 1 26 1
2 1 27 1
2 1 28 1
3 1 2 1
3 1 3 1
3 1 4 1
3 1 5 1
3 1 6 1
3 1 7 1
3 1 8 1
3 1 9 1
3 1 10 1
3 1 11 1
3 1 12 1
3 1 13 1
3 1 14 1
3 1 15 1
3 1 16 1
3 1 17 1
3 1 18 1
3 1 19 1
3 1 20 1
3 1 21 1
3 1 22 1
3 1 23 1
3 1 24 1
3 1 25 1
3 1 26 1
3 1 27 1
3 1 28 1
4 1 2 1
4 1 3 1
4 1 4 1
4 1 5 1
4 1 6 1
4 1 7 1
4 1 8 1
4 1 9 1
4 1 10 1
4 1 11 1
4 1 12 1
4 1 13 1
4 1 14 1
4 1 15 1
4 1 16 1
4 1 17 1
4 1 18 1
4 1 19 1
4 1 20 1
4 1 21 1
4 1 22 1
4 1 23 1
4 1 24 1
4 1 25 1
4 1 26 1
4 1 27 1
4 1 28 1
5 1 2 1
5 1 3 1
5 1 4 1
5 1 5 1
5 1 6 1
5 1 7 1
5 1 8 1
5 1 9 1
5 1 10 1
5 1 11 1
5 1 12 1
5 1 13 1
5 1 14 1
5 1 15 1
5 1 16 1
5 1 17 1
5 1 18 1
5 1 19 1
5 1 20 1
5 1 21 1
5 1 22 1
5 1 23 1
5 1 24 1
5 1 25 1
5 1 26 1
5 1 27 1
5 1 28 1
6 1 2 1
6 1 3 1
6 1 4 1
6 1 5 1
6 1 6 1
6 1 7 1
6 1 8 1
6 1 9 1
6 1 10 1
6 1 11 1
6 1 12 1
6 1 13 1
6 1 14 1
6 1 15 1
6 1 16 1
6 1 17 1
6 1 18 1
6 1 19 1
6 1 20 1
6 1 21 1
6 1 22 1
6 1 23 1
6 1 24 1
6 1 25 1
6 1 26 1
6 1 27 1
6 1 28 1
7 1 2 1
7 1 3 1
7 1 4 1
7 1 5 1
7 1 6 1
7 1 7 1
7 1 8 1
7 1 9 1
7 1 10 1
7 1 11 1
7 1 12 1
7 1 13 1
7 1 14 1
7 1 15 1
7 1 16 1
7 1 17 1
7 1 18 1
7 1 19 1
7 1 20 1
7 1 21 1
7 1 22 1
7 1 23 1
7 1 24 1
7 1 25 1
7 1 26 1
7 1 27 1
7 1 28 1
8 1 2 1
8 1 3 1
8 1 4 1
8 1 5 1
8 1 6 1
8 1 7 1
8 1 8 1
8 1 9 1
8 1 10 1
8 1 11 1
8 1 12 1
8 1 13 1
8 1 14 1
8 1 15 1
8 1 16 1
8 1 17 1
8 1 18 1
8 1 19 1
8 1 20 1
8 1 21 1
8 1 22 1
8 1 23 1
8 1 24 1
8 1 25 1
8 1 26 1
8 1 27 1
8 1 28 1
9 1 2 1
9 1 3 1
9 1 4 1
9 1 5 1
9 1 6 1
9 1 7 1
9 1 8 1
9 1 9 1
9 1 10 1
9 1 11 1
9 1 12 1
9 1 13 1
9 1 14 1
9 1 15 1
9 1 16 1
9 1 17 1
9 1 18 1
9 1 19 1
9 1 20 1
9 1 21 1
9 1 22 1
9 1 23 1
9 1 24 1
9 1 25 1
9 1 26 1
9 1 27 1
9 1 28 1
10 1 2 1
10 1 3 1
10 1 4 1
10 1 5 1
10 1 6 1
10 1 7 1
10 1 8 1
10 1 9 1
10 1 10 1
10 1 11 1
10 1 12 1
10 1 13 1
10 1 14 1
10 1 15 1
10 1 16 1
10 1 17 1
10 1 18 1
10 1 19 1
10 1 20 1
10 1 21 1
10 1 22 1
10 1 23 1
10 1 24 1
10 1 25 1
10 1 26 1
10 1 27 1
10 1 28 1
11 1 2 1
11 1 3 1
11 1 4 1
11 1 5 1
11 1 6 1
11 1 7 1
11 1 8 1
11 1 9 1
11 1 10 1
11 1 11 1
11 1 12 1
11 1 13 1
11 1 14 1
11 1 15 1
11 1 16 1
11 1 17 1
11 1 18 1
11 1 19 1
11 1 20 1
11 1 21 1
11 1 22 1
11 1 23 1
11 1 24 1
11 1 25 1
11 1 26 1
11 1 27 1
11 1 28 1
12 1 2 1
12 1 3 1
12 1 4 1
12 1 5 1
12 1 6 1
12 1 7 1
12 1 8 1
12 1 9 1
12 1 10 1
12 1 11 1
12 1 12 1
12 1 13 1
12 1 14 1
12 1 15 1
12 1 16 1
12 1 17 1
12 1 18 1
12 1 19 1
12 1 20 1
12 1 21 1
12 1 22 1
12 1 23 1
12 1 24 1
12 1 25 1
12 1 26 1
12 1 27 1
12 1 28 1
13 1 2 1
13 1 3 1
13 1 4 1
13 1 5 1
13 1 6 1
13 1 7 1
13 1 8 1
13 1 9 1
13 1 10 1
13 1 11 1
13 1 12 1
13 1 13 1
13 1 14 1
13 1 15 1
13 1 16 1
13 1 17 1
13 1 18 1
13 1 19 1
13 1 20 1
13 1 21 1
13 1 22 1
13 1 23 1
13 1 24 1
13 1 25 1
13 1 26 1
13 1 27 1
13 1 28 1
14 1 2 1
14 1 3 1
14 1 4 1
14 1 5 1
14 1 6 1
14 1 7 1
14 1 8 1
14 1 9 1
14 1 10 1
14 1 11 1
14 1 12 1
14 1 13 1
14 1 14 1
14 1 15 1
14 1 16 1
14 1 17 1
14 1 18 1
14 1 19 1
14 1 20 1
14 1 21 1
14 1 22 1
14 1 23 1
14 1 24 1
14 1 25 1
14 1 26 1
14 1 27 1
14 1 28 1
15 1 2 1
15 1 3 1
15 1 4 1
15 1 5 1
15 1 6 1
15 1 7 1
15 1 8 1
15 1 9 1
15 1 10 1
15 1 11 1
15 1 12 1
15 1 13 1
15 1 14 1
15 1 15 1
15 1 16 1
15 1 17 1
15 1 18 1
15 1 19 1
15 1 20 1
15 1 21 1
15 1 22 1
15 1 23 1
15 1 24 1
15 1 25 1
15 1 26 1
15 1 27 1
15 1 28 1
16 1 2 1
16 1 3 1
16 1 4 1
16 1 5 1
16 1 6 1
16 1 7 1
16 1 8 1
16 1 9 1
16 1 10 1
16 1 11 1
16 1 12 1
16 1 13 1
16 1 14 1
16 1 15 1
16 1 16 1
16 1 17 1
16 1 18 1
16 1 19 1
16 1 20 1
16 1 21 1
16 1 22 1
16 1 23 1
16 1 24 1
16 1 25 1
16 1 26 1
16 1 27 1
16 1 28 1
17 1 2 1
17 1 3 1
17 1 4 1
17 1 5 1
17 1 6 1
17 1 7 1
17 1 8 1
17 1 9 1
17 1 10 1
17 1 11 1
17 1 12 1
17 1 13 1
17 1 14 1
17 1 15 1
17 1 16 1
17 1 17 1
17 1 18 1
17 1 19 1
17 1 20 1
17 1 21 1
17 1 22 1
17 1 23 1
17 1 24 1
17 1 25 1
17 1 26 1
17 1 27 1
17 1 28 1
18 1 2 1
18 1 3 1
18 1 4 1
18 1 5 1
18 1 6 1
18 1 7 1
18 1 8 1
18 1 9 1
18 1 10 1
18 1 11 1
18 1 12 1
18 1 13 1
18 1 14 1
18 1 15 1
18 1 16 1
18 1 17 1
18 1 18 1
18 1 19 1
18 1 20 1
18 1 21 1
18 1 22 1
18 1 23 1
18 1 24 1
18 1 25 1
18 1 26 1
18 1 27 1
18 1 28 1
19 1 2 1
19 1 3 1
19 1 4 1
19 1 5 1
19 1 6 1
19 1 7 1
19 1 8 1
19 1 9 1
19 1 10 1
19 1 11 1
19 1 12 1
19 1 13 1
19 1 14 1
19 1 15 1
19 1 16 1
19 1 17 1
19 1 18 1
19 1 19 1
19 1 20 1
19 1 21 1
19 1 22 1
19 1 23 1
19 1 24 1
19 1 25 1
19 1 26 1
19 1 27 1
19 1 28 1
20 1 2 1
20 1 3 1
20 1 4 1
20 1 5 1
20 1 6 1
20 1 7 1
20 1 8 1
20 1 9 1
20 1 10 1
20 1 11 1
20 1 12 1
20 1 13 1
20 1 14 1
20 1 15 1
20 1 16 1
20 1 17 1
20 1 18 1
20 1 19 1
20 1 20 1
20 1 21 1
20 1 22 1
20 1 23 1
20 1 24 1
20 1 25 1
20 1 26 1
20 1 27 1
20 1 28 1
21 1 2 1
21 1 3 1
21 1 4 1
21 1 5 1
21 1 6 1
21 1 7 1
21 1 8 1
21 1 9 1
21 1 10 1
21 1 11 1
21 1 12 1
21 1 13 1
21 1 14 1
21 1 15 1
21 1 16 1
21 1 17 1
21 1 18 1
21 1 19 1
21 1 20 1
21 1 21 1
21 1 22 1
21 1 23 1
21 1 24 1
21 1 25 1
21 1 26 1
21 1 27 1
21 1 28 1
22 1 2 1
22 1 3 1
22 1 4 1
22 1 5 1
22 1 6 1
22 1 7 1
22 1 8 1
22 1 9 1
22 1 10 1
22 1 11 1
22 1 12 1
22 1 13 1
22 1 14 1
22 1 15 1
22 1 16 1
22 1 17 1
22 1 18 1
22 1 19 1
22 1 20 1
22 1 21 1
22 1 22 1
22 1 23 1
22 1 24 1
22 1 25 1
22 1 26 1
22 1 27 1
22 1 28 1
23 1 2 1
23 1 3 1
23 1 4 1
23 1 5 1
23 1 6 1
23 1 7 1
23 1 8 1
23 1 9 1
23 1 10 1
23 1 11 1
23 1 12 1
23 1 13 1
23 1 14 1
23 1 15 1
23 1 16 1
23 1 17 1
23 1 18 1
23 1 19 1
23 1 20 1
23 1 21 1
23 1 22 1
23 1 23 1
23 1 24 1
23 1 25 1
23 1 26 1
23 1 27 1
23 1 28 1
24 1 2 1
24 1 3 1
24 1 4 1
24 1 5 1
24 1 6 1
24 1 7 1
24 1 8 1
24 1 9 1
24 1 10 1
24 1 11 1
24 1 12 1
24 1 13 1
24 1 14 1
24 1 15 1
24 1 16 1
24 1 17 1
24 1 18 1
24 1 19 1
24 1 20 1
24 1 21 1
24 1 22 1
24 1 23 1
24 1 24 1
24 1 25 1
24 1 26 1
24 1 27 1
24 1 28 1
25 1 2 1
25 1 3 1
25 1 4 1
25 1 5 1
25 1 6 1
25 1 7 1
25 1 8 1
25 1 9 1
25 1 10 1
25 1 11 1
25 1 12 1
25 1 13 1
25 1 14 1
25 1 15 1
25 1 16 1
25 1 17 1
25 1 18 1
25 1 19 1
25 1 20 1
25 1 21 1
25 1 22 1
25 1 23 1
25 1 24 1
25 1 25 1
25 1 26 1
25 1 27 1
25 1 28 1
26 1 2 1
26 1 3 1
26 1 4 1
26 1 5 1
26 1 6 1
26 1 7 1
26 1 8 1
26 1 9 1
26 1 10 1
26 1 11 1
26 1 12 1
26 1 13 1
26 1 14 1
26 1 15 1
26 1 16 1
26 1 17 1
26 1 18 1
26 1 19 1
26 1 20 1
26 1 21 1
26 1 22 1
26 1 23 1
26 1 24 1
26 1 25 1
26 1 26 1
26 1 27 1
26 1 28 1
1 2 1 1
1 3 1 1
1 4 1 1
1 5 1 1
1 6 1 1
1 7 1 1
1 8 1 1
1 9 1 1
1 10 1 1
1 11 1 1
1 12 1 1
1 13 1 1
1 14 1 1
1 15 1 1
1 16 1 1
1 17 1 1
1 18 1 1
1 19 1 1
1 20 1 1
1 21 1 1
1 22 1 1
1 23 1 1
1 24 1 1
1 25 1 1
1 26 1 1
1 27 1 1
1 28 1 1
2 2 1 1
2 3 1 1
2 4 1 1
2 5 1 1
2 6 1 1
2 7 1 1
2 8 1 1
2 9 1 1
2 10 1 1
2 11 1 1
2 12 1 1
2 13 1 1
2 14 1 1
2 15 1 1
2 16 1 1
2 17 1 1
2 18 1 1
2 19 1 1
2 20 1 1
2 21 1 1
2 22 1 1
2 23 1 1
2 24 1 1
2 25 1 1
2 26 1 1
2 27 1 1
2 28 1 1
3 2 1 1
3 3 1 1
3 4 1 1
3 5 1 1
3 6 1 1
3 7 1 1
3 8 1 1
3 9 1 1
3 10 1 1
3 11 1 1
3 12 1 1
3 13 1 1
3 14 1 1
3 15 1 1
3 16 1 1
3 17 1 1
3 18 1 1
3 19 1 1
3 20 1 1
3 21 1 1
3 22 1 1
3 23 1 1
3 24 1 1
3 25 1 1
3 26 1 1
3 27 1 1
3 28 1 1
4 2 1 1
4 3 1 1
4 4 1 1
4 5 1 1
4 6 1 1
4 7 1 1
4 8 1 1
4 9 1 1
4 10 1 1
4 11 1 1
4 12 1 1
4 13 1 1
4 14 1 1
4 15 1 1
4 16 1 1
4 17 1 1
4 18 1 1
4 19 1 1
4 20 1 1
4 21 1 1
4 22 1 1
4 23 1 1
4 24 1 1
4 25 1 1
4 26 1 1
4 27 1 1
4 28 1 1
5 2 1 1
5 3 1 1
5 4 1 1
5 5 1 1
5 6 1 1
5 7 1 1
5 8 1 1
5 9 1 1
5 10 1 1
5 11 1 1
5 12 1 1
5 13 1 1
5 14 1 1
5 15 1 1
5 16 1 1
5 17 1 1
5 18 1 1
5 19 1 1
5 20 1 1
5 21 1 1
5 22 1 1
5 23 1 1
5 24 1 1
5 25 1 1
5 26 1 1
5 27 1 1
5 28 1 1
6 2 1 1
6 3 1 1
6 4 1 1
6 5 1 1
6 6 1 1
6 7 1 1
6 8 1 1
6 9 1 1
6 10 1 1
6 11 1 1
6 12 1 1
6 13 1 1
6 14 1 1
6 15 1 1
6 16 1 1
6 17 1 1
6 18 1 1
6 19 1 1
6 20 1 1
6 21 1 1
6 22 1 1
6 23 1 1
6 24 1 1
6 25 1 1
6 26 1 1
6 27 1 1
6 28 1 1
7 2 1 1
7 3 1 1
7 4 1 1
7 5 1 1
7 6 1 1
7 7 1 1
7 8 1 1
7 9 1 1
7 10 1 1
7 11 1 1
7 12 1 1
7 13 1 1
7 14 1 1
7 15 1 1
7 16 1 1
7 17 1 1
7 18 1 1
7 19 1 1
7 20 1 1
7 21 1 1
7 22 1 1
7 23 1 1
7 24 1 1
7 25 1 1
7 26 1 1
7 27 1 1
7 28 1 1
8 2 1 1
8 3 1 1
8 4 1 1
8 5 1 1
8 6 1 1
8 7 1 1
8 8 1 1
8 9 1 1
8 10 1 1
8 11 1 1
8 12 1 1
8 13 1 1
8 14 1 1
8 15 1 1
8 16 1 1
8 17 1 1
8 18 1 1
8 19 1 1
8 20 1 1
8 21 1 1
8 22 1 1
8 23 1 1
8 24 1 1
8 25 1 1
8 26 1 1
8 27 1 1
8 28 1 1
9 2 1 1
9 3 1 1
9 4 1 1
9 5 1 1
9 6 1 1
9 7 1 1
9 8 1 1
9 9 1 1
9 10 1 1
9 11 1 1
9 12 1 1
9 13 1 1
9 14 1 1
9 15 1 1
9 16 1 1
9 17 1 1
9 18 1 1
9 19 1 1
9 20 1 1
9 21 1 1
9 22 1 1
9 23 1 1
9 24 1 1
9 25 1 1
9 26 1 1
9 27 1 1
9 28 1 1
10 2 1 1
10 3 1 1
10 4 1 1
10 5 1 1
10 6 1 1
10 7 1 1
10 8 1 1
10 9 1 1
10 10 1 1
10 11 1 1
10 12 1 1
10 13 1 1
10 14 1 1
10 15 1 1
10 16 1 1
10 17 1 1
10 18 1 1
10 19 1 1
10 20 1 1
10 21 1 1
10 22 1 1
10 23 1 1
10 24 1 1
10 25 1 1
10 26 1 1
10 27 1 1
10 28 1 1
11 2 1 1
11 3 1 1
11 4 1 1
11 5 1 1
11 6 1 1
11 7 1 1
11 8 1 1
11 9 1 1
11 10 1 1
11 11 1 1
11 12 1 1
11 13 1 1
11 14 1 1
11 15 1 1
11 16 1 1
11 17 1 1
11 18 1 1
11 19 1 1
11 20 1 1
11 21 1 1
11 22 1 1
11 23 1 1
11 24 1 1
11 25 1 1
11 26 1 1
11 27 1 1
11 28 1 1
12 2 1 1
12 3 1 1
12 4 1 1
12 5 1 1
12 6 1 1
12 7 1 1
12 8 1 1
12 9 1 1
12 10 1 1
12 11 1 1
12 12 1 1
12 13 1 1
12 14 1 1
12 15 1 1
12 16 1 1
12 17 1 1
12 18 1 1
12 19 1 1
12 20 1 1
12 21 1 1
12 22 1 1
12 23 1 1
12 24 1 1
12 25 1 1
12 26 1 1
12 27 1 1
12 28 1 1
13 2 1 1
13 3 1 1
13 4 1 1
13 5 1 1
13 6 1 1
13 7 1 1
13 8 1 1
13 9 1 1
13 10 1 1
13 11 1 1
13 12 1 1
13 13 1 1
13 14 1 1
13 15 1 1
13 16 1 1
13 17 1 1
13 18 1 1
13 19 1 1
13 20 1 1
13 21 1 1
13 22 1 1
13 23 1 1
13 24 1 1
13 25 1 1
13 26 1 1
13 27 1 1
13 28 1 1
14 2 1 1
14 3 1 1
14 4 1 1
14 5 1 1
14 6 1 1
14 7 1 1
14 8 1 1
14 9 1 1
14 10 1 1
14 11 1 1
14 12 1 1
14 13 1 1
14 14 1 1
14 15 1 1
14 16 1 1
14 17 1 1
14 18 1 1
14 19 1 1
14 20 1 1
14 21 1 1
14 22 1 1
14 23 1 1
14 24 1 1
14 25 1 1
14 26 1 1
14 27 1 1
14 28 1 1
15 2 1 1
15 3 1 1
15 4 1 1
15 5 1 1
15 6 1 1
15 7 1 1
15 8 1 1
15 9 1 1
15 10 1 1
15 11 1 1
15 12 1 1
15 13 1 1
15 14 1 1
15 15 1 1
15 16 1 1
15 17 1 1
15 18 1 1
15 19 1 1
15 20 1 1
15 21 1 1
15 22 1 1
15 23 1 1
15 24 1 1
15 25 1 1
15 26 1 1
15 27 1 1
15 28 1 1
16 2 1 1
16 3 1 1
16 4 1 1
16 5 1 1
16 6 1 1
16 7 1 1
16 8 1 1
16 9 1 1
16 10 1 1
16 11 1 1
16 12 1 1
16 13 1 1
16 14 1 1
16 15 1 1
16 16 1 1
16 17 1 1
16 18 1 1
16 19 1 1
16 20 1 1
16 21 1 1
16 22 1 1
16 23 1 1
16 24 1 1
16 25 1 1
16 26 1 1
16 27 1 1
16 28 1 1
17 2 1 1
17 3 1 1
17 4 1 1
17 5 1 1
17 6 1 1
17 7 1 1
17 8 1 1
17 9 1 1
17 10 1 1
17 11 1 1
17 12 1 1
17 13 1 1
17 14 1 1
17 15 1 1
17 16 1 1
17 17 1 1
17 18 1 1
17 19 1 1
17 20 1 1
17 21 1 1
17 22 1 1
17 23 1 1
17 24 1 1
17 25 1 1
17 26 1 1
17 27 1 1
17 28 1 1
18 2 1 1
18 3 1 1
18 4 1 1
18 5 1 1
18 6 1 1
18 7 1 1
18 8 1 1
18 9 1 1
18 10 1 1
18 11 1 1
18 12 1 1
18 13 1 1
18 14 1 1
18 15 1 1
18 16 1 1
18 17 1 1
18 18 1 1
18 19 1 1
18 20 1 1
18 21 1 1
18 22 1 1
18 23 1 1
18 24 1 1
18 25 1 1
18 26 1 1
18 27 1 1
18 28 1 1
19 2 1 1
19 3 1 1
19 4 1 1
19 5 1 1
19 6 1 1
19 7 1 1
19 8 1 1
19 9 1 1
19 10 1 1
19 11 1 1
19 12 1 1
19 13 1 1
19 14 1 1
19 15 1 1
19 16 1 1
19 17 1 1
19 18 1 1
19 19 1 1
19 20 1 1
19 21 1 1
19 22 1 1
19 23 1 1
19 24 1 1
19 25 1 1
19 26 1 1
19 27 1 1
19 28 1 1
20 2 1 1
20 3 1 1
20 4 1 1
20 5 1 1
20 6 1 1
20 7 1 1
20 8 1 1
20 9 1 1
20 10 1 1
20 11 1 1
20 12 1 1
20 13 1 1
20 14 1 1
20 15 1 1
20 16 1 1
20 17 1 1
20 18 1 1
20 19 1 1
20 20 1 1
20 21 1 1
20 22 1 1
20 23 1 1
20 24 1 1
20 25 1 1
20 26 1 1
20 27 1 1
20 28 1 1
21 2 1 1
21 3 1 1
21 4 1 1
21 5 1 1
21 6 1 1
21 7 1 1
21 8 1 1
21 9 1 1
21 10 1 1
21 11 1 1
21 12 1 1
21 13 1 1
21 14 1 1
21 15 1 1
21 16 1 1
21 17 1 1
21 18 1 1
21 19 1 1
21 20 1 1
21 21 1 1
21 22 1 1
21 23 1 1
21 24 1 1
21 25 1 1
21 26 1 1
21 27 1 1
21 28 1 1
22 2 1 1
22 3 1 1
22 4 1 1
22 5 1 1
22 6 1 1
22 7 1 1
22 8 1 1
22 9 1 1
22 10 1 1
22 11 1 1
22 12 1 1
22 13 1 1
22 14 1 1
22 15 1 1
22 16 1 1
22 17 1 1
22 18 1 1
22 19 1 1
22 20 1 1
22 21 1 1
22 22 1 1
22 23 1 1
22 24 1 1
22 25 1 1
22 26 1 1
22 27 1 1
22 28 1 1
23 2 1 1
23 3 1 1
23 4 1 1
23 5 1 1
23 6 1 1
23 7 1 1
23 8 1 1
23 9 1 1
23 10 1 1
23 11 1 1
23 12 1 1
23 13 1 1
23 14 1 1
23 15 1 1
23 16 1 1
23 17 1 1
23 18 1 1
23 19 1 1
23 20 1 1
23 21 1 1
23 22 1 1
23 23 1 1
23 24 1 1
23 25 1 1
23 26 1 1
23 27 1 1
23 28 1 1
24 2 1 1
24 3 1 1
24 4 1 1
24 5 1 1
24 6 1 1
24 7 1 1
24 8 1 1
24 9 1 1
24 10 1 1
24 11 1 1
24 12 1 1
24 13 1 1
24 14 1 1
24 15 1 1
24 16 1 1
24 17 1 1
24 18 1 1
24 19 1 1
24 20 1 1
24 21 1 1
24 22 1 1
24 23 1 1
24 24 1 1
24 25 1 1
24 26 1 1
24 27 1 1
24 28 1 1
25 2 1 1
25 3 1 1
25 4 1 1
25 5 1 1
25 6 1 1
25 7 1 1
25 8 1 1
25 9 1 1
25 10 1 1
25 11 1 1
25 12 1 1
25 13 1 1
25 14 1 1
25 15 1 1
25 16 1 1
25 17 1 1
25 18 1 1
25 19 1 1
25 20 1 1
25 21 1 1
25 22 1 1
25 23 1 1
25 24 1 1
25 25 1 1
25 26 1 1
25 27 1 1
25 28 1 1
26 2 1 1
26 3 1 1
26 4 1 1
26 5 1 1
26 6 1 1
26 7 1 1
26 8 1 1
26 9 1 1
26 10 1 1
26 11 1 1
26 12 1 1
26 13 1 1
26 14 1 1
26 15 1 1
26 16 1 1
26 17 1 1
26 18 1 1
26 19 1 1
26 20 1 1
26 21 1 1
26 22 1 1
26 23 1 1
26 24 1 1
26 25 1 1
26 26 1 1
26 27 1 1
26 28 1 1
;

param q:=
1 1 2 4.98513792659536 
1 1 3 6.34649885041358 
1 1 4 5.09742981699042 
1 1 5 15.8193684004662 
1 1 6 63.3708355080814 
1 1 7 8.3674055350279 
1 1 8 6.31947669819484 
1 1 9 10.223372722974 
1 1 10 5.79847609890043 
1 1 11 6.3979770037358 
1 1 12 0.6 
1 1 13 13.7483069483781 
1 1 14 13.7177698362783 
1 1 15 4.13844553940482 
1 1 16 9.75673820487272 
1 1 17 10.7968929105583 
1 1 18 63.3764372984481 
1 1 19 14.8133264722733 
1 1 20 69.1680007497301 
1 1 21 13.2608150502892 
1 1 22 9.83012997196195 
1 1 23 6.91477620771707 
1 1 24 7.37754572403108 
1 1 25 5.89973114978998 
1 1 26 9.10252704332629 
1 1 27 50.6806118419686 
1 1 28 10.9656125628591 
2 1 2 4.49946792415304 
2 1 3 3.78676249904425 
2 1 4 1.40877013035202 
2 1 5 9.14078106049739 
2 1 6 1.61113579171583 
2 1 7 4.10041424365647 
2 1 8 3.53015558008479 
2 1 9 12.2444581687013 
2 1 10 6.2812243821275 
2 1 11 5.12363787093235 
2 1 12 8.24634444175123 
2 1 13 1.35710532428376 
2 1 14 13.8619026628732 
2 1 15 5.82768246492357 
2 1 16 6.70195600202527 
2 1 17 11.4879543459206 
2 1 18 15.20320575871 
2 1 19 0.6 
2 1 20 4.40365683845848 
2 1 21 9.40810790681118 
2 1 22 11.1600336484091 
2 1 23 3.26714485539648 
2 1 24 5.42937412139783 
2 1 25 12.8135726508116 
2 1 26 0.6 
2 1 27 11.4251362455444 
2 1 28 9.60013493315289 
3 1 2 48.3422754169008 
3 1 3 8.84629726940157 
3 1 4 65.9339865691138 
3 1 5 5.20493836056804 
3 1 6 55.937098470646 
3 1 7 6.14645234605343 
3 1 8 0.775679252935543 
3 1 9 0.771061033835832 
3 1 10 9.85008764383957 
3 1 11 5.08009483467752 
3 1 12 1.43454226541339 
3 1 13 8.69184454324922 
3 1 14 6.26650100174673 
3 1 15 11.1521139307941 
3 1 16 56.6597293094736 
3 1 17 4.67642200128974 
3 1 18 4.49342281302749 
3 1 19 15.6313758940052 
3 1 20 5.70467250456678 
3 1 21 6.87562498630702 
3 1 22 8.29344960078719 
3 1 23 20.8530010476853 
3 1 24 3 
3 1 25 6.49588098072051 
3 1 26 13.8769481341419 
3 1 27 52.0053102243268 
3 1 28 9.18394199607553 
4 1 2 4.58415364303005 
4 1 3 12.5500916507874 
4 1 4 17.5746462235452 
4 1 5 12.8270776843364 
4 1 6 2.06483250187331 
4 1 7 11.8294842916491 
4 1 8 11.5792127490133 
4 1 9 54.9649486817141 
4 1 10 60.6397557747864 
4 1 11 3.74570110827269 
4 1 12 3.23040562694733 
4 1 13 5.91596906930565 
4 1 14 14.2115219225998 
4 1 15 6.38969001165048 
4 1 16 15.5276936606622 
4 1 17 8.86698362049656 
4 1 18 6.49020943297568 
4 1 19 73.2182619072036 
4 1 20 13.3684868601599 
4 1 21 3.30341474151801 
4 1 22 8.80485168150911 
4 1 23 2.60295971625029 
4 1 24 8.89617544892007 
4 1 25 60.4670120933077 
4 1 26 11.5551072600159 
4 1 27 4.43830848043444 
4 1 28 12.430746452031 
5 1 2 4.76525822285319 
5 1 3 1.26803963547538 
5 1 4 55.2116135891435 
5 1 5 14.4778385152057 
5 1 6 12.7715546647943 
5 1 7 14.340609352119 
5 1 8 60.2820697086924 
5 1 9 11.6526225812067 
5 1 10 4.42294299383946 
5 1 11 2.29515441134233 
5 1 12 11.0487849132376 
5 1 13 12.6348601743806 
5 1 14 0.958239298630154 
5 1 15 1.81995594799527 
5 1 16 8.23460006070089 
5 1 17 10.6543386732676 
5 1 18 14.2031085154973 
5 1 19 0.6 
5 1 20 6.01970498239248 
5 1 21 0.746131858928513 
5 1 22 10.972358359252 
5 1 23 4.61174937156063 
5 1 24 9.23944724612762 
5 1 25 6.61771489769061 
5 1 26 10.4498475408617 
5 1 27 9.4952020501764 
5 1 28 3.33860380585336 
6 1 2 8.2335533065586 
6 1 3 52.2301545178256 
6 1 4 5.85345936254456 
6 1 5 8.95050866028927 
6 1 6 13.7267561522827 
6 1 7 5.72539720301555 
6 1 8 57.1918367708761 
6 1 9 16.5448837935043 
6 1 10 5.92249662917113 
6 1 11 9.85898846941735 
6 1 12 3.59877794886379 
6 1 13 7.61590172154411 
6 1 14 7.75786198158014 
6 1 15 63.0627625564198 
6 1 16 1.64321548971416 
6 1 17 4.45214462911826 
6 1 18 0.827423843003462 
6 1 19 12.1939538519756 
6 1 20 5.54706134926164 
6 1 21 12.0897958533531 
6 1 22 1.28772829394975 
6 1 23 8.70714494350906 
6 1 24 6.54688623889105 
6 1 25 9.62194451101445 
6 1 26 6.48782922719797 
6 1 27 13.3101607518678 
6 1 28 13.894071740367 
7 1 2 12.9672970142651 
7 1 3 17.2270015440524 
7 1 4 9.78175558096092 
7 1 5 8.38422949850139 
7 1 6 9.1444523773793 
7 1 7 16.045072614881 
7 1 8 11.742468685347 
7 1 9 3.90453667812723 
7 1 10 4.74847103929291 
7 1 11 10.913853801872 
7 1 12 7.90262426555127 
7 1 13 7.3209201197652 
7 1 14 3.57643260297995 
7 1 15 5.62373724328404 
7 1 16 10.1647119351101 
7 1 17 5.95385509103198 
7 1 18 16.1453908757804 
7 1 19 3.6654459384522 
7 1 20 51.2814478015786 
7 1 21 9.59825124884471 
7 1 22 9.60547749526505 
7 1 23 10.8851216958705 
7 1 24 8.92033525338881 
7 1 25 6.99594629116965 
7 1 26 5.10545568936095 
7 1 27 1.3725369035276 
7 1 28 53.6170022437299 
8 1 2 5.39050985418541 
8 1 3 9.92965316329049 
8 1 4 4.77967355580929 
8 1 5 11.3466180228061 
8 1 6 3.0288917729597 
8 1 7 10.9615847503568 
8 1 8 57.5398233345499 
8 1 9 18.3688215045954 
8 1 10 14.2642155142684 
8 1 11 5.4348629702137 
8 1 12 53.9060942745692 
8 1 13 7.81830471077397 
8 1 14 5.49300787898714 
8 1 15 14.6484649612917 
8 1 16 15.7265758148131 
8 1 17 13.3379287993868 
8 1 18 6.38807806366061 
8 1 19 11.0830371023067 
8 1 20 13.438271095803 
8 1 21 13.8008677356138 
8 1 22 0.6 
8 1 23 12.9571322151063 
8 1 24 6.80939180084307 
8 1 25 11.1050397974202 
8 1 26 1.22814943959662 
8 1 27 6.18167260322887 
8 1 28 10.7675290832648 
9 1 2 59.0572673875552 
9 1 3 13.9089919719728 
9 1 4 13.6796143259275 
9 1 5 9.47199274545549 
9 1 6 3.24840796800407 
9 1 7 9.32583817921255 
9 1 8 65.3472336412197 
9 1 9 11.8862139625179 
9 1 10 8.35768838600266 
9 1 11 6.29675342139905 
9 1 12 3.30596079406849 
9 1 13 13.0888405767548 
9 1 14 7.29108322064791 
9 1 15 14.0468032401645 
9 1 16 11.6713303343216 
9 1 17 9.17768505583448 
9 1 18 9.96545099832048 
9 1 19 4.22954441524699 
9 1 20 8.78747772064762 
9 1 21 4.88356917515245 
9 1 22 6.431579906064 
9 1 23 11.1696227042659 
9 1 24 6.87137042292943 
9 1 25 62.166675189942 
9 1 26 8.45745609391487 
9 1 27 9.24055109835829 
9 1 28 6.04011856121167 
10 1 2 8.93189744457355 
10 1 3 9.55170707257305 
10 1 4 10.4220025608126 
10 1 5 61.9695082716345 
10 1 6 12.2126324010163 
10 1 7 7.75230057433979 
10 1 8 61.8797757389699 
10 1 9 63.7049119190627 
10 1 10 15.641560653942 
10 1 11 9.5889935733672 
10 1 12 7.00293920702234 
10 1 13 5.45433155756625 
10 1 14 10.2249093444342 
10 1 15 9.20423774541934 
10 1 16 3.82534070206183 
10 1 17 64.5239453732763 
10 1 18 6.25459660939594 
10 1 19 56.1834883025958 
10 1 20 66.6873261714011 
10 1 21 9.33304948668259 
10 1 22 15.0097881107697 
10 1 23 14.312010700948 
10 1 24 5.06767736948569 
10 1 25 8.57968760981671 
10 1 26 6.44620219748281 
10 1 27 0.6 
10 1 28 62.3502746473953 
11 1 2 6.36082006808202 
11 1 3 10.2337792671045 
11 1 4 5.4394352104088 
11 1 5 2.12486988317614 
11 1 6 79.706089432199 
11 1 7 15.4055387754498 
11 1 8 6.46386055379487 
11 1 9 6.02364189394769 
11 1 10 7.4819910971781 
11 1 11 9.20878877991381 
11 1 12 6.22578863819878 
11 1 13 8.25292361967063 
11 1 14 1.65249694928319 
11 1 15 11.4198219606675 
11 1 16 51.9751184994261 
11 1 17 3.03737908229207 
11 1 18 13.5508225344762 
11 1 19 0.6 
11 1 20 63.8137340649675 
11 1 21 8.31520792221163 
11 1 22 66.6193681383921 
11 1 23 0.6 
11 1 24 12.2730249731701 
11 1 25 64.9010595181632 
11 1 26 14.3737094742939 
11 1 27 10.8948399855231 
11 1 28 7.38847612425646 
12 1 2 6.22554629796248 
12 1 3 3.65347622172097 
12 1 4 6.35188107816067 
12 1 5 8.37604603805031 
12 1 6 5.4725870357502 
12 1 7 9.31587241752299 
12 1 8 3.64821917089361 
12 1 9 0.617307249659366 
12 1 10 8.62598821711245 
12 1 11 7.24578150376179 
12 1 12 13.6705961602553 
12 1 13 9.64181575537118 
12 1 14 12.8681622975476 
12 1 15 55.8768862142347 
12 1 16 56.6295813120772 
12 1 17 9.00473657792551 
12 1 18 5.61435907838643 
12 1 19 13.3427654386472 
12 1 20 8.53776340767411 
12 1 21 3 
12 1 22 12.8870911241905 
12 1 23 9.64599675515354 
12 1 24 54.7509336393891 
12 1 25 9.66107156495319 
12 1 26 11.6540524513679 
12 1 27 6.35498718957256 
12 1 28 8.1724055750635 
13 1 2 13.8869108443511 
13 1 3 12.1815146255553 
13 1 4 7.9795313506061 
13 1 5 13.0518982073191 
13 1 6 8.96437729582156 
13 1 7 55.9112962263121 
13 1 8 9.81336803245615 
13 1 9 12.5180235319228 
13 1 10 0.803788659827417 
13 1 11 4.86181634998568 
13 1 12 11.4231051909516 
13 1 13 13.7119023864458 
13 1 14 6.18446228278737 
13 1 15 11.1506243619429 
13 1 16 5.30021590375585 
13 1 17 5.90994452111834 
13 1 18 6.58381710729836 
13 1 19 0.6 
13 1 20 1.16773526061318 
13 1 21 14.2287991203141 
13 1 22 6.57949208615115 
13 1 23 59.9701515315175 
13 1 24 5.61267533977858 
13 1 25 12.0560618345822 
13 1 26 5.8282970918455 
13 1 27 10.0319813219658 
13 1 28 7.37692380594607 
14 1 2 8.85773451960762 
14 1 3 2.02143836777281 
14 1 4 0.6 
14 1 5 7.72258759547 
14 1 6 73.6856983401774 
14 1 7 67.5411611191228 
14 1 8 8.45837409897602 
14 1 9 9.67619973785112 
14 1 10 9.56536760337115 
14 1 11 5.57409559333178 
14 1 12 8.14056497454517 
14 1 13 6.43224121688042 
14 1 14 5.49370310861437 
14 1 15 0.6 
14 1 16 5.8923891383372 
14 1 17 11.436551776514 
14 1 18 8.12123606961177 
14 1 19 16.0565306412146 
14 1 20 7.53661803278822 
14 1 21 6.26596319089787 
14 1 22 5.33792356516135 
14 1 23 4.67915887935789 
14 1 24 6.72749078852712 
14 1 25 1.01746952842491 
14 1 26 14.7390310080943 
14 1 27 1.98324828099579 
14 1 28 4.49548388396554 
15 1 2 56.6731715373905 
15 1 3 11.8707146694107 
15 1 4 12.8557116164061 
15 1 5 10.0587352258622 
15 1 6 13.6474548222856 
15 1 7 12.6044527260558 
15 1 8 6 
15 1 9 9.67018606317828 
15 1 10 16.0528765319069 
15 1 11 9.23771524878871 
15 1 12 3.07187454881932 
15 1 13 12.4761083730732 
15 1 14 10.9795488401192 
15 1 15 18.0943126208691 
15 1 16 11.9159482081943 
15 1 17 10.61281810291 
15 1 18 7.32570577365067 
15 1 19 10.1456634885814 
15 1 20 10.1028671059151 
15 1 21 7.60633621602589 
15 1 22 12.2150244141963 
15 1 23 12.5719261101432 
15 1 24 57.0984814594126 
15 1 25 8.73122522368806 
15 1 26 1.40668679486318 
15 1 27 59.7051427909072 
15 1 28 61.7021277799149 
16 1 2 8.95983001672581 
16 1 3 10.2586786737477 
16 1 4 52.9689088637581 
16 1 5 55.8763282136033 
16 1 6 9.29243744886843 
16 1 7 7.43349233884931 
16 1 8 11.1483791973428 
16 1 9 14.0228789469023 
16 1 10 4.25351820449725 
16 1 11 8.87206545883389 
16 1 12 10.9406735110341 
16 1 13 6.38309862560182 
16 1 14 10.8284022235612 
16 1 15 3.74386888899077 
16 1 16 4.33041053484162 
16 1 17 4.7941789129552 
16 1 18 8.02113261216483 
16 1 19 5.78847407577864 
16 1 20 12.2645506243296 
16 1 21 5.04673330826231 
16 1 22 7.19743245393571 
16 1 23 5.67476207770459 
16 1 24 11.867366562903 
16 1 25 15.1751555051789 
16 1 26 10.5679406097225 
16 1 27 9.27755046373872 
16 1 28 13.9237309112335 
17 1 2 8.6069589672833 
17 1 3 8.18510741945741 
17 1 4 6.01788929778872 
17 1 5 9.35059623366349 
17 1 6 60.5289132976819 
17 1 7 12.8273866098549 
17 1 8 12.1501054841137 
17 1 9 13.2781214431734 
17 1 10 61.3805593196739 
17 1 11 5.55540843620009 
17 1 12 63.4834903291009 
17 1 13 9.00856623807342 
17 1 14 55.6605562023176 
17 1 15 13.7344240348664 
17 1 16 73.8977248475458 
17 1 17 9.51627124450618 
17 1 18 55.5426533221313 
17 1 19 7.23178303395348 
17 1 20 9.09272443034985 
17 1 21 0.957687634103438 
17 1 22 6.53522042815586 
17 1 23 66.325113298992 
17 1 24 4.957769644518 
17 1 25 13.3903699021052 
17 1 26 8.29719332507752 
17 1 27 3.75414875268741 
17 1 28 11.5968264978719 
18 1 2 9.22586791118133 
18 1 3 3 
18 1 4 15.9471599125263 
18 1 5 11.5400455939565 
18 1 6 12.4463579064106 
18 1 7 6.28193397415102 
18 1 8 11.2967823557659 
18 1 9 12.2394119020519 
18 1 10 7.54288810104247 
18 1 11 7.10951637632541 
18 1 12 0.6 
18 1 13 11.5029804030855 
18 1 14 61.9369920197282 
18 1 15 10.2190416470109 
18 1 16 0.6 
18 1 17 13.1694753416524 
18 1 18 6.12609743485109 
18 1 19 62.7081899684028 
18 1 20 9.67554638743809 
18 1 21 9.0396446745937 
18 1 22 12.3430073957703 
18 1 23 16.3581371252963 
18 1 24 12.8103536507055 
18 1 25 5.91352608203508 
18 1 26 9.60485928681448 
18 1 27 13.662000417663 
18 1 28 55.4086387368482 
19 1 2 11.3295524445255 
19 1 3 13.6548459207696 
19 1 4 13.8927839643204 
19 1 5 4.82156461526126 
19 1 6 60.8198023990483 
19 1 7 6.09341655638053 
19 1 8 11.7466258770391 
19 1 9 15.3799614497963 
19 1 10 0.892931682956534 
19 1 11 5.64471450735714 
19 1 12 5.56111245290986 
19 1 13 7.20067818958378 
19 1 14 9.93336948880913 
19 1 15 65.4487682379792 
19 1 16 7.96477472160318 
19 1 17 60.6947142614438 
19 1 18 13.0836420913985 
19 1 19 7.94305946365565 
19 1 20 11.2768384962012 
19 1 21 5.30482132232378 
19 1 22 58.0431230328026 
19 1 23 7.34527184136742 
19 1 24 17.0951261246909 
19 1 25 10.9023457268378 
19 1 26 14.4283339139861 
19 1 27 3 
19 1 28 7.63599453597823 
20 1 2 13.0701619960164 
20 1 3 9.47086159238319 
20 1 4 15.1599010307572 
20 1 5 0.6 
20 1 6 1.09270726112452 
20 1 7 10.19535839632 
20 1 8 59.6061963569151 
20 1 9 12.2549563052925 
20 1 10 12.8441174339034 
20 1 11 9.51156147371425 
20 1 12 9.25177327343941 
20 1 13 6.05879938800271 
20 1 14 3.67322861877577 
20 1 15 13.2227872200646 
20 1 16 64.2983082036051 
20 1 17 8.52753019633306 
20 1 18 58.7855986962221 
20 1 19 57.643599918937 
20 1 20 56.5330608706953 
20 1 21 7.9015386372573 
20 1 22 6.48195625807596 
20 1 23 8.87837009392541 
20 1 24 1.45218890297818 
20 1 25 7.33743436065386 
20 1 26 4.75613841404599 
20 1 27 6.64621255703731 
20 1 28 3.43666546229359 
21 1 2 5.87667617765512 
21 1 3 3 
21 1 4 7.34416338216985 
21 1 5 13.6738290301376 
21 1 6 57.5409667738371 
21 1 7 6.05533072076508 
21 1 8 10.2726146723685 
21 1 9 0.6 
21 1 10 11.9813206839996 
21 1 11 60.8003651918523 
21 1 12 6.54172413608744 
21 1 13 4.58907486145161 
21 1 14 12.8056724499238 
21 1 15 70.7564930238725 
21 1 16 57.1287160563181 
21 1 17 9.24842775322701 
21 1 18 6.37820246691765 
21 1 19 58.2450508154928 
21 1 20 2.94974675847715 
21 1 21 5.10297331862062 
21 1 22 7.42238656094773 
21 1 23 10.5131476837395 
21 1 24 7.82566573025308 
21 1 25 12.6721097325694 
21 1 26 11.3997346974999 
21 1 27 5.20866841656088 
21 1 28 4.12047929752742 
22 1 2 7.3064508424469 
22 1 3 53.0304123448191 
22 1 4 1.49481659287038 
22 1 5 63.6173599871597 
22 1 6 5.73390795344043 
22 1 7 14.2266440033971 
22 1 8 2.91794634325566 
22 1 9 8.72522875372811 
22 1 10 5.53788776997614 
22 1 11 5.99127097755389 
22 1 12 12.635524262892 
22 1 13 59.5295869902889 
22 1 14 8.52113158936729 
22 1 15 1.7456552932386 
22 1 16 15.4229760261057 
22 1 17 11.5892272604708 
22 1 18 12.6046908123634 
22 1 19 8.80739967234192 
22 1 20 8.68909737451407 
22 1 21 15.7177819022231 
22 1 22 1.60583330595701 
22 1 23 60.9050130297963 
22 1 24 12.7812392893547 
22 1 25 9.07198905130831 
22 1 26 6.3881595574559 
22 1 27 7.6698745817923 
22 1 28 1.21790452518871 
23 1 2 4.60925819674545 
23 1 3 53.4488383633218 
23 1 4 3.73621899928355 
23 1 5 11.7766857111667 
23 1 6 11.3359450283757 
23 1 7 7.36151047589057 
23 1 8 13.5707123003209 
23 1 9 14.8753762051954 
23 1 10 11.6293795598507 
23 1 11 58.2816367772636 
23 1 12 6.91128741987412 
23 1 13 16.6852735630131 
23 1 14 6.9838339219587 
23 1 15 5.48948281545665 
23 1 16 13.5641221236164 
23 1 17 55.6954855669111 
23 1 18 5.08631289777615 
23 1 19 10.4747254156195 
23 1 20 11.6802764524184 
23 1 21 64.4245603884047 
23 1 22 7.8574341369308 
23 1 23 58.4860147880581 
23 1 24 14.9376655249863 
23 1 25 7.03562574889893 
23 1 26 9.94507949315059 
23 1 27 15.1120738569979 
23 1 28 5.88329724200594 
24 1 2 8.14667874648239 
24 1 3 10.8451802176323 
24 1 4 14.1466244271404 
24 1 5 4.46806708957838 
24 1 6 11.6865090727413 
24 1 7 6.46199593870421 
24 1 8 11.6246600992035 
24 1 9 6.23356735833153 
24 1 10 8.5188256435319 
24 1 11 9.58773668098166 
24 1 12 12.0262189310495 
24 1 13 51.3825225230707 
24 1 14 6.10930688201257 
24 1 15 5.09572428593994 
24 1 16 12.2693903170887 
24 1 17 1.49237416920033 
24 1 18 8.4385925808722 
24 1 19 1.2954892352529 
24 1 20 8.48458317761537 
24 1 21 56.0841536966125 
24 1 22 2.51225902943892 
24 1 23 13.8231276827791 
24 1 24 8.85563193892663 
24 1 25 10.8000565072396 
24 1 26 0.6 
24 1 27 12.8121296326429 
24 1 28 11.5999550888516 
25 1 2 13.95376078862 
25 1 3 3 
25 1 4 8.21756546219425 
25 1 5 16.0985380949245 
25 1 6 11.9671309783925 
25 1 7 6.55236543676506 
25 1 8 5.96533617469832 
25 1 9 13.7862537579044 
25 1 10 9.29623179034485 
25 1 11 3.0369497142334 
25 1 12 12.9409835659044 
25 1 13 4.43950235385089 
25 1 14 8.25021345337053 
25 1 15 59.9854955895054 
25 1 16 4.4651727351167 
25 1 17 12.663134936753 
25 1 18 4.78833667985124 
25 1 19 7.39042428428635 
25 1 20 15.1737692736928 
25 1 21 3 
25 1 22 6.84922988384757 
25 1 23 10.5121762184101 
25 1 24 11.1700502654598 
25 1 25 1.50956310323224 
25 1 26 1.92278907677802 
25 1 27 5.96248707531092 
25 1 28 14.3772598806879 
26 1 2 14.6833729071947 
26 1 3 14.0042526695709 
26 1 4 15.1055458756326 
26 1 5 7.16535661576375 
26 1 6 15.7916326090457 
26 1 7 11.6673035410155 
26 1 8 8.70971963797027 
26 1 9 8.15056068077583 
26 1 10 60.0492549250905 
26 1 11 6.31008008196491 
26 1 12 15.0535846340433 
26 1 13 13.9914306199935 
26 1 14 10.248585235684 
26 1 15 0.6 
26 1 16 7.48913202334855 
26 1 17 3.82808161155396 
26 1 18 11.4719187917721 
26 1 19 59.459754221941 
26 1 20 12.8900118812882 
26 1 21 16.5272696020807 
26 1 22 59.9772769550861 
26 1 23 1.42457233789369 
26 1 24 15.3527585727766 
26 1 25 10.2194947301242 
26 1 26 4.49844715153301 
26 1 27 5.82203438860166 
26 1 28 6.08472840687827                       
1 2 1 6.19246034928247 
1 3 1 7.49198234395436 
1 4 1 3.66190111193029 
1 5 1 22.4457906771087 
1 6 1 82.0243267381952 
1 7 1 15.3889525939462 
1 8 1 6.82998161397576 
1 9 1 15.0941542803242 
1 10 1 5.58057719102309 
1 11 1 11.4329282954847 
1 12 1 0.817047953606586 
1 13 1 21.6245065793137 
1 14 1 21.9249056344336 
1 15 1 3.93581570996802 
1 16 1 16.9540564968809 
1 17 1 10.6402201204306 
1 18 1 72.7476726956475 
1 19 1 26.7119491066479 
1 20 1 95.475923935422 
1 21 1 15.2546460209197 
1 22 1 12.4213476577352 
1 23 1 11.1759397899923 
1 24 1 8.47243068190821 
1 25 1 6.35445122884374 
1 26 1 16.049700560967 
1 27 1 64.990642984122 
1 28 1 12.1676400867086 
2 2 1 5.49985905401132 
2 3 1 6.80379706955743 
2 4 1 2.67037068544466 
2 5 1 16.6570139719887 
2 6 1 2.77394966069185 
2 7 1 4.69889310514785 
2 8 1 2.91617146079011 
2 9 1 16.5914029989864 
2 10 1 8.78118495615729 
2 11 1 8.36743320226085 
2 12 1 9.47228523514756 
2 13 1 1.90704385047668 
2 14 1 18.4888423872474 
2 15 1 9.94459449642942 
2 16 1 7.66490298381698 
2 17 1 15.4308117152637 
2 18 1 22.6565534675752 
2 19 1 1.33073541226715 
2 20 1 5.54808163942936 
2 21 1 11.8373384666827 
2 22 1 12.9836612866331 
2 23 1 2.83307528481644 
2 24 1 9.08932895836166 
2 25 1 15.7671066277255 
2 26 1 1.16607533035011 
2 27 1 7.99759537188105 
2 28 1 11.4777171319047 
3 2 1 68.3303533959123 
3 3 1 12.6931161994898 
3 4 1 89.7324520210277 
3 5 1 7.69749677379807 
3 6 1 91.368331663202 
3 7 1 9.67994268408617 
3 8 1 1.9993198592223 
3 9 1 0.539742723685082 
3 10 1 14.8165849190504 
3 11 1 3.97865451646348 
3 12 1 1.55410530309051 
3 13 1 13.7523870896812 
3 14 1 5.48915690660419 
3 15 1 15.2968834649655 
3 16 1 68.0698475804318 
3 17 1 6.37993998095345 
3 18 1 4.67740525344653 
3 19 1 23.9395029240002 
3 20 1 9.24535538028788 
3 21 1 13.0701001930932 
3 22 1 9.92489979709015 
3 23 1 26.3544828153569 
3 24 1 6.21183230250639 
3 25 1 8.73389354704377 
3 26 1 19.4074174533892 
3 27 1 79.7843388276326 
3 28 1 8.80934203528121 
4 2 1 7.70579151673878 
4 3 1 20.6100500367907 
4 4 1 12.4140733152135 
4 5 1 19.6718289547837 
4 6 1 1.44538275131131 
4 7 1 13.8108405932014 
4 8 1 14.3666951455464 
4 9 1 76.1679384789392 
4 10 1 83.2359160293871 
4 11 1 6.80385906084458 
4 12 1 5.30822903976216 
4 13 1 7.70611800048316 
4 14 1 22.2392295416993 
4 15 1 10.3703368809349 
4 16 1 17.5552356615384 
4 17 1 13.3048069627146 
4 18 1 9.90224869706809 
4 19 1 100.029199619909 
4 20 1 19.3109674354631 
4 21 1 6.84265583671558 
4 22 1 10.6035704187045 
4 23 1 2.36381485034738 
4 24 1 16.2819084540687 
4 25 1 86.3627421438594 
4 26 1 17.8878361713813 
4 27 1 5.21719842386611 
4 28 1 18.0577192352983 
5 2 1 8.11867166532076 
5 3 1 2.02023078187484 
5 4 1 73.4588353842429 
5 5 1 20.0316877296318 
5 6 1 21.5392372633389 
5 7 1 21.8862158071853 
5 8 1 99.8936248645968 
5 9 1 19.0376569446363 
5 10 1 6.53106772023963 
5 11 1 4.15320713355455 
5 12 1 15.0557828017518 
5 13 1 14.7675578500078 
5 14 1 2.41823725076233 
5 15 1 1.27396916359669 
5 16 1 13.1639432510708 
5 17 1 13.9321344905975 
5 18 1 23.5421330607426 
5 19 1 0.604664839993176 
5 20 1 4.38476160026884 
5 21 1 0.854390826492191 
5 22 1 12.7132913837775 
5 23 1 6.90587485454098 
5 24 1 13.954035737746 
5 25 1 9.52935747841405 
5 26 1 12.7261962145745 
5 27 1 15.5936417511332 
5 28 1 3.07958601100227 
6 2 1 7.5298470379813 
6 3 1 69.00111759211 
6 4 1 9.53536565476337 
6 5 1 14.5544187835691 
6 6 1 22.8994239301475 
6 7 1 7.93820008027353 
6 8 1 78.5859132040006 
6 9 1 28.2833882395011 
6 10 1 7.89467749098774 
6 11 1 16.0191277513638 
6 12 1 4.18814783239806 
6 13 1 11.1425905581303 
6 14 1 11.2378069170981 
6 15 1 74.4702450150763 
6 16 1 2.97064496538997 
6 17 1 5.925295763513 
6 18 1 1.28441270961908 
6 19 1 15.9176302479002 
6 20 1 4.85704647813128 
6 21 1 16.800985481702 
6 22 1 0.901409805764828 
6 23 1 10.7000772151245 
6 24 1 6.98855964958833 
6 25 1 13.4437630837173 
6 26 1 7.21863110066591 
6 27 1 17.7074919065946 
6 28 1 17.4145377280962 
7 2 1 17.6691875838828 
7 3 1 27.5559374547505 
7 4 1 12.8002962341759 
7 5 1 13.7956213015779 
7 6 1 10.6839889600299 
7 7 1 18.5787339532716 
7 8 1 18.9854669306895 
7 9 1 2.73317567468906 
7 10 1 6.04840125055125 
7 11 1 15.5616777418727 
7 12 1 11.749419521798 
7 13 1 8.53516101046151 
7 14 1 4.95166889341871 
7 15 1 9.66863685275785 
7 16 1 19.8393876662286 
7 17 1 6.37123547520985 
7 18 1 19.4551497950853 
7 19 1 5.63587688194815 
7 20 1 86.3889870514355 
7 21 1 14.230737335917 
7 22 1 11.3536660106531 
7 23 1 18.961651632145 
7 24 1 11.0246083797563 
7 25 1 10.6649159669124 
7 26 1 5.57344226323695 
7 27 1 3.12588669791395 
7 28 1 82.2462045561922 
8 2 1 7.83985462216146 
8 3 1 12.8710631073246 
8 4 1 8.96638713105983 
8 5 1 11.6296715594222 
8 6 1 3.39883888752309 
8 7 1 11.0014354063037 
8 8 1 82.4087429424397 
8 9 1 21.135025541892 
8 10 1 18.5468365622127 
8 11 1 6.3444575237268 
8 12 1 74.6056327919125 
8 13 1 10.365879894986 
8 14 1 3.88891493784064 
8 15 1 22.8129399009105 
8 16 1 16.4866946657235 
8 17 1 13.3387940130739 
8 18 1 13.1136471001216 
8 19 1 12.2442468081889 
8 20 1 22.4262017792565 
8 21 1 14.9758012811429 
8 22 1 0.42 
8 23 1 22.9978819933048 
8 24 1 8.03111403550486 
8 25 1 15.4405899965848 
8 26 1 1.87544896474615 
8 27 1 5.00594993044549 
8 28 1 17.934475762816 
9 2 1 78.5958797557022 
9 3 1 22.4580924572404 
9 4 1 22.4714689607199 
9 5 1 16.7900759380955 
9 6 1 7.42129073936262 
9 7 1 15.5856379291119 
9 8 1 95.4824109345193 
9 9 1 20.1541154830022 
9 10 1 11.5653984059872 
9 11 1 9.83516365789834 
9 12 1 5.24581037786355 
9 13 1 12.2122196449682 
9 14 1 5.97736735429532 
9 15 1 12.1495461553699 
9 16 1 17.5219298627568 
9 17 1 12.6875622417785 
9 18 1 13.8684542527162 
9 19 1 5.47848767430433 
9 20 1 11.7843162822122 
9 21 1 5.50052278024642 
9 22 1 11.9344074583992 
9 23 1 14.6632793468543 
9 24 1 10.3301281408259 
9 25 1 89.3941632656398 
9 26 1 16.2800995005573 
9 27 1 15.0491898807675 
9 28 1 6.57044385070558 
10 2 1 13.6588124623701 
10 3 1 15.8497902441451 
10 4 1 9.99330986746447 
10 5 1 77.2744393086741 
10 6 1 16.1086500820413 
10 7 1 8.47668119229985 
10 8 1 73.4550456500976 
10 9 1 81.3199289645125 
10 10 1 22.1336563798056 
10 11 1 14.5878857397498 
10 12 1 10.2227532560211 
10 13 1 12.0190388183623 
10 14 1 15.4273995961077 
10 15 1 10.2038984073629 
10 16 1 6.23551574461477 
10 17 1 106.305714777298 
10 18 1 7.53605222030927 
10 19 1 89.2224591028067 
10 20 1 93.5013060715293 
10 21 1 8.20109678181697 
10 22 1 12.0969002807398 
10 23 1 20.580479724693 
10 24 1 8.34768330295788 
10 25 1 13.4502281842137 
10 26 1 8.767676325134 
10 27 1 0.861838884357674 
10 28 1 85.696138940723 
11 2 1 12.4530000225641 
11 3 1 12.2191895026549 
11 4 1 8.66927792789834 
11 5 1 3.17488518766165 
11 6 1 112.943357021259 
11 7 1 22.1585512019442 
11 8 1 10.7471730680676 
11 9 1 6.93722949706319 
11 10 1 11.115547066196 
11 11 1 14.9582823728307 
11 12 1 10.1183856613832 
11 13 1 13.0331303403043 
11 14 1 1.15674786449823 
11 15 1 17.0370652187688 
11 16 1 63.0734540331888 
11 17 1 6.05476722962312 
11 18 1 14.0703591604534 
11 19 1 0.42 
11 20 1 91.2942066737433 
11 21 1 13.7189406084676 
11 22 1 93.855829114898 
11 23 1 0.56128492541022 
11 24 1 18.7590875149136 
11 25 1 92.4451937106014 
11 26 1 21.2802496667524 
11 27 1 19.2259582801995 
11 28 1 7.47571162636389 
12 2 1 10.0043946447457 
12 3 1 6.6763104535602 
12 4 1 9.48162183291783 
12 5 1 13.1914144490432 
12 6 1 12.7556111763264 
12 7 1 12.8708219684494 
12 8 1 6.58122218015166 
12 9 1 0.432115074761556 
12 10 1 13.3616128855866 
12 11 1 8.46303876260741 
12 12 1 19.3412620597321 
12 13 1 11.9380123212366 
12 14 1 18.7586147580856 
12 15 1 73.7946651099447 
12 16 1 79.6275462304888 
12 17 1 11.8938258395773 
12 18 1 11.4447331188933 
12 19 1 15.6499679759241 
12 20 1 11.7891338462195 
12 21 1 4.03148015564184 
12 22 1 20.815993537525 
12 23 1 16.7941758998569 
12 24 1 73.6844944641917 
12 25 1 15.9341288505937 
12 26 1 15.7922273322036 
12 27 1 8.63626591756782 
12 28 1 13.5922235198077 
13 2 1 18.3753853599583 
13 3 1 15.4086566193501 
13 4 1 13.6935600445334 
13 5 1 18.5696959805647 
13 6 1 15.393698551584 
13 7 1 72.6666020757258 
13 8 1 17.7456462519554 
13 9 1 19.6231948494147 
13 10 1 1.87232817872997 
13 11 1 8.61255845294458 
13 12 1 14.975422613117 
13 13 1 21.0396615563371 
13 14 1 8.9879430443475 
13 15 1 15.4674606107178 
13 16 1 6.6400094015077 
13 17 1 12.6913249606687 
13 18 1 9.9489133922902 
13 19 1 1.01378766680918 
13 20 1 3.06827868385465 
13 21 1 18.6383628618014 
13 22 1 7.7990298410184 
13 23 1 91.7583862950809 
13 24 1 11.5894798486991 
13 25 1 14.286944835158 
13 26 1 8.60792003722987 
13 27 1 18.08103951018 
13 28 1 8.59862650420182 
14 2 1 11.9324524751827 
14 3 1 3.42421141217687 
14 4 1 0.940825385608313 
14 5 1 13.3885140631015 
14 6 1 108.152275572216 
14 7 1 85.2940763966929 
14 8 1 11.793919758933 
14 9 1 11.6205152173493 
14 10 1 14.4126877700557 
14 11 1 7.70663605538952 
14 12 1 11.0346204938982 
14 13 1 9.57065286815407 
14 14 1 8.08779287306398 
14 15 1 0.509113912727438 
14 16 1 10.052834096983 
14 17 1 16.5016464308795 
14 18 1 9.87505098644679 
14 19 1 21.9798469714093 
14 20 1 9.61436364830839 
14 21 1 10.1765269294288 
14 22 1 3.73654649561294 
14 23 1 8.64686297386686 
14 24 1 10.0186397080846 
14 25 1 2.11729564059483 
14 26 1 18.5324665828043 
14 27 1 1.38827379669706 
14 28 1 7.39998173191624 
15 2 1 77.1033967900911 
15 3 1 16.6078463270893 
15 4 1 22.8503808307101 
15 5 1 19.7678587347838 
15 6 1 17.6663471107629 
15 7 1 17.7762033731183 
15 8 1 9.43828658982159 
15 9 1 17.4843183074143 
15 10 1 18.7224769410831 
15 11 1 12.248796051996 
15 12 1 4.40472879704037 
15 13 1 13.4254470334593 
15 14 1 19.1616151881827 
15 15 1 29.0786978044548 
15 16 1 20.5494401551065 
15 17 1 18.3847752149015 
15 18 1 7.49734203215204 
15 19 1 16.1187576130748 
15 20 1 16.1628829958494 
15 21 1 10.6104368451523 
15 22 1 8.59793471527882 
15 23 1 17.8737312289648 
15 24 1 80.209024121928 
15 25 1 13.3947521205555 
15 26 1 2.92058153661462 
15 27 1 85.1262392336032 
15 28 1 86.2354932866576 
16 2 1 11.9741214738698 
16 3 1 13.9788123630511 
16 4 1 77.5832117032014 
16 5 1 79.3877799109383 
16 6 1 11.6450924460194 
16 7 1 6.39791896162053 
16 8 1 16.8477246134152 
16 9 1 19.1378127575073 
16 10 1 2.97746274314808 
16 11 1 8.77847719237292 
16 12 1 15.858258018636 
16 13 1 7.21700352201193 
16 14 1 10.9397221959779 
16 15 1 5.57374987518792 
16 16 1 8.12960168029093 
16 17 1 7.53953704312502 
16 18 1 15.6182495337913 
16 19 1 4.36733758249238 
16 20 1 19.0337724009439 
16 21 1 7.8199146002485 
16 22 1 7.83694262676624 
16 23 1 7.93537745909451 
16 24 1 17.9522590240951 
16 25 1 21.7998280399457 
16 26 1 18.7569427967361 
16 27 1 9.17392533065622 
16 28 1 18.6416727235663 
17 2 1 15.9550884868486 
17 3 1 9.72830172740714 
17 4 1 9.83267872845265 
17 5 1 11.5546565566312 
17 6 1 80.0759124530949 
17 7 1 19.7869410371827 
17 8 1 19.4597229535914 
17 9 1 14.6666572383895 
17 10 1 85.8593713449042 
17 11 1 10.6739676890915 
17 12 1 85.8946515384911 
17 13 1 10.9718634952802 
17 14 1 72.8851189855911 
17 15 1 20.4380983827418 
17 16 1 106.507301212478 
17 17 1 12.5286893160007 
17 18 1 75.7611064834716 
17 19 1 8.38062883019688 
17 20 1 16.9980105509324 
17 21 1 2.04090311800887 
17 22 1 10.9231315377545 
17 23 1 98.2419290999857 
17 24 1 7.26860232406112 
17 25 1 19.7237949600675 
17 26 1 12.3471483910991 
17 27 1 4.31127529674305 
17 28 1 18.3109262063992 
18 2 1 17.7717329329037 
18 3 1 6.63633402897234 
18 4 1 12.9973687727283 
18 5 1 12.8165987988802 
18 6 1 14.6959140133423 
18 7 1 11.5951053216129 
18 8 1 11.8863181513179 
18 9 1 15.9207996253848 
18 10 1 8.30839039367044 
18 11 1 9.27710630916908 
18 12 1 0.726959212658104 
18 13 1 14.1245609031244 
18 14 1 79.0682019161337 
18 15 1 17.6502064653721 
18 16 1 1.09580004140057 
18 17 1 15.7493831638726 
18 18 1 6.08211927049072 
18 19 1 91.9810819659676 
18 20 1 17.5376141607025 
18 21 1 11.1834259308742 
18 22 1 20.6086286724341 
18 23 1 26.2303623579395 
18 24 1 17.8514725627442 
18 25 1 8.7026656727056 
18 26 1 7.89712731060738 
18 27 1 19.051530281023 
18 28 1 74.9562623207362 
19 2 1 17.5787181690928 
19 3 1 17.4946581060288 
19 4 1 19.355768027604 
19 5 1 6.24606146601152 
19 6 1 79.7067452494588 
19 7 1 8.27354240042824 
19 8 1 11.0517954624346 
19 9 1 23.8170080397201 
19 10 1 0.625052178069574 
19 11 1 7.6335873683945 
19 12 1 7.57688912783951 
19 13 1 8.54802200433697 
19 14 1 13.8852663802684 
19 15 1 83.3091360305922 
19 16 1 12.6400606771542 
19 17 1 94.1915516170618 
19 18 1 21.2075887158894 
19 19 1 9.16283173927845 
19 20 1 15.6649813245383 
19 21 1 5.76271814359954 
19 22 1 75.8011945626641 
19 23 1 11.9266242922397 
19 24 1 25.4223002483648 
19 25 1 17.3816174163626 
19 26 1 18.9839403622071 
19 27 1 5.24656323220059 
19 28 1 11.2656818593901 
20 2 1 20.0863845523659 
20 3 1 11.4132503593077 
20 4 1 26.3107357264939 
20 5 1 1.55259402865137 
20 6 1 0.764895082787162 
20 7 1 11.4624983905796 
20 8 1 76.9579904946019 
20 9 1 19.4580738767177 
20 10 1 21.5848906990562 
20 11 1 12.2740135550218 
20 12 1 11.1032193105768 
20 13 1 8.0186498810673 
20 14 1 4.71776876630015 
20 15 1 20.6869592148006 
20 16 1 96.8366192222859 
20 17 1 16.2106227579806 
20 18 1 71.5170010811956 
20 19 1 72.9379349930857 
20 20 1 79.4902594281047 
20 21 1 13.2203648250146 
20 22 1 10.3470542470883 
20 23 1 13.6046622346424 
20 24 1 1.01653223208473 
20 25 1 7.92965098443177 
20 26 1 3.74818875488542 
20 27 1 6.84830854536373 
20 28 1 3.7127723871676 
21 2 1 9.51759939090643 
21 3 1 3.59521626372681 
21 4 1 13.0468857318147 
21 5 1 19.6126430554127 
21 6 1 87.0478183850459 
21 7 1 6.73361968435294 
21 8 1 13.8901204652634 
21 9 1 0.42 
21 10 1 16.5146553878364 
21 11 1 82.9857004677324 
21 12 1 8.98775563578413 
21 13 1 6.46605381781464 
21 14 1 16.4327886300727 
21 15 1 105.750395808062 
21 16 1 74.8850507552622 
21 17 1 10.2197462001891 
21 18 1 8.64218541338497 
21 19 1 70.1255981939375 
21 20 1 5.67143412915885 
21 21 1 6.59645166776626 
21 22 1 9.20630241551075 
21 23 1 16.7161937336275 
21 24 1 12.1349592289805 
21 25 1 19.4359481478782 
21 26 1 17.3195567719674 
21 27 1 7.7806732682433 
21 28 1 9.22139279766508 
22 2 1 9.17567442411416 
22 3 1 74.4775212018936 
22 4 1 1.04637161500927 
22 5 1 83.4785741472146 
22 6 1 8.07333605235946 
22 7 1 17.9554599359042 
22 8 1 4.1267887617737 
22 9 1 14.5884090662736 
22 10 1 11.8087546533354 
22 11 1 8.34968080003692 
22 12 1 19.8907629492192 
22 13 1 75.9044908839475 
22 14 1 9.9101774037225 
22 15 1 2.37721088728436 
22 16 1 15.5992854845691 
22 17 1 15.5203072380889 
22 18 1 14.9801387638103 
22 19 1 10.2053177910453 
22 20 1 11.5655146988973 
22 21 1 19.1328450570541 
22 22 1 3.47468893514119 
22 23 1 90.7215303296073 
22 24 1 21.7106949701954 
22 25 1 10.7125285444031 
22 26 1 6.96513460962512 
22 27 1 15.0924734936237 
22 28 1 1.20653320262234 
23 2 1 7.0670119165652 
23 3 1 75.0451137709013 
23 4 1 5.73102903250614 
23 5 1 14.9292936152147 
23 6 1 18.6484835180254 
23 7 1 11.7735135628695 
23 8 1 21.56577588143 
23 9 1 19.3918651539942 
23 10 1 16.5263508460455 
23 11 1 81.6903174821364 
23 12 1 11.591760282296 
23 13 1 26.4072141167546 
23 14 1 8.58634601132526 
23 15 1 5.92476020486731 
23 16 1 23.8151131995891 
23 17 1 76.8144631275567 
23 18 1 9.38094531331256 
23 19 1 14.1261280723356 
23 20 1 10.0320148427201 
23 21 1 102.128251021494 
23 22 1 13.028570873887 
23 23 1 70.8990036628337 
23 24 1 30.4371023673947 
23 25 1 5.93682489312312 
23 26 1 12.5452646089414 
23 27 1 16.4935131249412 
23 28 1 6.98591312216089 
24 2 1 7.84279128641893 
24 3 1 17.1999433847817 
24 4 1 26.1275916203327 
24 5 1 5.88620522479623 
24 6 1 13.9136923890647 
24 7 1 7.4929017233164 
24 8 1 18.692256518832 
24 9 1 6.7022943890338 
24 10 1 10.9000611848667 
24 11 1 13.5198901418916 
24 12 1 13.3953616755673 
24 13 1 66.8871724653285 
24 14 1 6.9269700399416 
24 15 1 5.34102879461406 
24 16 1 17.7666872291178 
24 17 1 4.10875344633404 
24 18 1 13.8466218705739 
24 19 1 1.71282948038978 
24 20 1 12.2669927455906 
24 21 1 77.02436423505 
24 22 1 5.38604359736786 
24 23 1 20.4585385272565 
24 24 1 14.9650730987163 
24 25 1 13.8700549143535 
24 26 1 1.24154244317522 
24 27 1 16.129417102975 
24 28 1 15.3764299822541 
25 2 1 17.9761182719617 
25 3 1 2.76451465991545 
25 4 1 14.7418764592889 
25 5 1 21.4596536573225 
25 6 1 14.8053170771519 
25 7 1 10.0866818641087 
25 8 1 9.11502226093512 
25 9 1 18.0617301964601 
25 10 1 12.0833710394735 
25 11 1 2.83562127356597 
25 12 1 13.6350945084649 
25 13 1 6.10708892036867 
25 14 1 12.4794879241943 
25 15 1 89.3236754505101 
25 16 1 6.37656168774395 
25 17 1 19.2422917300692 
25 18 1 7.55381560370806 
25 19 1 8.83507227514868 
25 20 1 25.2131070104631 
25 21 1 2.1 
25 22 1 9.03602822701126 
25 23 1 16.546069911954 
25 24 1 11.3396328032981 
25 25 1 1.05669417226257 
25 26 1 2.57513204781487 
25 27 1 4.17374095271764 
25 28 1 15.4565026621387 
26 2 1 18.911102367505 
26 3 1 21.2941028106102 
26 4 1 19.0631695188633 
26 5 1 7.98390566633185 
26 6 1 14.6151139687413 
26 7 1 16.3898150760887 
26 8 1 7.2175483957358 
26 9 1 12.1027351612853 
26 10 1 91.2345849181054 
26 11 1 6.19166705091806 
26 12 1 27.2690499252096 
26 13 1 13.073789823274 
26 14 1 16.2463989090964 
26 15 1 1.03180529946881 
26 16 1 10.3850696470498 
26 17 1 7.03201804117208 
26 18 1 18.9715460901719 
26 19 1 83.3713878535729 
26 20 1 13.0384033797156 
26 21 1 25.2373812290946 
26 22 1 82.2732419863643 
26 23 1 2.60668343328551 
26 24 1 20.4279927357838 
26 25 1 16.8301029718349 
26 26 1 8.55861590901549 
26 27 1 6.7238516539765 
26 28 1 10.4026954951631                  
;

param y_fixed:=
1 2 29 1
1 3 36 1
1 4 17 1
1 5 22 1
1 6 27 1
1 7 12 1
1 8 14 1
1 9 49 1
1 10 6 1
1 11 42 1
1 12 13 1
1 13 34 1
1 14 19 1
1 15 11 1
1 16 25 1
1 17 15 1
1 18 5 1
1 19 41 1
1 20 30 1
1 21 7 1
1 22 4 1
1 23 47 1
1 24 31 1
1 25 10 1
1 26 46 1
1 27 28 1
1 28 40 1
2 2 16 1
2 3 13 1
2 4 26 1
2 5 6 1
2 6 36 1
2 7 34 1
2 8 31 1
2 9 48 1
2 10 22 1
2 11 17 1
2 12 7 1
2 13 37 1
2 14 27 1
2 15 40 1
2 16 14 1
2 17 44 1
2 18 3 1
2 19 29 1
2 20 35 1
2 21 8 1
2 22 32 1
2 23 50 1
2 24 30 1
2 25 49 1
2 26 24 1
2 27 33 1
2 28 10 1
3 2 28 1
3 3 7 1
3 4 22 1
3 5 4 1
3 6 9 1
3 7 32 1
3 8 33 1
3 9 17 1
3 10 15 1
3 11 12 1
3 12 49 1
3 13 50 1
3 14 21 1
3 15 44 1
3 16 20 1
3 17 48 1
3 18 35 1
3 19 29 1
3 20 11 1
3 21 37 1
3 22 13 1
3 23 19 1
3 24 14 1
3 25 26 1
3 26 30 1
3 27 8 1
3 28 1 1
4 2 22 1
4 3 44 1
4 4 23 1
4 5 47 1
4 6 2 1
4 7 8 1
4 8 4 1
4 9 27 1
4 10 37 1
4 11 38 1
4 12 43 1
4 13 18 1
4 14 36 1
4 15 6 1
4 16 32 1
4 17 35 1
4 18 3 1
4 19 45 1
4 20 46 1
4 21 14 1
4 22 21 1
4 23 20 1
4 24 11 1
4 25 40 1
4 26 12 1
4 27 41 1
4 28 5 1
5 2 10 1
5 3 14 1
5 4 20 1
5 5 43 1
5 6 26 1
5 7 32 1
5 8 3 1
5 9 50 1
5 10 37 1
5 11 45 1
5 12 16 1
5 13 23 1
5 14 25 1
5 15 11 1
5 16 8 1
5 17 41 1
5 18 38 1
5 19 29 1
5 20 4 1
5 21 30 1
5 22 1 1
5 23 48 1
5 24 40 1
5 25 6 1
5 26 21 1
5 27 18 1
5 28 2 1
6 2 33 1
6 3 49 1
6 4 8 1
6 5 35 1
6 6 27 1
6 7 1 1
6 8 21 1
6 9 48 1
6 10 2 1
6 11 37 1
6 12 20 1
6 13 50 1
6 14 40 1
6 15 34 1
6 16 10 1
6 17 39 1
6 18 17 1
6 19 7 1
6 20 24 1
6 21 23 1
6 22 42 1
6 23 47 1
6 24 3 1
6 25 4 1
6 26 46 1
6 27 28 1
6 28 12 1
7 2 1 1
7 3 38 1
7 4 39 1
7 5 17 1
7 6 5 1
7 7 45 1
7 8 49 1
7 9 2 1
7 10 43 1
7 11 47 1
7 12 16 1
7 13 21 1
7 14 11 1
7 15 27 1
7 16 29 1
7 17 44 1
7 18 15 1
7 19 9 1
7 20 14 1
7 21 36 1
7 22 10 1
7 23 41 1
7 24 31 1
7 25 50 1
7 26 13 1
7 27 7 1
7 28 22 1
8 2 24 1
8 3 3 1
8 4 17 1
8 5 25 1
8 6 38 1
8 7 47 1
8 8 5 1
8 9 14 1
8 10 21 1
8 11 36 1
8 12 8 1
8 13 4 1
8 14 27 1
8 15 7 1
8 16 45 1
8 17 9 1
8 18 31 1
8 19 37 1
8 20 32 1
8 21 10 1
8 22 23 1
8 23 42 1
8 24 46 1
8 25 30 1
8 26 35 1
8 27 48 1
8 28 44 1
9 2 1 1
9 3 22 1
9 4 23 1
9 5 45 1
9 6 17 1
9 7 4 1
9 8 24 1
9 9 40 1
9 10 48 1
9 11 19 1
9 12 44 1
9 13 42 1
9 14 26 1
9 15 6 1
9 16 30 1
9 17 8 1
9 18 15 1
9 19 31 1
9 20 49 1
9 21 5 1
9 22 2 1
9 23 27 1
9 24 3 1
9 25 34 1
9 26 36 1
9 27 35 1
9 28 10 1
10 2 27 1
10 3 36 1
10 4 33 1
10 5 31 1
10 6 24 1
10 7 4 1
10 8 5 1
10 9 10 1
10 10 44 1
10 11 35 1
10 12 23 1
10 13 37 1
10 14 6 1
10 15 14 1
10 16 30 1
10 17 3 1
10 18 47 1
10 19 50 1
10 20 32 1
10 21 42 1
10 22 40 1
10 23 46 1
10 24 11 1
10 25 49 1
10 26 22 1
10 27 21 1
10 28 17 1
11 2 32 1
11 3 31 1
11 4 48 1
11 5 46 1
11 6 44 1
11 7 24 1
11 8 21 1
11 9 11 1
11 10 36 1
11 11 7 1
11 12 16 1
11 13 50 1
11 14 12 1
11 15 26 1
11 16 4 1
11 17 2 1
11 18 40 1
11 19 47 1
11 20 3 1
11 21 35 1
11 22 27 1
11 23 38 1
11 24 5 1
11 25 10 1
11 26 23 1
11 27 1 1
11 28 37 1
12 2 20 1
12 3 24 1
12 4 31 1
12 5 17 1
12 6 15 1
12 7 9 1
12 8 2 1
12 9 23 1
12 10 16 1
12 11 36 1
12 12 48 1
12 13 42 1
12 14 27 1
12 15 8 1
12 16 7 1
12 17 44 1
12 18 21 1
12 19 12 1
12 20 10 1
12 21 6 1
12 22 43 1
12 23 33 1
12 24 39 1
12 25 37 1
12 26 19 1
12 27 34 1
12 28 28 1
13 2 5 1
13 3 25 1
13 4 14 1
13 5 38 1
13 6 39 1
13 7 34 1
13 8 22 1
13 9 35 1
13 10 12 1
13 11 45 1
13 12 1 1
13 13 16 1
13 14 13 1
13 15 31 1
13 16 50 1
13 17 28 1
13 18 40 1
13 19 23 1
13 20 4 1
13 21 7 1
13 22 29 1
13 23 46 1
13 24 15 1
13 25 48 1
13 26 30 1
13 27 21 1
13 28 3 1
14 2 5 1
14 3 7 1
14 4 10 1
14 5 48 1
14 6 46 1
14 7 8 1
14 8 13 1
14 9 6 1
14 10 33 1
14 11 21 1
14 12 44 1
14 13 31 1
14 14 2 1
14 15 9 1
14 16 36 1
14 17 49 1
14 18 23 1
14 19 16 1
14 20 34 1
14 21 27 1
14 22 30 1
14 23 11 1
14 24 50 1
14 25 18 1
14 26 1 1
14 27 26 1
14 28 15 1
15 2 20 1
15 3 47 1
15 4 18 1
15 5 22 1
15 6 48 1
15 7 46 1
15 8 34 1
15 9 45 1
15 10 27 1
15 11 50 1
15 12 15 1
15 13 17 1
15 14 16 1
15 15 6 1
15 16 38 1
15 17 30 1
15 18 9 1
15 19 29 1
15 20 2 1
15 21 5 1
15 22 14 1
15 23 43 1
15 24 33 1
15 25 24 1
15 26 41 1
15 27 19 1
15 28 21 1
16 2 26 1
16 3 36 1
16 4 48 1
16 5 45 1
16 6 38 1
16 7 34 1
16 8 6 1
16 9 29 1
16 10 35 1
16 11 28 1
16 12 7 1
16 13 17 1
16 14 46 1
16 15 4 1
16 16 49 1
16 17 11 1
16 18 40 1
16 19 12 1
16 20 50 1
16 21 25 1
16 22 22 1
16 23 27 1
16 24 19 1
16 25 20 1
16 26 15 1
16 27 44 1
16 28 9 1
17 2 22 1
17 3 13 1
17 4 28 1
17 5 32 1
17 6 44 1
17 7 27 1
17 8 20 1
17 9 15 1
17 10 37 1
17 11 43 1
17 12 5 1
17 13 40 1
17 14 48 1
17 15 14 1
17 16 31 1
17 17 7 1
17 18 4 1
17 19 11 1
17 20 16 1
17 21 3 1
17 22 19 1
17 23 33 1
17 24 18 1
17 25 39 1
17 26 10 1
17 27 30 1
17 28 8 1
18 2 14 1
18 3 25 1
18 4 30 1
18 5 28 1
18 6 40 1
18 7 22 1
18 8 47 1
18 9 41 1
18 10 27 1
18 11 16 1
18 12 29 1
18 13 36 1
18 14 20 1
18 15 6 1
18 16 46 1
18 17 12 1
18 18 23 1
18 19 31 1
18 20 5 1
18 21 45 1
18 22 17 1
18 23 35 1
18 24 38 1
18 25 32 1
18 26 44 1
18 27 49 1
18 28 34 1
19 2 19 1
19 3 25 1
19 4 14 1
19 5 26 1
19 6 12 1
19 7 47 1
19 8 21 1
19 9 49 1
19 10 44 1
19 11 45 1
19 12 27 1
19 13 6 1
19 14 18 1
19 15 39 1
19 16 38 1
19 17 22 1
19 18 10 1
19 19 50 1
19 20 32 1
19 21 30 1
19 22 23 1
19 23 7 1
19 24 17 1
19 25 29 1
19 26 28 1
19 27 8 1
19 28 5 1
20 2 43 1
20 3 9 1
20 4 1 1
20 5 20 1
20 6 34 1
20 7 26 1
20 8 18 1
20 9 21 1
20 10 36 1
20 11 8 1
20 12 12 1
20 13 16 1
20 14 38 1
20 15 6 1
20 16 37 1
20 17 17 1
20 18 23 1
20 19 10 1
20 20 47 1
20 21 13 1
20 22 44 1
20 23 33 1
20 24 31 1
20 25 50 1
20 26 7 1
20 27 22 1
20 28 25 1
21 2 17 1
21 3 45 1
21 4 46 1
21 5 29 1
21 6 43 1
21 7 27 1
21 8 30 1
21 9 44 1
21 10 24 1
21 11 50 1
21 12 42 1
21 13 35 1
21 14 22 1
21 15 21 1
21 16 4 1
21 17 10 1
21 18 33 1
21 19 41 1
21 20 9 1
21 21 47 1
21 22 6 1
21 23 19 1
21 24 36 1
21 25 13 1
21 26 1 1
21 27 18 1
21 28 14 1
22 2 26 1
22 3 17 1
22 4 16 1
22 5 22 1
22 6 13 1
22 7 41 1
22 8 31 1
22 9 11 1
22 10 48 1
22 11 38 1
22 12 12 1
22 13 32 1
22 14 28 1
22 15 45 1
22 16 6 1
22 17 7 1
22 18 30 1
22 19 46 1
22 20 20 1
22 21 47 1
22 22 9 1
22 23 4 1
22 24 2 1
22 25 50 1
22 26 25 1
22 27 39 1
22 28 43 1
23 2 37 1
23 3 13 1
23 4 23 1
23 5 35 1
23 6 33 1
23 7 47 1
23 8 45 1
23 9 32 1
23 10 28 1
23 11 9 1
23 12 36 1
23 13 49 1
23 14 10 1
23 15 38 1
23 16 46 1
23 17 20 1
23 18 1 1
23 19 42 1
23 20 12 1
23 21 34 1
23 22 22 1
23 23 40 1
23 24 8 1
23 25 2 1
23 26 16 1
23 27 25 1
23 28 3 1
24 2 22 1
24 3 26 1
24 4 4 1
24 5 49 1
24 6 12 1
24 7 15 1
24 8 48 1
24 9 1 1
24 10 9 1
24 11 8 1
24 12 44 1
24 13 31 1
24 14 30 1
24 15 36 1
24 16 45 1
24 17 23 1
24 18 21 1
24 19 47 1
24 20 20 1
24 21 50 1
24 22 11 1
24 23 19 1
24 24 25 1
24 25 35 1
24 26 10 1
24 27 40 1
24 28 5 1
25 2 26 1
25 3 29 1
25 4 4 1
25 5 40 1
25 6 35 1
25 7 42 1
25 8 16 1
25 9 22 1
25 10 11 1
25 11 24 1
25 12 46 1
25 13 14 1
25 14 43 1
25 15 1 1
25 16 3 1
25 17 38 1
25 18 19 1
25 19 17 1
25 20 10 1
25 21 6 1
25 22 32 1
25 23 12 1
25 24 7 1
25 25 37 1
25 26 33 1
25 27 5 1
25 28 47 1
26 2 39 1
26 3 50 1
26 4 28 1
26 5 40 1
26 6 41 1
26 7 46 1
26 8 35 1
26 9 26 1
26 10 8 1
26 11 7 1
26 12 37 1
26 13 18 1
26 14 9 1
26 15 44 1
26 16 12 1
26 17 31 1
26 18 13 1
26 19 21 1
26 20 23 1
26 21 30 1
26 22 20 1
26 23 3 1
26 24 36 1
26 25 22 1
26 26 15 1
26 27 16 1
26 28 43 1
;
