#Physical network
param n := 25;
param: N: aa :=
1 100.000
2 50.000
3 100.000
4 50.000
5 100.000
6 10.000
7 50.000
8 50.000
9 50.000
10 50.000
11 50.000
12 10.000
13 50.000
14 10.000
15 10.000
16 10.000
17 50.000
18 50.000
19 10.000
20 50.000
21 50.000
22 100.000
23 50.000
24 10.000
25 10.000
;

#parametri introdotti sono distanza costo e k=capacita inziale

param: L: dist c a :=
1 2 83.0541991713845 8305.41991713845 500
1 25 37.3363094051889 3733.63094051889 500
2 25 101.192885125388 10119.2885125388 500
3 7 63.4113554499508 6341.13554499508 500
3 9 243.018517812944 24301.8517812944 500
3 10 230.586209474895 23058.6209474895 500
3 25 171.405950888527 17140.5950888527 500
4 5 43.1045241245046 4310.45241245046 500
4 6 80.3990049689671 8039.90049689671 500
4 25 60.0333240792145 6003.33240792145 500
5 6 84.581321815162 8458.1321815162 500
6 7 99.4032192637643 9940.32192637643 500
6 8 35.5105618091294 3551.05618091294 500
7 8 107.898100075951 10789.8100075951 500
8 9 85.2115015710907 8521.15015710907 500
9 15 279.608655087785 27960.8655087785 500
9 16 318.001572323157 31800.1572323157 500
9 22 204.022057631032 20402.2057631032 500
9 25 252.210229768739 25221.0229768739 500
10 11 137.058381721075 13705.8381721075 500
10 12 97.144222679478 9714.4222679478 500
10 16 184.664560758149 18466.4560758149 500
10 17 72.1734023030645 7217.34023030645 500
11 12 68.0147042925278 6801.47042925278 500
11 15 222.647703783354 22264.7703783354 500
11 16 143.003496460751 14300.3496460751 500
12 16 101.980390271856 10198.0390271856 500
13 15 134.851770474102 13485.1770474102 500
14 15 121.148668998054 12114.8668998054 500
15 16 91.4002188181188 9140.02188181188 500
15 18 198.25236442474 19825.236442474 500
15 20 121.827747249959 12182.7747249959 500
15 21 125.634390196315 12563.4390196315 500
15 22 158.151825787754 15815.1825787754 500
15 25 117.085438889727 11708.5438889727 500
16 17 140.769314838142 14076.9314838142 500
18 19 66.2117814289874 6621.17814289874 500
19 20 150.685102116964 15068.5102116964 500
20 21 73.4982993000518 7349.82993000518 500
20 22 245.751907418844 24575.1907418844 500
20 24 92.0869154657707 9208.69154657707 500
22 23 85.146931829632 8514.6931829632 500
22 24 160.580198032011 16058.0198032011 500
23 24 90.0888450364417 9008.88450364417 500
2 1 83.0541991713845 8305.41991713845 500
25 1 37.3363094051889 3733.63094051889 500
25 2 101.192885125388 10119.2885125388 500
7 3 63.4113554499508 6341.13554499508 500
9 3 243.018517812944 24301.8517812944 500
10 3 230.586209474895 23058.6209474895 500
25 3 171.405950888527 17140.5950888527 500
5 4 43.1045241245046 4310.45241245046 500
6 4 80.3990049689671 8039.90049689671 500
25 4 60.0333240792145 6003.33240792145 500
6 5 84.581321815162 8458.1321815162 500
7 6 99.4032192637643 9940.32192637643 500
8 6 35.5105618091294 3551.05618091294 500
8 7 107.898100075951 10789.8100075951 500
9 8 85.2115015710907 8521.15015710907 500
15 9 279.608655087785 27960.8655087785 500
16 9 318.001572323157 31800.1572323157 500
22 9 204.022057631032 20402.2057631032 500
25 9 252.210229768739 25221.0229768739 500
11 10 137.058381721075 13705.8381721075 500
12 10 97.144222679478 9714.4222679478 500
16 10 184.664560758149 18466.4560758149 500
17 10 72.1734023030645 7217.34023030645 500
12 11 68.0147042925278 6801.47042925278 500
15 11 222.647703783354 22264.7703783354 500
16 11 143.003496460751 14300.3496460751 500
16 12 101.980390271856 10198.0390271856 500
15 13 134.851770474102 13485.1770474102 500
15 14 121.148668998054 12114.8668998054 500
16 15 91.4002188181188 9140.02188181188 500
18 15 198.25236442474 19825.236442474 500
20 15 121.827747249959 12182.7747249959 500
21 15 125.634390196315 12563.4390196315 500
22 15 158.151825787754 15815.1825787754 500
25 15 117.085438889727 11708.5438889727 500
17 16 140.769314838142 14076.9314838142 500
19 18 66.2117814289874 6621.17814289874 500
20 19 150.685102116964 15068.5102116964 500
21 20 73.4982993000518 7349.82993000518 500
22 20 245.751907418844 24575.1907418844 500
24 20 92.0869154657707 9208.69154657707 500
23 22 85.146931829632 8514.6931829632 500
24 22 160.580198032011 16058.0198032011 500
24 23 90.0888450364417 9008.88450364417 500
;

param k :=  30 ;

param vn := 
1 14
2 14
3 14
4 14
5 14
6 14
7 14
8 14
9 14
10 14
11 14
12 14
13 14
14 14
15 14
16 14
17 14
18 14
19 14
20 14
21 14
22 14
23 14
24 14
25 14
26 14
27 14
28 14
29 14
30 14
;

param Pk :=
1 100
2 100
3 100
4 100
5 100
6 100
7 100
8 100
9 100
10 100
11 100
12 100
13 100
14 100
15 100
16 100
17 100
18 100
19 100
20 100
21 100
22 100
23 100
24 100
25 100
26 100
27 100
28 100
29 100
30 100
;

param vl := 
1 2 20 
1 3 23 
1 4 7 
1 5 24 
1 6 1 
1 7 8 
1 8 16 
1 9 17 
1 10 21 
1 11 10 
1 12 4 
1 13 25 
1 14 9 
2 2 15 
2 3 17 
2 4 6 
2 5 18 
2 6 2 
2 7 20 
2 8 24 
2 9 11 
2 10 7 
2 11 8 
2 12 16 
2 13 9 
2 14 10 
3 2 4 
3 3 2 
3 4 25 
3 5 23 
3 6 11 
3 7 5 
3 8 9 
3 9 18 
3 10 8 
3 11 24 
3 12 16 
3 13 13 
3 14 7 
4 2 11 
4 3 4 
4 4 3 
4 5 17 
4 6 21 
4 7 20 
4 8 23 
4 9 14 
4 10 18 
4 11 13 
4 12 8 
4 13 10 
4 14 5 
5 2 9 
5 3 8 
5 4 10 
5 5 25 
5 6 1 
5 7 5 
5 8 17 
5 9 23 
5 10 2 
5 11 13 
5 12 22 
5 13 4 
5 14 7 
6 2 9 
6 3 8 
6 4 19 
6 5 17 
6 6 12 
6 7 1 
6 8 2 
6 9 23 
6 10 24 
6 11 11 
6 12 14 
6 13 21 
6 14 15 
7 2 24 
7 3 25 
7 4 2 
7 5 18 
7 6 23 
7 7 3 
7 8 8 
7 9 4 
7 10 20 
7 11 19 
7 12 6 
7 13 16 
7 14 12 
8 2 17 
8 3 13 
8 4 14 
8 5 15 
8 6 18 
8 7 23 
8 8 10 
8 9 12 
8 10 16 
8 11 5 
8 12 21 
8 13 4 
8 14 19 
9 2 4 
9 3 15 
9 4 20 
9 5 12 
9 6 1 
9 7 6 
9 8 3 
9 9 2 
9 10 17 
9 11 14 
9 12 9 
9 13 13 
9 14 18 
10 2 12 
10 3 2 
10 4 7 
10 5 20 
10 6 4 
10 7 6 
10 8 5 
10 9 25 
10 10 15 
10 11 17 
10 12 18 
10 13 24 
10 14 22 
11 2 14 
11 3 5 
11 4 9 
11 5 13 
11 6 6 
11 7 15 
11 8 7 
11 9 4 
11 10 8 
11 11 2 
11 12 18 
11 13 12 
11 14 1 
12 2 1 
12 3 14 
12 4 5 
12 5 20 
12 6 3 
12 7 25 
12 8 19 
12 9 10 
12 10 7 
12 11 16 
12 12 21 
12 13 12 
12 14 23 
13 2 17 
13 3 4 
13 4 3 
13 5 12 
13 6 5 
13 7 1 
13 8 15 
13 9 18 
13 10 20 
13 11 16 
13 12 14 
13 13 6 
13 14 10 
14 2 13 
14 3 6 
14 4 20 
14 5 19 
14 6 10 
14 7 8 
14 8 22 
14 9 11 
14 10 9 
14 11 14 
14 12 7 
14 13 4 
14 14 1 
15 2 24 
15 3 2 
15 4 25 
15 5 8 
15 6 3 
15 7 21 
15 8 18 
15 9 11 
15 10 5 
15 11 13 
15 12 19 
15 13 12 
15 14 9 
16 2 17 
16 3 8 
16 4 9 
16 5 10 
16 6 2 
16 7 3 
16 8 5 
16 9 15 
16 10 4 
16 11 21 
16 12 6 
16 13 1 
16 14 22 
17 2 2 
17 3 24 
17 4 22 
17 5 5 
17 6 1 
17 7 14 
17 8 6 
17 9 21 
17 10 13 
17 11 4 
17 12 7 
17 13 12 
17 14 15 
18 2 4 
18 3 10 
18 4 9 
18 5 14 
18 6 16 
18 7 22 
18 8 19 
18 9 21 
18 10 13 
18 11 24 
18 12 25 
18 13 2 
18 14 7 
19 2 25 
19 3 21 
19 4 24 
19 5 16 
19 6 5 
19 7 20 
19 8 2 
19 9 17 
19 10 13 
19 11 14 
19 12 22 
19 13 18 
19 14 3 
20 2 8 
20 3 4 
20 4 2 
20 5 15 
20 6 17 
20 7 13 
20 8 25 
20 9 11 
20 10 18 
20 11 23 
20 12 21 
20 13 7 
20 14 16 
21 2 23 
21 3 3 
21 4 4 
21 5 10 
21 6 24 
21 7 14 
21 8 15 
21 9 5 
21 10 7 
21 11 1 
21 12 18 
21 13 9 
21 14 2 
22 2 14 
22 3 6 
22 4 19 
22 5 24 
22 6 7 
22 7 4 
22 8 17 
22 9 9 
22 10 16 
22 11 2 
22 12 11 
22 13 8 
22 14 22 
23 2 16 
23 3 1 
23 4 13 
23 5 10 
23 6 14 
23 7 2 
23 8 8 
23 9 6 
23 10 11 
23 11 17 
23 12 5 
23 13 20 
23 14 21 
24 2 12 
24 3 8 
24 4 2 
24 5 7 
24 6 25 
24 7 16 
24 8 13 
24 9 3 
24 10 18 
24 11 19 
24 12 11 
24 13 10 
24 14 4 
25 2 4 
25 3 1 
25 4 18 
25 5 23 
25 6 7 
25 7 8 
25 8 10 
25 9 15 
25 10 9 
25 11 5 
25 12 19 
25 13 20 
25 14 24 
26 2 18 
26 3 15 
26 4 4 
26 5 22 
26 6 19 
26 7 20 
26 8 24 
26 9 2 
26 10 13 
26 11 6 
26 12 16 
26 13 14 
26 14 12 
27 2 8 
27 3 22 
27 4 16 
27 5 20 
27 6 14 
27 7 24 
27 8 18 
27 9 5 
27 10 23 
27 11 11 
27 12 3 
27 13 2 
27 14 19 
28 2 11 
28 3 3 
28 4 8 
28 5 23 
28 6 5 
28 7 2 
28 8 18 
28 9 24 
28 10 6 
28 11 9 
28 12 21 
28 13 7 
28 14 4 
29 2 3 
29 3 13 
29 4 5 
29 5 18 
29 6 2 
29 7 8 
29 8 14 
29 9 9 
29 10 12 
29 11 15 
29 12 7 
29 13 24 
29 14 22 
30 2 5 
30 3 24 
30 4 22 
30 5 15 
30 6 11 
30 7 1 
30 8 3 
30 9 2 
30 10 10 
30 11 25 
30 12 23 
30 13 4 
30 14 13 
;

set Vf[ 1 ] :=  1 4 7 8 9 10 16 17 20 21 23 24 25 ;
set Vf[ 2 ] :=  2 6 7 8 9 10 11 15 16 17 18 20 24 ;
set Vf[ 3 ] :=  2 4 5 7 8 9 11 13 16 18 23 24 25 ;
set Vf[ 4 ] :=  3 4 5 8 10 11 13 14 17 18 20 21 23 ;
set Vf[ 5 ] :=  1 2 4 5 7 8 9 10 13 17 22 23 25 ;
set Vf[ 6 ] :=  1 2 8 9 11 12 14 15 17 19 21 23 24 ;
set Vf[ 7 ] :=  2 3 4 6 8 12 16 18 19 20 23 24 25 ;
set Vf[ 8 ] :=  4 5 10 12 13 14 15 16 17 18 19 21 23 ;
set Vf[ 9 ] :=  1 2 3 4 6 9 12 13 14 15 17 18 20 ;
set Vf[ 10 ] :=  2 4 5 6 7 12 15 17 18 20 22 24 25 ;
set Vf[ 11 ] :=  1 2 4 5 6 7 8 9 12 13 14 15 18 ;
set Vf[ 12 ] :=  1 3 5 7 10 12 14 16 19 20 21 23 25 ;
set Vf[ 13 ] :=  1 3 4 5 6 10 12 14 15 16 17 18 20 ;
set Vf[ 14 ] :=  1 4 6 7 8 9 10 11 13 14 19 20 22 ;
set Vf[ 15 ] :=  2 3 5 8 9 11 12 13 18 19 21 24 25 ;
set Vf[ 16 ] :=  1 2 3 4 5 6 8 9 10 15 17 21 22 ;
set Vf[ 17 ] :=  1 2 4 5 6 7 12 13 14 15 21 22 24 ;
set Vf[ 18 ] :=  2 4 7 9 10 13 14 16 19 21 22 24 25 ;
set Vf[ 19 ] :=  2 3 5 13 14 16 17 18 20 21 22 24 25 ;
set Vf[ 20 ] :=  2 4 7 8 11 13 15 16 17 18 21 23 25 ;
set Vf[ 21 ] :=  1 2 3 4 5 7 9 10 14 15 18 23 24 ;
set Vf[ 22 ] :=  2 4 6 7 8 9 11 14 16 17 19 22 24 ;
set Vf[ 23 ] :=  1 2 5 6 8 10 11 13 14 16 17 20 21 ;
set Vf[ 24 ] :=  2 3 4 7 8 10 11 12 13 16 18 19 25 ;
set Vf[ 25 ] :=  1 4 5 7 8 9 10 15 18 19 20 23 24 ;
set Vf[ 26 ] :=  2 4 6 12 13 14 15 16 18 19 20 22 24 ;
set Vf[ 27 ] :=  2 3 5 8 11 14 16 18 19 20 22 23 24 ;
set Vf[ 28 ] :=  2 3 4 5 6 7 8 9 11 18 21 23 24 ;
set Vf[ 29 ] :=  2 3 5 7 8 9 12 13 14 15 18 22 24 ;
set Vf[ 30 ] :=  1 2 3 4 5 10 11 13 15 22 23 24 25 ;

param loc :=
1 2 20 1
1 3 23 1
1 4 7 1
1 5 24 1
1 6 1 1
1 7 8 1
1 8 16 1
1 9 17 1
1 10 21 1
1 11 10 1
1 12 4 1
1 13 25 1
1 14 9 1
2 2 15 1
2 3 17 1
2 4 6 1
2 5 18 1
2 6 2 1
2 7 20 1
2 8 24 1
2 9 11 1
2 10 7 1
2 11 8 1
2 12 16 1
2 13 9 1
2 14 10 1
3 2 4 1
3 3 2 1
3 4 25 1
3 5 23 1
3 6 11 1
3 7 5 1
3 8 9 1
3 9 18 1
3 10 8 1
3 11 24 1
3 12 16 1
3 13 13 1
3 14 7 1
4 2 11 1
4 3 4 1
4 4 3 1
4 5 17 1
4 6 21 1
4 7 20 1
4 8 23 1
4 9 14 1
4 10 18 1
4 11 13 1
4 12 8 1
4 13 10 1
4 14 5 1
5 2 9 1
5 3 8 1
5 4 10 1
5 5 25 1
5 6 1 1
5 7 5 1
5 8 17 1
5 9 23 1
5 10 2 1
5 11 13 1
5 12 22 1
5 13 4 1
5 14 7 1
6 2 9 1
6 3 8 1
6 4 19 1
6 5 17 1
6 6 12 1
6 7 1 1
6 8 2 1
6 9 23 1
6 10 24 1
6 11 11 1
6 12 14 1
6 13 21 1
6 14 15 1
7 2 24 1
7 3 25 1
7 4 2 1
7 5 18 1
7 6 23 1
7 7 3 1
7 8 8 1
7 9 4 1
7 10 20 1
7 11 19 1
7 12 6 1
7 13 16 1
7 14 12 1
8 2 17 1
8 3 13 1
8 4 14 1
8 5 15 1
8 6 18 1
8 7 23 1
8 8 10 1
8 9 12 1
8 10 16 1
8 11 5 1
8 12 21 1
8 13 4 1
8 14 19 1
9 2 4 1
9 3 15 1
9 4 20 1
9 5 12 1
9 6 1 1
9 7 6 1
9 8 3 1
9 9 2 1
9 10 17 1
9 11 14 1
9 12 9 1
9 13 13 1
9 14 18 1
10 2 12 1
10 3 2 1
10 4 7 1
10 5 20 1
10 6 4 1
10 7 6 1
10 8 5 1
10 9 25 1
10 10 15 1
10 11 17 1
10 12 18 1
10 13 24 1
10 14 22 1
11 2 14 1
11 3 5 1
11 4 9 1
11 5 13 1
11 6 6 1
11 7 15 1
11 8 7 1
11 9 4 1
11 10 8 1
11 11 2 1
11 12 18 1
11 13 12 1
11 14 1 1
12 2 1 1
12 3 14 1
12 4 5 1
12 5 20 1
12 6 3 1
12 7 25 1
12 8 19 1
12 9 10 1
12 10 7 1
12 11 16 1
12 12 21 1
12 13 12 1
12 14 23 1
13 2 17 1
13 3 4 1
13 4 3 1
13 5 12 1
13 6 5 1
13 7 1 1
13 8 15 1
13 9 18 1
13 10 20 1
13 11 16 1
13 12 14 1
13 13 6 1
13 14 10 1
14 2 13 1
14 3 6 1
14 4 20 1
14 5 19 1
14 6 10 1
14 7 8 1
14 8 22 1
14 9 11 1
14 10 9 1
14 11 14 1
14 12 7 1
14 13 4 1
14 14 1 1
15 2 24 1
15 3 2 1
15 4 25 1
15 5 8 1
15 6 3 1
15 7 21 1
15 8 18 1
15 9 11 1
15 10 5 1
15 11 13 1
15 12 19 1
15 13 12 1
15 14 9 1
16 2 17 1
16 3 8 1
16 4 9 1
16 5 10 1
16 6 2 1
16 7 3 1
16 8 5 1
16 9 15 1
16 10 4 1
16 11 21 1
16 12 6 1
16 13 1 1
16 14 22 1
17 2 2 1
17 3 24 1
17 4 22 1
17 5 5 1
17 6 1 1
17 7 14 1
17 8 6 1
17 9 21 1
17 10 13 1
17 11 4 1
17 12 7 1
17 13 12 1
17 14 15 1
18 2 4 1
18 3 10 1
18 4 9 1
18 5 14 1
18 6 16 1
18 7 22 1
18 8 19 1
18 9 21 1
18 10 13 1
18 11 24 1
18 12 25 1
18 13 2 1
18 14 7 1
19 2 25 1
19 3 21 1
19 4 24 1
19 5 16 1
19 6 5 1
19 7 20 1
19 8 2 1
19 9 17 1
19 10 13 1
19 11 14 1
19 12 22 1
19 13 18 1
19 14 3 1
20 2 8 1
20 3 4 1
20 4 2 1
20 5 15 1
20 6 17 1
20 7 13 1
20 8 25 1
20 9 11 1
20 10 18 1
20 11 23 1
20 12 21 1
20 13 7 1
20 14 16 1
21 2 23 1
21 3 3 1
21 4 4 1
21 5 10 1
21 6 24 1
21 7 14 1
21 8 15 1
21 9 5 1
21 10 7 1
21 11 1 1
21 12 18 1
21 13 9 1
21 14 2 1
22 2 14 1
22 3 6 1
22 4 19 1
22 5 24 1
22 6 7 1
22 7 4 1
22 8 17 1
22 9 9 1
22 10 16 1
22 11 2 1
22 12 11 1
22 13 8 1
22 14 22 1
23 2 16 1
23 3 1 1
23 4 13 1
23 5 10 1
23 6 14 1
23 7 2 1
23 8 8 1
23 9 6 1
23 10 11 1
23 11 17 1
23 12 5 1
23 13 20 1
23 14 21 1
24 2 12 1
24 3 8 1
24 4 2 1
24 5 7 1
24 6 25 1
24 7 16 1
24 8 13 1
24 9 3 1
24 10 18 1
24 11 19 1
24 12 11 1
24 13 10 1
24 14 4 1
25 2 4 1
25 3 1 1
25 4 18 1
25 5 23 1
25 6 7 1
25 7 8 1
25 8 10 1
25 9 15 1
25 10 9 1
25 11 5 1
25 12 19 1
25 13 20 1
25 14 24 1
26 2 18 1
26 3 15 1
26 4 4 1
26 5 22 1
26 6 19 1
26 7 20 1
26 8 24 1
26 9 2 1
26 10 13 1
26 11 6 1
26 12 16 1
26 13 14 1
26 14 12 1
27 2 8 1
27 3 22 1
27 4 16 1
27 5 20 1
27 6 14 1
27 7 24 1
27 8 18 1
27 9 5 1
27 10 23 1
27 11 11 1
27 12 3 1
27 13 2 1
27 14 19 1
28 2 11 1
28 3 3 1
28 4 8 1
28 5 23 1
28 6 5 1
28 7 2 1
28 8 18 1
28 9 24 1
28 10 6 1
28 11 9 1
28 12 21 1
28 13 7 1
28 14 4 1
29 2 3 1
29 3 13 1
29 4 5 1
29 5 18 1
29 6 2 1
29 7 8 1
29 8 14 1
29 9 9 1
29 10 12 1
29 11 15 1
29 12 7 1
29 13 24 1
29 14 22 1
30 2 5 1
30 3 24 1
30 4 22 1
30 5 15 1
30 6 11 1
30 7 1 1
30 8 3 1
30 9 2 1
30 10 10 1
30 11 25 1
30 12 23 1
30 13 4 1
30 14 13 1
;

#q[k,l,1] = value
param qin:=
1 2 61.5634846047682 
1 3 10.0160604651947 
1 4 5.09186635222659 
1 5 10.8452126967276 
1 6 8.67712461893528 
1 7 8.69762251983224 
1 8 5.71240049270128 
1 9 0.891186568574157 
1 10 14.3575770216378 
1 11 8.17664733441537 
1 12 66.5229561520101 
1 13 6.18171204927532 
1 14 10.7887378016596 
2 2 7.71815796708524 
2 3 7.99655315292876 
2 4 5.93538312765961 
2 5 2.00774148470059 
2 6 54.4586323430826 
2 7 11.4646367133707 
2 8 0.6 
2 9 9.96018670722514 
2 10 12.354472619224 
2 11 11.1979030247946 
2 12 5.57101360939813 
2 13 13.8944150992533 
2 14 4.40131252970102 
3 2 7.92851474784574 
3 3 5.26896036347426 
3 4 5.63434265868909 
3 5 12.6773172787589 
3 6 7.89162358522337 
3 7 3 
3 8 10.7838446234389 
3 9 6.86754901322306 
3 10 9.8999577133174 
3 11 1.27173271276146 
3 12 5.1056093346825 
3 13 8.47220280686417 
3 14 9.29220220413747 
4 2 5.69805926306559 
4 3 6.50701413834662 
4 4 4.03418360636442 
4 5 6.3841260328914 
4 6 10.6968781134964 
4 7 61.3976207136642 
4 8 12.2417370323227 
4 9 3.30683946144503 
4 10 1.56394742062568 
4 11 9.71869040571588 
4 12 14.3065271364571 
4 13 6.63644677940066 
4 14 6.49570632797833 
5 2 12.7886382625445 
5 3 56.2490216895921 
5 4 2.7893515709669 
5 5 0.915504361228015 
5 6 57.0466667282322 
5 7 12.100760140486 
5 8 60.7143121817412 
5 9 7.16758150707886 
5 10 4.28065089525707 
5 11 3 
5 12 13.8657401657878 
5 13 6.00154501433072 
5 14 6.92074069547079 
6 2 5.55220651838703 
6 3 13.5067992490057 
6 4 0.6 
6 5 4.85105015643858 
6 6 12.7340914751598 
6 7 10.568774348699 
6 8 8.37422471637556 
6 9 8.42882646638256 
6 10 8.01912300010101 
6 11 17.1496551544671 
6 12 10.691335559467 
6 13 8.09716049856781 
6 14 7.99154440355151 
7 2 13.2796163613215 
7 3 4.33314186650206 
7 4 67.1059695615005 
7 5 12.5644380269075 
7 6 6.24265797169404 
7 7 55.6635688826628 
7 8 59.1190593791669 
7 9 17.2849115059152 
7 10 11.9597567651363 
7 11 7.05793044434566 
7 12 17.6358781816467 
7 13 6.11545232634858 
7 14 8.11897536614407 
8 2 12.481622073631 
8 3 68.3942620247823 
8 4 8.32407390951921 
8 5 4.89312209532126 
8 6 13.5798082329928 
8 7 0.653842664991847 
8 8 10.8202777556837 
8 9 6.78953384207855 
8 10 1.12547673035878 
8 11 0.664544346873938 
8 12 8.72384657095022 
8 13 13.1252635548073 
8 14 0.6 
9 2 3 
9 3 11.118701314946 
9 4 13.3674552691865 
9 5 4.74050764969489 
9 6 4.31945254260203 
9 7 5.93513844787037 
9 8 10.1723511613663 
9 9 5.85280862040534 
9 10 6.06723491228431 
9 11 10.046716420506 
9 12 8.65023104537272 
9 13 13.4317889318092 
9 14 11.3534255349677 
10 2 10.4753132394463 
10 3 12.9401685380076 
10 4 8.66487998234173 
10 5 8.37394552014922 
10 6 2.3159890541108 
10 7 12.6459443797037 
10 8 12.6180759468593 
10 9 11.6870684041565 
10 10 1.63243425345366 
10 11 6.27960196380371 
10 12 7.56680825598981 
10 13 6.13618491839981 
10 14 13.1815177305797 
11 2 13.9312008779467 
11 3 12.2543499273749 
11 4 1.75821521450284 
11 5 0.6 
11 6 8.94218256428741 
11 7 7.08814744150899 
11 8 12.8861166082016 
11 9 8.41313218546178 
11 10 13.2078179565412 
11 11 5.13710322161321 
11 12 4.35474543652562 
11 13 5.89952187358593 
11 14 4.13682811538577 
12 2 8.44855041475189 
12 3 11.0546212023565 
12 4 5.61946388158082 
12 5 13.5619642078539 
12 6 7.63798625532645 
12 7 1.38717235359806 
12 8 5.79391729905822 
12 9 67.4471407323204 
12 10 10.0153019510795 
12 11 13.4482843327976 
12 12 4.52765395225967 
12 13 12.6998421392266 
12 14 9.3833670455511 
13 2 7.43051624830896 
13 3 7.49605049271682 
13 4 6.4851451508684 
13 5 1.50438090094117 
13 6 59.3847998517967 
13 7 16.3256977231516 
13 8 15.7702431494557 
13 9 13.3849021448003 
13 10 8.10121469946481 
13 11 3 
13 12 12.7117095284891 
13 13 1.14578270052829 
13 14 11.4732509324653 
14 2 0.671082876904167 
14 3 4.72553354169025 
14 4 7.90703992197615 
14 5 12.3901780940322 
14 6 9.30273269409299 
14 7 9.14084313453508 
14 8 8.22166468889586 
14 9 13.6043179530292 
14 10 14.2682558212902 
14 11 17.0443132108484 
14 12 7.07830927199604 
14 13 2.10772625751081 
14 14 55.9697318980761 
15 2 7.05919509312145 
15 3 9.24371563646783 
15 4 8.88692267280233 
15 5 13.0117194830906 
15 6 6.25695585461494 
15 7 0.738236691881675 
15 8 4.75359955019891 
15 9 15.5765171458338 
15 10 12.0234534842107 
15 11 5.64644976427993 
15 12 11.3658159685697 
15 13 13.2879904891436 
15 14 0.874193444972777 
16 2 14.4703090136258 
16 3 13.4831709825916 
16 4 6.0511489688452 
16 5 12.11918095738 
16 6 3.63794698796817 
16 7 6.32180984364632 
16 8 7.95042156289942 
16 9 0.800251485983926 
16 10 14.5464641081128 
16 11 11.9132686315282 
16 12 4.52928273131291 
16 13 12.873041257096 
16 14 3 
17 2 5.03986802148984 
17 3 10.70242683776 
17 4 3 
17 5 3.13345308348002 
17 6 5.78567927380497 
17 7 12.8508069080358 
17 8 13.3860572775911 
17 9 13.1762514383864 
17 10 13.2043537366245 
17 11 7.55257768349251 
17 12 14.2905919986279 
17 13 8.03423737407895 
17 14 6.07320055185823 
18 2 5.66613549248502 
18 3 14.2145915050001 
18 4 14.8580848131938 
18 5 5.1301738520477 
18 6 6.80981080697301 
18 7 3.96548383238345 
18 8 68.994395640702 
18 9 3.66991940896402 
18 10 13.6243226527455 
18 11 15.1714184351934 
18 12 6.02561849927333 
18 13 7.16886733590999 
18 14 5.07378201636729 
19 2 3.80509174979 
19 3 60.5306183184756 
19 4 3.90059771219909 
19 5 13.997381745524 
19 6 1.03901250086873 
19 7 54.1498563039388 
19 8 7.18547847044585 
19 9 14.0495540778174 
19 10 0.6 
19 11 11.1915955667149 
19 12 5.3992095199023 
19 13 3 
19 14 15.2428426282519 
20 2 15.6742410791293 
20 3 7.48176257412086 
20 4 11.3088252813672 
20 5 5.92352251369284 
20 6 3 
20 7 5.75467537399943 
20 8 11.1537654702603 
20 9 2.031871216724 
20 10 59.7209944288715 
20 11 4.01741228126694 
20 12 4.28792911405293 
20 13 11.8318633579774 
20 14 5.95526160266831 
21 2 12.1322128583015 
21 3 8.97957437127485 
21 4 7.38209676843697 
21 5 11.0799495383154 
21 6 14.8978032170107 
21 7 6.73519348366566 
21 8 65.6446264166519 
21 9 5.72023347888068 
21 10 16.324881509089 
21 11 4.91370464402813 
21 12 1.18458924793272 
21 13 62.8864601742861 
21 14 1.89960036289926 
22 2 0.6 
22 3 6.366974585251 
22 4 6.78281812969204 
22 5 10.144829210832 
22 6 11.1398004771913 
22 7 8.88717430008978 
22 8 6.50670704314558 
22 9 9.14260778795802 
22 10 60.2220867818592 
22 11 5.16707650875528 
22 12 13.3819285991321 
22 13 11.4409218475751 
22 14 6.18434066298543 
23 2 15.7243018192035 
23 3 11.2207155382916 
23 4 13.4103019204461 
23 5 0.6 
23 6 58.5560553642616 
23 7 63.2195560067124 
23 8 5.51428774734556 
23 9 12.5681922668822 
23 10 8.94390877618548 
23 11 6.38272112098122 
23 12 15.7578812107888 
23 13 61.8025464849587 
23 14 16.1721244370473 
24 2 13.7685451454691 
24 3 15.0153538932104 
24 4 6.19948184173041 
24 5 16.9472938319742 
24 6 12.2160092590895 
24 7 2.32109487679869 
24 8 0.628386295850025 
24 9 14.3212948655952 
24 10 8.69951497099682 
24 11 9.10340260386819 
24 12 57.152702544158 
24 13 9.83060883217616 
24 14 12.3240107555532 
25 2 13.0880570443617 
25 3 5.75618295683392 
25 4 11.2531906894525 
25 5 11.5747566062924 
25 6 58.7090851314039 
25 7 63.673886226899 
25 8 6.24462848279229 
25 9 7.65678727387424 
25 10 6.96342140097326 
25 11 7.64198135551337 
25 12 7.53841826574375 
25 13 7.05941929560694 
25 14 6.76411935122906 
26 2 5.59139422768488 
26 3 9.31344109110476 
26 4 16.5460268963452 
26 5 11.3678274329913 
26 6 8.18684023649833 
26 7 6.67183569894867 
26 8 5.41818202580722 
26 9 62.3478635445321 
26 10 13.3626686199051 
26 11 12.8306106334119 
26 12 5.84487293338936 
26 13 6.7968700258643 
26 14 12.3408318561944 
27 2 11.2766130997292 
27 3 11.5382493348359 
27 4 6.4066906264374 
27 5 12.1994699930635 
27 6 57.2877839931296 
27 7 9.62676967610767 
27 8 13.1217111824126 
27 9 11.3649814653238 
27 10 4.9587169683273 
27 11 7.36062991427905 
27 12 0.6 
27 13 7.02411432586418 
27 14 11.4329424560445 
28 2 4.88898158897618 
28 3 16.5903069306339 
28 4 8.1334845992973 
28 5 12.4122680316423 
28 6 9.5732297908392 
28 7 1.2294514262992 
28 8 6.69909819306754 
28 9 58.5596657864342 
28 10 60.8439310933397 
28 11 9.29421055175935 
28 12 15.0005073886117 
28 13 3.60519051809385 
28 14 4.77620389906794 
29 2 10.3650597228413 
29 3 11.2791392604782 
29 4 3.50581766176555 
29 5 4.6650450443979 
29 6 5.75497275103911 
29 7 8.83378836470498 
29 8 12.7385934843435 
29 9 11.1836018964922 
29 10 6.31479410284291 
29 11 11.0666197272403 
29 12 7.38989978919018 
29 13 12.8558834097085 
29 14 59.6374233166633 
30 2 9.48487463361594 
30 3 11.7192868193676 
30 4 4.80168857823328 
30 5 0.6 
30 6 11.4943521467575 
30 7 15.4233609947523 
30 8 7.855219218696 
30 9 10.9625442836145 
30 10 13.2614834812027 
30 11 3.39146958975511 
30 12 47.6960683625151 
30 13 7.6804312443247 
30 14 5.23048334540012 
;

#q[k,1,l] = value
param qout:=
1 2 81.8197238188073 
1 3 16.8129211105446 
1 4 6.79287118754842 
1 5 13.4413645849793 
1 6 8.26158073224475 
1 7 11.9288904826846 
1 8 7.71880206075421 
1 9 1.35594727097354 
1 10 17.7371249975658 
1 11 10.6387291975537 
1 12 90.290407040681 
1 13 7.34575325811828 
1 14 16.3573834257101 
2 2 9.58688892422527 
2 3 12.1511355787214 
2 4 7.0024503813167 
2 5 4.61271930192518 
2 6 81.9760430748578 
2 7 17.3023101813306 
2 8 0.42 
2 9 15.2815649147226 
2 10 17.6524744201075 
2 11 15.9657606459699 
2 12 9.35736476542968 
2 13 17.9035590813124 
2 14 6.34123741775738 
3 2 11.1019713714516 
3 3 4.82003349996018 
3 4 9.12710268994792 
3 5 16.6622904607641 
3 6 8.74409049732649 
3 7 4.11375515574424 
3 8 18.35932484765 
3 9 7.76722156556335 
3 10 16.6878001405889 
3 11 2.50729493995085 
3 12 5.26719517205358 
3 13 14.4093484997636 
3 14 12.3480370479666 
4 2 5.59578683118976 
4 3 11.4890161223558 
4 4 5.25868702016604 
4 5 9.19144659278527 
4 6 15.3070406441773 
4 7 76.9988878250872 
4 8 18.2552285823001 
4 9 4.44141702430669 
4 10 1.83732001052393 
4 11 13.0501532106654 
4 12 16.9244719573292 
4 13 10.6836549265235 
4 14 11.2093061458252 
5 2 14.0211756941816 
5 3 69.4217375106146 
5 4 3.31614995753579 
5 5 2.87977303107299 
5 6 92.9172050209194 
5 7 20.1945566069333 
5 8 80.2730164796692 
5 9 8.03058367385666 
5 10 4.81913948891484 
5 11 2.91001772563046 
5 12 13.9846460745322 
5 13 11.6684502954712 
5 14 11.5606725798001 
6 2 6.9049038351129 
6 3 15.5797344135524 
6 4 0.42 
6 5 10.8987353935616 
6 6 19.0540537403951 
6 7 14.3337144117719 
6 8 5.90353057569895 
6 9 9.93735366233105 
6 10 13.0656551008496 
6 11 19.8343263781809 
6 12 18.3813340197412 
6 13 13.9095525626579 
6 14 16.3404856188971 
7 2 17.9301445982281 
7 3 6.54889528107259 
7 4 95.4025001952397 
7 5 20.0443478014243 
7 6 8.84749789194567 
7 7 66.1653794177028 
7 8 87.9084146635825 
7 9 28.3333119860397 
7 10 19.7909836399218 
7 11 8.25084750962616 
7 12 20.4621747193163 
7 13 8.20100034817672 
7 14 11.332774996639 
8 2 15.9063256266763 
8 3 93.2714702043045 
8 4 13.8046934232 
8 5 5.1430618074856 
8 6 20.1082917201629 
8 7 0.900330342471896 
8 8 23.1911968237899 
8 9 10.3370550376548 
8 10 1.7300236553459 
8 11 1.01563062974646 
8 12 12.8697957265307 
8 13 14.4932368235833 
8 14 0.748290157119888 
9 2 2.19983176983504 
9 3 12.255267144166 
9 4 16.3822190494504 
9 5 7.18430728373536 
9 6 6.15176442532757 
9 7 10.623780550762 
9 8 11.8300440036545 
9 9 7.99764595758161 
9 10 8.38524211487966 
9 11 14.0534069438191 
9 12 11.9565158607588 
9 13 17.1229096452164 
9 14 14.0845285370649 
10 2 8.61030631681063 
10 3 11.0090334306026 
10 4 16.0843401262043 
10 5 7.88052657036247 
10 6 1.86780563630874 
10 7 16.6040736545317 
10 8 18.3117306789602 
10 9 14.0608167470672 
10 10 3.09680795768357 
10 11 9.80407282536997 
10 12 11.5945465039101 
10 13 7.20054319425165 
10 14 19.5816294793876 
11 2 15.7114141607624 
11 3 16.1603589225607 
11 4 1.49049848196131 
11 5 0.42 
11 6 12.5715199824642 
11 7 9.53995874445248 
11 8 16.2596560886728 
11 9 11.2821159420117 
11 10 17.9021597472124 
11 11 5.34768447499097 
11 12 7.9073309317733 
11 13 10.739182006474 
11 14 6.66943733040547 
12 2 12.7335125325688 
12 3 11.6084213041211 
12 4 8.83878171847759 
12 5 22.9750459254906 
12 6 9.88512898119623 
12 7 1.90046520648604 
12 8 11.1660932543893 
12 9 91.2538933261762 
12 10 15.8610690319379 
12 11 17.2752681128893 
12 12 8.36436739086829 
12 13 15.8266230010431 
12 14 15.6492888673346 
13 2 13.2222625024097 
13 3 8.59934808798851 
13 4 9.27670211196852 
13 5 2.43694327544014 
13 6 81.0358308505139 
13 7 21.0392905886399 
13 8 21.4224118171395 
13 9 16.3676257015687 
13 10 9.14816979752819 
13 11 3.86434573966925 
13 12 14.0716709178546 
13 13 1.22438641569866 
13 14 15.143336137837 
14 2 1.50102160056549 
14 3 7.55611503484658 
14 4 8.40744147697669 
14 5 19.6266129972117 
14 6 13.6785189242035 
14 7 12.004442127797 
14 8 9.76490386488086 
14 9 18.1485168078362 
14 10 21.7806579006794 
14 11 22.459543771279 
14 12 9.90481641713759 
14 13 3.36610884588286 
14 14 79.6605621804324 
15 2 7.01147469381518 
15 3 12.0737031573786 
15 4 12.8497350963087 
15 5 18.041285621025 
15 6 4.37986909823046 
15 7 1.21187010960638 
15 8 6.1123043882064 
15 9 22.559216267465 
15 10 18.5113089991884 
15 11 8.36134258347103 
15 12 16.1808344228002 
15 13 23.3129983653126 
15 14 1.65922606217422 
16 2 21.6851130598759 
16 3 15.9346140961928 
16 4 7.86336403107065 
16 5 15.3033069825375 
16 6 7.8227851880272 
16 7 8.58603527174301 
16 8 11.5945272525151 
16 9 1.41819134686761 
16 10 13.651823133095 
16 11 18.4255692837981 
16 12 5.64534631468411 
16 13 17.3753893592133 
16 14 4.78422752920143 
17 2 3.52790761504289 
17 3 14.6298425434909 
17 4 6.47480274597562 
17 5 4.74313851281393 
17 6 7.35259265120312 
17 7 19.7257157958517 
17 8 15.3618939894778 
17 9 20.1461953512848 
17 10 16.8960384420118 
17 11 7.9677727562255 
17 12 20.514637222621 
17 13 17.1833553751342 
17 14 9.64122319187554 
18 2 8.77675448879151 
18 3 19.9075156251038 
18 4 18.8398045214045 
18 5 9.2067250722509 
18 6 9.55334716262703 
18 7 6.43038306715371 
18 8 94.9965935702911 
18 9 10.1051467272144 
18 10 23.5172915640493 
18 11 17.6181591777256 
18 12 8.42750474608982 
18 13 13.6963223129779 
18 14 9.378046132034 
19 2 2.663564224853 
19 3 80.0699385431599 
19 4 4.83836323513122 
19 5 16.83904885885 
19 6 2.40912321168904 
19 7 73.5682421263575 
19 8 7.55107851168747 
19 9 12.9274039307978 
19 10 2.1310195245226 
19 11 14.1980488551107 
19 12 11.9122274313732 
19 13 2.99174353159275 
19 14 22.5128833419504 
20 2 18.2686528825474 
20 3 12.0249815507099 
20 4 15.9356219974142 
20 5 5.38019923066407 
20 6 4.6600580938773 
20 7 6.81222311023371 
20 8 14.0093256353345 
20 9 2.66002271128063 
20 10 84.4641428459575 
20 11 3.08401852583696 
20 12 4.6916773968815 
20 13 16.0008350738353 
20 14 8.33717135049629 
21 2 14.8657111245221 
21 3 12.3084230542061 
21 4 8.7723724884593 
21 5 21.6018312354122 
21 6 25.4065172305759 
21 7 9.25544090899685 
21 8 95.4315899730501 
21 9 7.75515338774735 
21 10 31.2896863432073 
21 11 8.04239050454699 
21 12 3.16262968063678 
21 13 80.2998933809576 
21 14 3.51218959532062 
22 2 0.596385284412342 
22 3 7.60978432551195 
22 4 11.5067974354999 
22 5 14.8576445986452 
22 6 11.2178379400303 
22 7 14.6600172318564 
22 8 9.93801905437309 
22 9 13.1302049420845 
22 10 75.7391338362892 
22 11 5.12842630147343 
22 12 18.6223369802077 
22 13 17.0953312919998 
22 14 8.50409614635005 
23 2 19.7172736449411 
23 3 17.8199482708457 
23 4 23.9892449369044 
23 5 0.774323434423288 
23 6 71.5795794121174 
23 7 92.9018703624932 
23 8 9.33836935473693 
23 9 26.6270408751796 
23 10 11.6112727502669 
23 11 9.91397585216256 
23 12 18.9910358992908 
23 13 84.9881960206035 
23 14 25.5506972514341 
24 2 13.1766937462399 
24 3 19.2448830836655 
24 4 12.0118516772373 
24 5 26.5393772768634 
24 6 16.9529797592822 
24 7 3.56859771357638 
24 8 1.79953323777581 
24 9 21.418473564883 
24 10 11.1986080193212 
24 11 8.94027573584743 
24 12 84.6914687267389 
24 13 9.12150238794163 
24 14 18.6128607842348 
25 2 19.3814376323394 
25 3 5.71129251983973 
25 4 19.9577757756935 
25 5 16.1555247620443 
25 6 92.8640620614193 
25 7 92.0555543123661 
25 8 8.64782453458443 
25 9 12.3635040998661 
25 10 10.3894782734597 
25 11 9.60165771054726 
25 12 8.12125048544926 
25 13 10.4007058775693 
25 14 12.7797562427345 
26 2 8.58913198409476 
26 3 13.9698572482953 
26 4 22.9590686369829 
26 5 18.9730840586696 
26 6 9.39169806584547 
26 7 8.98776028623084 
26 8 7.74148241612789 
26 9 83.4682919040295 
26 10 14.6924361832342 
26 11 11.3144828664485 
26 12 7.98127792662362 
26 13 8.73283087400107 
26 14 16.8796607912238 
27 2 17.7397601747882 
27 3 18.5814499643599 
27 4 10.5096777570211 
27 5 9.44283849119524 
27 6 79.3657990679135 
27 7 14.254871357354 
27 8 18.3547933448145 
27 9 14.457013380815 
27 10 8.98358651870048 
27 11 11.725695114982 
27 12 0.434965878465055 
27 13 11.9846660911619 
27 14 15.45593163416 
28 2 4.90897926778311 
28 3 19.845228278298 
28 4 13.2160022328731 
28 5 14.799639371711 
28 6 14.544758707044 
28 7 2.54326273879537 
28 8 6.73619135106366 
28 9 83.1590553330636 
28 10 88.081345093945 
28 11 13.4504295284107 
28 12 24.3515754969763 
28 13 2.92918620572214 
28 14 3.47298355092753 
29 2 16.9051966315367 
29 3 16.3010427692795 
29 4 5.28444536702592 
29 5 7.68737818029504 
29 6 9.14239000705491 
29 7 12.3581963591699 
29 8 11.5106788438224 
29 9 19.1500463946532 
29 10 12.0565410537221 
29 11 20.4854207782047 
29 12 13.0599334254663 
29 13 16.0552906378187 
29 14 94.8175163863921 
30 2 11.4000901764525 
30 3 12.0374101687332 
30 4 9.5765756622815 
30 5 1.29324609914219 
30 6 16.5272177212801 
30 7 20.7617615975079 
30 8 12.9173902824238 
30 9 16.9289299593044 
30 10 16.0045250761177 
30 11 10.0732745419895 
30 12 66.183794777184 
30 13 10.5445576708159 
30 14 5.25869745564748 
;