{
    "Problem": [
        {
            "Lower bound": -Infinity, 
            "Number of constraints": 3, 
            "Number of objectives": 1, 
            "Number of variables": 3, 
            "Sense": "unknown", 
            "Upper bound": Infinity
        }
    ], 
    "Solution": [
        {
            "number of solutions": 1, 
            "number of solutions displayed": 1
        }, 
        {
            "Constraint": "No values", 
            "Gap": null, 
            "Message": "CPLEX 12.6.3.0\\x3a optimal solution; objective 4.1; 0 dual simplex iterations (0 in phase I)", 
            "Objective": {
                "Obj": {
                    "Value": 4.1
                }
            }, 
            "Problem": {}, 
            "Status": "optimal", 
            "Variable": {
                "Flow[CityA,CityB]": {
                    "Value": 1.0
                }, 
                "Flow[CityA,CityC]": {
                    "Value": 1.0
                }
            }
        }
    ], 
    "Solver": [
        {
            "Error rc": 0, 
            "Id": 4, 
            "Message": "CPLEX 12.6.3.0\\x3a optimal solution; objective 4.1; 0 dual simplex iterations (0 in phase I)", 
            "Status": "ok", 
            "Termination condition": "optimal", 
            "Time": 0.007506847381591797
        }
    ]
}