#Physical network
param n := 25;
param: N: aa :=
1 100.000
2 50.000
3 100.000
4 50.000
5 100.000
6 10.000
7 50.000
8 50.000
9 50.000
10 50.000
11 50.000
12 10.000
13 50.000
14 10.000
15 10.000
16 10.000
17 50.000
18 50.000
19 10.000
20 50.000
21 50.000
22 100.000
23 50.000
24 10.000
25 10.000
;


param: L: dist c a :=
1 2 83.0541991713845 8305.41991713845 500
1 25 37.3363094051889 3733.63094051889 500
2 25 101.192885125388 10119.2885125388 500
3 7 63.4113554499508 6341.13554499508 500
3 9 243.018517812944 24301.8517812944 500
3 10 230.586209474895 23058.6209474895 500
3 25 171.405950888527 17140.5950888527 500
4 5 43.1045241245046 4310.45241245046 500
4 6 80.3990049689671 8039.90049689671 500
4 25 60.0333240792145 6003.33240792145 500
5 6 84.581321815162 8458.1321815162 500
6 7 99.4032192637643 9940.32192637643 500
6 8 35.5105618091294 3551.05618091294 500
7 8 107.898100075951 10789.8100075951 500
8 9 85.2115015710907 8521.15015710907 500
9 15 279.608655087785 27960.8655087785 500
9 16 318.001572323157 31800.1572323157 500
9 22 204.022057631032 20402.2057631032 500
9 25 252.210229768739 25221.0229768739 500
10 11 137.058381721075 13705.8381721075 500
10 12 97.144222679478 9714.4222679478 500
10 16 184.664560758149 18466.4560758149 500
10 17 72.1734023030645 7217.34023030645 500
11 12 68.0147042925278 6801.47042925278 500
11 15 222.647703783354 22264.7703783354 500
11 16 143.003496460751 14300.3496460751 500
12 16 101.980390271856 10198.0390271856 500
13 15 134.851770474102 13485.1770474102 500
14 15 121.148668998054 12114.8668998054 500
15 16 91.4002188181188 9140.02188181188 500
15 18 198.25236442474 19825.236442474 500
15 20 121.827747249959 12182.7747249959 500
15 21 125.634390196315 12563.4390196315 500
15 22 158.151825787754 15815.1825787754 500
15 25 117.085438889727 11708.5438889727 500
16 17 140.769314838142 14076.9314838142 500
18 19 66.2117814289874 6621.17814289874 500
19 20 150.685102116964 15068.5102116964 500
20 21 73.4982993000518 7349.82993000518 500
20 22 245.751907418844 24575.1907418844 500
20 24 92.0869154657707 9208.69154657707 500
22 23 85.146931829632 8514.6931829632 500
22 24 160.580198032011 16058.0198032011 500
23 24 90.0888450364417 9008.88450364417 500
2 1 83.0541991713845 8305.41991713845 500
25 1 37.3363094051889 3733.63094051889 500
25 2 101.192885125388 10119.2885125388 500
7 3 63.4113554499508 6341.13554499508 500
9 3 243.018517812944 24301.8517812944 500
10 3 230.586209474895 23058.6209474895 500
25 3 171.405950888527 17140.5950888527 500
5 4 43.1045241245046 4310.45241245046 500
6 4 80.3990049689671 8039.90049689671 500
25 4 60.0333240792145 6003.33240792145 500
6 5 84.581321815162 8458.1321815162 500
7 6 99.4032192637643 9940.32192637643 500
8 6 35.5105618091294 3551.05618091294 500
8 7 107.898100075951 10789.8100075951 500
9 8 85.2115015710907 8521.15015710907 500
15 9 279.608655087785 27960.8655087785 500
16 9 318.001572323157 31800.1572323157 500
22 9 204.022057631032 20402.2057631032 500
25 9 252.210229768739 25221.0229768739 500
11 10 137.058381721075 13705.8381721075 500
12 10 97.144222679478 9714.4222679478 500
16 10 184.664560758149 18466.4560758149 500
17 10 72.1734023030645 7217.34023030645 500
12 11 68.0147042925278 6801.47042925278 500
15 11 222.647703783354 22264.7703783354 500
16 11 143.003496460751 14300.3496460751 500
16 12 101.980390271856 10198.0390271856 500
15 13 134.851770474102 13485.1770474102 500
15 14 121.148668998054 12114.8668998054 500
16 15 91.4002188181188 9140.02188181188 500
18 15 198.25236442474 19825.236442474 500
20 15 121.827747249959 12182.7747249959 500
21 15 125.634390196315 12563.4390196315 500
22 15 158.151825787754 15815.1825787754 500
25 15 117.085438889727 11708.5438889727 500
17 16 140.769314838142 14076.9314838142 500
19 18 66.2117814289874 6621.17814289874 500
20 19 150.685102116964 15068.5102116964 500
21 20 73.4982993000518 7349.82993000518 500
22 20 245.751907418844 24575.1907418844 500
24 20 92.0869154657707 9208.69154657707 500
23 22 85.146931829632 8514.6931829632 500
24 22 160.580198032011 16058.0198032011 500
24 23 90.0888450364417 9008.88450364417 500
;

param k :=  13;

param vn:=
1 14
2 14
3 14
4 14
5 14
6 14
7 14
8 14
9 14
10 14
11 14
12 14
13 14
;

param Pk:=
1 100
2 100
3 100
4 100
5 100
6 100
7 100
8 100
9 100
10 100
11 100
12 100
13 100
;

param an:=
1 1 2 1
1 1 3 1
1 1 4 1
1 1 5 1
1 1 6 1
1 1 7 1
1 1 8 1
1 1 9 1
1 1 10 1
1 1 11 1
1 1 12 1
1 1 13 1
1 1 14 1
2 1 2 1
2 1 3 1
2 1 4 1
2 1 5 1
2 1 6 1
2 1 7 1
2 1 8 1
2 1 9 1
2 1 10 1
2 1 11 1
2 1 12 1
2 1 13 1
2 1 14 1
3 1 2 1
3 1 3 1
3 1 4 1
3 1 5 1
3 1 6 1
3 1 7 1
3 1 8 1
3 1 9 1
3 1 10 1
3 1 11 1
3 1 12 1
3 1 13 1
3 1 14 1
4 1 2 1
4 1 3 1
4 1 4 1
4 1 5 1
4 1 6 1
4 1 7 1
4 1 8 1
4 1 9 1
4 1 10 1
4 1 11 1
4 1 12 1
4 1 13 1
4 1 14 1
5 1 2 1
5 1 3 1
5 1 4 1
5 1 5 1
5 1 6 1
5 1 7 1
5 1 8 1
5 1 9 1
5 1 10 1
5 1 11 1
5 1 12 1
5 1 13 1
5 1 14 1
6 1 2 1
6 1 3 1
6 1 4 1
6 1 5 1
6 1 6 1
6 1 7 1
6 1 8 1
6 1 9 1
6 1 10 1
6 1 11 1
6 1 12 1
6 1 13 1
6 1 14 1
7 1 2 1
7 1 3 1
7 1 4 1
7 1 5 1
7 1 6 1
7 1 7 1
7 1 8 1
7 1 9 1
7 1 10 1
7 1 11 1
7 1 12 1
7 1 13 1
7 1 14 1
8 1 2 1
8 1 3 1
8 1 4 1
8 1 5 1
8 1 6 1
8 1 7 1
8 1 8 1
8 1 9 1
8 1 10 1
8 1 11 1
8 1 12 1
8 1 13 1
8 1 14 1
9 1 2 1
9 1 3 1
9 1 4 1
9 1 5 1
9 1 6 1
9 1 7 1
9 1 8 1
9 1 9 1
9 1 10 1
9 1 11 1
9 1 12 1
9 1 13 1
9 1 14 1
10 1 2 1
10 1 3 1
10 1 4 1
10 1 5 1
10 1 6 1
10 1 7 1
10 1 8 1
10 1 9 1
10 1 10 1
10 1 11 1
10 1 12 1
10 1 13 1
10 1 14 1
11 1 2 1
11 1 3 1
11 1 4 1
11 1 5 1
11 1 6 1
11 1 7 1
11 1 8 1
11 1 9 1
11 1 10 1
11 1 11 1
11 1 12 1
11 1 13 1
11 1 14 1
12 1 2 1
12 1 3 1
12 1 4 1
12 1 5 1
12 1 6 1
12 1 7 1
12 1 8 1
12 1 9 1
12 1 10 1
12 1 11 1
12 1 12 1
12 1 13 1
12 1 14 1
13 1 2 1
13 1 3 1
13 1 4 1
13 1 5 1
13 1 6 1
13 1 7 1
13 1 8 1
13 1 9 1
13 1 10 1
13 1 11 1
13 1 12 1
13 1 13 1
13 1 14 1
1 2 1 1
1 3 1 1
1 4 1 1
1 5 1 1
1 6 1 1
1 7 1 1
1 8 1 1
1 9 1 1
1 10 1 1
1 11 1 1
1 12 1 1
1 13 1 1
1 14 1 1
2 2 1 1
2 3 1 1
2 4 1 1
2 5 1 1
2 6 1 1
2 7 1 1
2 8 1 1
2 9 1 1
2 10 1 1
2 11 1 1
2 12 1 1
2 13 1 1
2 14 1 1
3 2 1 1
3 3 1 1
3 4 1 1
3 5 1 1
3 6 1 1
3 7 1 1
3 8 1 1
3 9 1 1
3 10 1 1
3 11 1 1
3 12 1 1
3 13 1 1
3 14 1 1
4 2 1 1
4 3 1 1
4 4 1 1
4 5 1 1
4 6 1 1
4 7 1 1
4 8 1 1
4 9 1 1
4 10 1 1
4 11 1 1
4 12 1 1
4 13 1 1
4 14 1 1
5 2 1 1
5 3 1 1
5 4 1 1
5 5 1 1
5 6 1 1
5 7 1 1
5 8 1 1
5 9 1 1
5 10 1 1
5 11 1 1
5 12 1 1
5 13 1 1
5 14 1 1
6 2 1 1
6 3 1 1
6 4 1 1
6 5 1 1
6 6 1 1
6 7 1 1
6 8 1 1
6 9 1 1
6 10 1 1
6 11 1 1
6 12 1 1
6 13 1 1
6 14 1 1
7 2 1 1
7 3 1 1
7 4 1 1
7 5 1 1
7 6 1 1
7 7 1 1
7 8 1 1
7 9 1 1
7 10 1 1
7 11 1 1
7 12 1 1
7 13 1 1
7 14 1 1
8 2 1 1
8 3 1 1
8 4 1 1
8 5 1 1
8 6 1 1
8 7 1 1
8 8 1 1
8 9 1 1
8 10 1 1
8 11 1 1
8 12 1 1
8 13 1 1
8 14 1 1
9 2 1 1
9 3 1 1
9 4 1 1
9 5 1 1
9 6 1 1
9 7 1 1
9 8 1 1
9 9 1 1
9 10 1 1
9 11 1 1
9 12 1 1
9 13 1 1
9 14 1 1
10 2 1 1
10 3 1 1
10 4 1 1
10 5 1 1
10 6 1 1
10 7 1 1
10 8 1 1
10 9 1 1
10 10 1 1
10 11 1 1
10 12 1 1
10 13 1 1
10 14 1 1
11 2 1 1
11 3 1 1
11 4 1 1
11 5 1 1
11 6 1 1
11 7 1 1
11 8 1 1
11 9 1 1
11 10 1 1
11 11 1 1
11 12 1 1
11 13 1 1
11 14 1 1
12 2 1 1
12 3 1 1
12 4 1 1
12 5 1 1
12 6 1 1
12 7 1 1
12 8 1 1
12 9 1 1
12 10 1 1
12 11 1 1
12 12 1 1
12 13 1 1
12 14 1 1
13 2 1 1
13 3 1 1
13 4 1 1
13 5 1 1
13 6 1 1
13 7 1 1
13 8 1 1
13 9 1 1
13 10 1 1
13 11 1 1
13 12 1 1
13 13 1 1
13 14 1 1
;

param q:=
1 1 2 61.5634846047682
1 1 3 10.0160604651947
1 1 4 5.09186635222659
1 1 5 10.8452126967276
1 1 6 8.67712461893528
1 1 7 8.69762251983224
1 1 8 5.71240049270128
1 1 9 0.891186568574157
1 1 10 14.3575770216378
1 1 11 8.17664733441537
1 1 12 66.5229561520101
1 1 13 6.18171204927532
1 1 14 10.7887378016596
2 1 2 7.71815796708524
2 1 3 7.99655315292876
2 1 4 5.93538312765961
2 1 5 2.00774148470059
2 1 6 54.4586323430826
2 1 7 11.4646367133707
2 1 8 0.6
2 1 9 9.96018670722514
2 1 10 12.354472619224
2 1 11 11.1979030247946
2 1 12 5.57101360939813
2 1 13 13.8944150992533
2 1 14 4.40131252970102
3 1 2 7.92851474784574
3 1 3 5.26896036347426
3 1 4 5.63434265868909
3 1 5 12.6773172787589
3 1 6 7.89162358522337
3 1 7 3
3 1 8 10.7838446234389
3 1 9 6.86754901322306
3 1 10 9.8999577133174
3 1 11 1.27173271276146
3 1 12 5.1056093346825
3 1 13 8.47220280686417
3 1 14 9.29220220413747
4 1 2 5.69805926306559
4 1 3 6.50701413834662
4 1 4 4.03418360636442
4 1 5 6.3841260328914
4 1 6 10.6968781134964
4 1 7 61.3976207136642
4 1 8 12.2417370323227
4 1 9 3.30683946144503
4 1 10 1.56394742062568
4 1 11 9.71869040571588
4 1 12 14.3065271364571
4 1 13 6.63644677940066
4 1 14 6.49570632797833
5 1 2 12.7886382625445
5 1 3 56.2490216895921
5 1 4 2.7893515709669
5 1 5 0.915504361228015
5 1 6 57.0466667282322
5 1 7 12.100760140486
5 1 8 60.7143121817412
5 1 9 7.16758150707886
5 1 10 4.28065089525707
5 1 11 3
5 1 12 13.8657401657878
5 1 13 6.00154501433072
5 1 14 6.92074069547079
6 1 2 5.55220651838703
6 1 3 13.5067992490057
6 1 4 0.6
6 1 5 4.85105015643858
6 1 6 12.7340914751598
6 1 7 10.568774348699
6 1 8 8.37422471637556
6 1 9 8.42882646638256
6 1 10 8.01912300010101
6 1 11 17.1496551544671
6 1 12 10.691335559467
6 1 13 8.09716049856781
6 1 14 7.99154440355151
7 1 2 13.2796163613215
7 1 3 4.33314186650206
7 1 4 67.1059695615005
7 1 5 12.5644380269075
7 1 6 6.24265797169404
7 1 7 55.6635688826628
7 1 8 59.1190593791669
7 1 9 17.2849115059152
7 1 10 11.9597567651363
7 1 11 7.05793044434566
7 1 12 17.6358781816467
7 1 13 6.11545232634858
7 1 14 8.11897536614407
8 1 2 12.481622073631
8 1 3 68.3942620247823
8 1 4 8.32407390951921
8 1 5 4.89312209532126
8 1 6 13.5798082329928
8 1 7 0.653842664991847
8 1 8 10.8202777556837
8 1 9 6.78953384207855
8 1 10 1.12547673035878
8 1 11 0.664544346873938
8 1 12 8.72384657095022
8 1 13 13.1252635548073
8 1 14 0.6
9 1 2 3
9 1 3 11.118701314946
9 1 4 13.3674552691865
9 1 5 4.74050764969489
9 1 6 4.31945254260203
9 1 7 5.93513844787037
9 1 8 10.1723511613663
9 1 9 5.85280862040534
9 1 10 6.06723491228431
9 1 11 10.046716420506
9 1 12 8.65023104537272
9 1 13 13.4317889318092
9 1 14 11.3534255349677
10 1 2 10.4753132394463
10 1 3 12.9401685380076
10 1 4 8.66487998234173
10 1 5 8.37394552014922
10 1 6 2.3159890541108
10 1 7 12.6459443797037
10 1 8 12.6180759468593
10 1 9 11.6870684041565
10 1 10 1.63243425345366
10 1 11 6.27960196380371
10 1 12 7.56680825598981
10 1 13 6.13618491839981
10 1 14 13.1815177305797
11 1 2 13.9312008779467
11 1 3 12.2543499273749
11 1 4 1.75821521450284
11 1 5 0.6
11 1 6 8.94218256428741
11 1 7 7.08814744150899
11 1 8 12.8861166082016
11 1 9 8.41313218546178
11 1 10 13.2078179565412
11 1 11 5.13710322161321
11 1 12 4.35474543652562
11 1 13 5.89952187358593
11 1 14 4.13682811538577
12 1 2 8.44855041475189
12 1 3 11.0546212023565
12 1 4 5.61946388158082
12 1 5 13.5619642078539
12 1 6 7.63798625532645
12 1 7 1.38717235359806
12 1 8 5.79391729905822
12 1 9 67.4471407323204
12 1 10 10.0153019510795
12 1 11 13.4482843327976
12 1 12 4.52765395225967
12 1 13 12.6998421392266
12 1 14 9.3833670455511
13 1 2 7.43051624830896
13 1 3 7.49605049271682
13 1 4 6.4851451508684
13 1 5 1.50438090094117
13 1 6 59.3847998517967
13 1 7 16.3256977231516
13 1 8 15.7702431494557
13 1 9 13.3849021448003
13 1 10 8.10121469946481
13 1 11 3
13 1 12 12.7117095284891
13 1 13 1.14578270052829
13 1 14 11.4732509324653
1 2 1 81.8197238188073
1 3 1 16.8129211105446
1 4 1 6.79287118754842
1 5 1 13.4413645849793
1 6 1 8.26158073224475
1 7 1 11.9288904826846
1 8 1 7.71880206075421
1 9 1 1.35594727097354
1 10 1 17.7371249975658
1 11 1 10.6387291975537
1 12 1 90.290407040681
1 13 1 7.34575325811828
1 14 1 16.3573834257101
2 2 1 9.58688892422527
2 3 1 12.1511355787214
2 4 1 7.0024503813167
2 5 1 4.61271930192518
2 6 1 81.9760430748578
2 7 1 17.3023101813306
2 8 1 0.42
2 9 1 15.2815649147226
2 10 1 17.6524744201075
2 11 1 15.9657606459699
2 12 1 9.35736476542968
2 13 1 17.9035590813124
2 14 1 6.34123741775738
3 2 1 11.1019713714516
3 3 1 4.82003349996018
3 4 1 9.12710268994792
3 5 1 16.6622904607641
3 6 1 8.74409049732649
3 7 1 4.11375515574424
3 8 1 18.35932484765
3 9 1 7.76722156556335
3 10 1 16.6878001405889
3 11 1 2.50729493995085
3 12 1 5.26719517205358
3 13 1 14.4093484997636
3 14 1 12.3480370479666
4 2 1 5.59578683118976
4 3 1 11.4890161223558
4 4 1 5.25868702016604
4 5 1 9.19144659278527
4 6 1 15.3070406441773
4 7 1 76.9988878250872
4 8 1 18.2552285823001
4 9 1 4.44141702430669
4 10 1 1.83732001052393
4 11 1 13.0501532106654
4 12 1 16.9244719573292
4 13 1 10.6836549265235
4 14 1 11.2093061458252
5 2 1 14.0211756941816
5 3 1 69.4217375106146
5 4 1 3.31614995753579
5 5 1 2.87977303107299
5 6 1 92.9172050209194
5 7 1 20.1945566069333
5 8 1 80.2730164796692
5 9 1 8.03058367385666
5 10 1 4.81913948891484
5 11 1 2.91001772563046
5 12 1 13.9846460745322
5 13 1 11.6684502954712
5 14 1 11.5606725798001
6 2 1 6.9049038351129
6 3 1 15.5797344135524
6 4 1 0.42
6 5 1 10.8987353935616
6 6 1 19.0540537403951
6 7 1 14.3337144117719
6 8 1 5.90353057569895
6 9 1 9.93735366233105
6 10 1 13.0656551008496
6 11 1 19.8343263781809
6 12 1 18.3813340197412
6 13 1 13.9095525626579
6 14 1 16.3404856188971
7 2 1 17.9301445982281
7 3 1 6.54889528107259
7 4 1 95.4025001952397
7 5 1 20.0443478014243
7 6 1 8.84749789194567
7 7 1 66.1653794177028
7 8 1 87.9084146635825
7 9 1 28.3333119860397
7 10 1 19.7909836399218
7 11 1 8.25084750962616
7 12 1 20.4621747193163
7 13 1 8.20100034817672
7 14 1 11.332774996639
8 2 1 15.9063256266763
8 3 1 93.2714702043045
8 4 1 13.8046934232
8 5 1 5.1430618074856
8 6 1 20.1082917201629
8 7 1 0.900330342471896
8 8 1 23.1911968237899
8 9 1 10.3370550376548
8 10 1 1.7300236553459
8 11 1 1.01563062974646
8 12 1 12.8697957265307
8 13 1 14.4932368235833
8 14 1 0.748290157119888
9 2 1 2.19983176983504
9 3 1 12.255267144166
9 4 1 16.3822190494504
9 5 1 7.18430728373536
9 6 1 6.15176442532757
9 7 1 10.623780550762
9 8 1 11.8300440036545
9 9 1 7.99764595758161
9 10 1 8.38524211487966
9 11 1 14.0534069438191
9 12 1 11.9565158607588
9 13 1 17.1229096452164
9 14 1 14.0845285370649
10 2 1 8.61030631681063
10 3 1 11.0090334306026
10 4 1 16.0843401262043
10 5 1 7.88052657036247
10 6 1 1.86780563630874
10 7 1 16.6040736545317
10 8 1 18.3117306789602
10 9 1 14.0608167470672
10 10 1 3.09680795768357
10 11 1 9.80407282536997
10 12 1 11.5945465039101
10 13 1 7.20054319425165
10 14 1 19.5816294793876
11 2 1 15.7114141607624
11 3 1 16.1603589225607
11 4 1 1.49049848196131
11 5 1 0.42
11 6 1 12.5715199824642
11 7 1 9.53995874445248
11 8 1 16.2596560886728
11 9 1 11.2821159420117
11 10 1 17.9021597472124
11 11 1 5.34768447499097
11 12 1 7.9073309317733
11 13 1 10.739182006474
11 14 1 6.66943733040547
12 2 1 12.7335125325688
12 3 1 11.6084213041211
12 4 1 8.83878171847759
12 5 1 22.9750459254906
12 6 1 9.88512898119623
12 7 1 1.90046520648604
12 8 1 11.1660932543893
12 9 1 91.2538933261762
12 10 1 15.8610690319379
12 11 1 17.2752681128893
12 12 1 8.36436739086829
12 13 1 15.8266230010431
12 14 1 15.6492888673346
13 2 1 13.2222625024097
13 3 1 8.59934808798851
13 4 1 9.27670211196852
13 5 1 2.43694327544014
13 6 1 81.0358308505139
13 7 1 21.0392905886399
13 8 1 21.4224118171395
13 9 1 16.3676257015687
13 10 1 9.14816979752819
13 11 1 3.86434573966925
13 12 1 14.0716709178546
13 13 1 1.22438641569866
13 14 1 15.143336137837
;

param y_fixed:=
1 2 20 1
1 3 23 1
1 4 7 1
1 5 24 1
1 6 1 1
1 7 8 1
1 8 16 1
1 9 17 1
1 10 21 1
1 11 10 1
1 12 4 1
1 13 25 1
1 14 9 1
2 2 15 1
2 3 17 1
2 4 6 1
2 5 18 1
2 6 2 1
2 7 20 1
2 8 24 1
2 9 11 1
2 10 7 1
2 11 8 1
2 12 16 1
2 13 9 1
2 14 10 1
3 2 4 1
3 3 2 1
3 4 25 1
3 5 23 1
3 6 11 1
3 7 5 1
3 8 9 1
3 9 18 1
3 10 8 1
3 11 24 1
3 12 16 1
3 13 13 1
3 14 7 1
4 2 11 1
4 3 4 1
4 4 3 1
4 5 17 1
4 6 21 1
4 7 20 1
4 8 23 1
4 9 14 1
4 10 18 1
4 11 13 1
4 12 8 1
4 13 10 1
4 14 5 1
5 2 9 1
5 3 8 1
5 4 10 1
5 5 25 1
5 6 1 1
5 7 5 1
5 8 17 1
5 9 23 1
5 10 2 1
5 11 13 1
5 12 22 1
5 13 4 1
5 14 7 1
6 2 9 1
6 3 8 1
6 4 19 1
6 5 17 1
6 6 12 1
6 7 1 1
6 8 2 1
6 9 23 1
6 10 24 1
6 11 11 1
6 12 14 1
6 13 21 1
6 14 15 1
7 2 24 1
7 3 25 1
7 4 2 1
7 5 18 1
7 6 23 1
7 7 3 1
7 8 8 1
7 9 4 1
7 10 20 1
7 11 19 1
7 12 6 1
7 13 16 1
7 14 12 1
8 2 17 1
8 3 13 1
8 4 14 1
8 5 15 1
8 6 18 1
8 7 23 1
8 8 10 1
8 9 12 1
8 10 16 1
8 11 5 1
8 12 21 1
8 13 4 1
8 14 19 1
9 2 4 1
9 3 15 1
9 4 20 1
9 5 12 1
9 6 1 1
9 7 6 1
9 8 3 1
9 9 2 1
9 10 17 1
9 11 14 1
9 12 9 1
9 13 13 1
9 14 18 1
10 2 12 1
10 3 2 1
10 4 7 1
10 5 20 1
10 6 4 1
10 7 6 1
10 8 5 1
10 9 25 1
10 10 15 1
10 11 17 1
10 12 18 1
10 13 24 1
10 14 22 1
11 2 14 1
11 3 5 1
11 4 9 1
11 5 13 1
11 6 6 1
11 7 15 1
11 8 7 1
11 9 4 1
11 10 8 1
11 11 2 1
11 12 18 1
11 13 12 1
11 14 1 1
12 2 1 1
12 3 14 1
12 4 5 1
12 5 20 1
12 6 3 1
12 7 25 1
12 8 19 1
12 9 10 1
12 10 7 1
12 11 16 1
12 12 21 1
12 13 12 1
12 14 23 1
13 2 17 1
13 3 4 1
13 4 3 1
13 5 12 1
13 6 5 1
13 7 1 1
13 8 15 1
13 9 18 1
13 10 20 1
13 11 16 1
13 12 14 1
13 13 6 1
13 14 10 1
;
