#Physical network
param n := 25;
param: N: aa :=
1 100.000
2 50.000
3 100.000
4 50.000
5 100.000
6 10.000
7 50.000
8 50.000
9 50.000
10 50.000
11 50.000
12 10.000
13 50.000
14 10.000
15 10.000
16 10.000
17 50.000
18 50.000
19 10.000
20 50.000
21 50.000
22 100.000
23 50.000
24 10.000
25 10.000
;


param: L: dist c a :=
1 2 83.0541991713845 8305.41991713845 500
1 25 37.3363094051889 3733.63094051889 500
2 25 101.192885125388 10119.2885125388 500
3 7 63.4113554499508 6341.13554499508 500
3 9 243.018517812944 24301.8517812944 500
3 10 230.586209474895 23058.6209474895 500
3 25 171.405950888527 17140.5950888527 500
4 5 43.1045241245046 4310.45241245046 500
4 6 80.3990049689671 8039.90049689671 500
4 25 60.0333240792145 6003.33240792145 500
5 6 84.581321815162 8458.1321815162 500
6 7 99.4032192637643 9940.32192637643 500
6 8 35.5105618091294 3551.05618091294 500
7 8 107.898100075951 10789.8100075951 500
8 9 85.2115015710907 8521.15015710907 500
9 15 279.608655087785 27960.8655087785 500
9 16 318.001572323157 31800.1572323157 500
9 22 204.022057631032 20402.2057631032 500
9 25 252.210229768739 25221.0229768739 500
10 11 137.058381721075 13705.8381721075 500
10 12 97.144222679478 9714.4222679478 500
10 16 184.664560758149 18466.4560758149 500
10 17 72.1734023030645 7217.34023030645 500
11 12 68.0147042925278 6801.47042925278 500
11 15 222.647703783354 22264.7703783354 500
11 16 143.003496460751 14300.3496460751 500
12 16 101.980390271856 10198.0390271856 500
13 15 134.851770474102 13485.1770474102 500
14 15 121.148668998054 12114.8668998054 500
15 16 91.4002188181188 9140.02188181188 500
15 18 198.25236442474 19825.236442474 500
15 20 121.827747249959 12182.7747249959 500
15 21 125.634390196315 12563.4390196315 500
15 22 158.151825787754 15815.1825787754 500
15 25 117.085438889727 11708.5438889727 500
16 17 140.769314838142 14076.9314838142 500
18 19 66.2117814289874 6621.17814289874 500
19 20 150.685102116964 15068.5102116964 500
20 21 73.4982993000518 7349.82993000518 500
20 22 245.751907418844 24575.1907418844 500
20 24 92.0869154657707 9208.69154657707 500
22 23 85.146931829632 8514.6931829632 500
22 24 160.580198032011 16058.0198032011 500
23 24 90.0888450364417 9008.88450364417 500
2 1 83.0541991713845 8305.41991713845 500
25 1 37.3363094051889 3733.63094051889 500
25 2 101.192885125388 10119.2885125388 500
7 3 63.4113554499508 6341.13554499508 500
9 3 243.018517812944 24301.8517812944 500
10 3 230.586209474895 23058.6209474895 500
25 3 171.405950888527 17140.5950888527 500
5 4 43.1045241245046 4310.45241245046 500
6 4 80.3990049689671 8039.90049689671 500
25 4 60.0333240792145 6003.33240792145 500
6 5 84.581321815162 8458.1321815162 500
7 6 99.4032192637643 9940.32192637643 500
8 6 35.5105618091294 3551.05618091294 500
8 7 107.898100075951 10789.8100075951 500
9 8 85.2115015710907 8521.15015710907 500
15 9 279.608655087785 27960.8655087785 500
16 9 318.001572323157 31800.1572323157 500
22 9 204.022057631032 20402.2057631032 500
25 9 252.210229768739 25221.0229768739 500
11 10 137.058381721075 13705.8381721075 500
12 10 97.144222679478 9714.4222679478 500
16 10 184.664560758149 18466.4560758149 500
17 10 72.1734023030645 7217.34023030645 500
12 11 68.0147042925278 6801.47042925278 500
15 11 222.647703783354 22264.7703783354 500
16 11 143.003496460751 14300.3496460751 500
16 12 101.980390271856 10198.0390271856 500
15 13 134.851770474102 13485.1770474102 500
15 14 121.148668998054 12114.8668998054 500
16 15 91.4002188181188 9140.02188181188 500
18 15 198.25236442474 19825.236442474 500
20 15 121.827747249959 12182.7747249959 500
21 15 125.634390196315 12563.4390196315 500
22 15 158.151825787754 15815.1825787754 500
25 15 117.085438889727 11708.5438889727 500
17 16 140.769314838142 14076.9314838142 500
19 18 66.2117814289874 6621.17814289874 500
20 19 150.685102116964 15068.5102116964 500
21 20 73.4982993000518 7349.82993000518 500
22 20 245.751907418844 24575.1907418844 500
24 20 92.0869154657707 9208.69154657707 500
23 22 85.146931829632 8514.6931829632 500
24 22 160.580198032011 16058.0198032011 500
24 23 90.0888450364417 9008.88450364417 500
;

param k :=  38;

param vn:=
1 14
2 14
3 14
4 14
5 14
6 14
7 14
8 14
9 14
10 14
11 14
12 14
13 14
14 14
15 14
16 14
17 14
18 14
19 14
20 14
21 14
22 14
23 14
24 14
25 14
26 14
27 14
28 14
29 14
30 14
31 14
32 14
33 14
34 14
35 14
36 14
37 14
38 14
;

param Pk:=
1 100
2 100
3 100
4 100
5 100
6 100
7 100
8 100
9 100
10 100
11 100
12 100
13 100
14 100
15 100
16 100
17 100
18 100
19 100
20 100
21 100
22 100
23 100
24 100
25 100
26 100
27 100
28 100
29 100
30 100
31 100
32 100
33 100
34 100
35 100
36 100
37 100
38 100
;

param an:=
1 1 2 1
1 1 3 1
1 1 4 1
1 1 5 1
1 1 6 1
1 1 7 1
1 1 8 1
1 1 9 1
1 1 10 1
1 1 11 1
1 1 12 1
1 1 13 1
1 1 14 1
2 1 2 1
2 1 3 1
2 1 4 1
2 1 5 1
2 1 6 1
2 1 7 1
2 1 8 1
2 1 9 1
2 1 10 1
2 1 11 1
2 1 12 1
2 1 13 1
2 1 14 1
3 1 2 1
3 1 3 1
3 1 4 1
3 1 5 1
3 1 6 1
3 1 7 1
3 1 8 1
3 1 9 1
3 1 10 1
3 1 11 1
3 1 12 1
3 1 13 1
3 1 14 1
4 1 2 1
4 1 3 1
4 1 4 1
4 1 5 1
4 1 6 1
4 1 7 1
4 1 8 1
4 1 9 1
4 1 10 1
4 1 11 1
4 1 12 1
4 1 13 1
4 1 14 1
5 1 2 1
5 1 3 1
5 1 4 1
5 1 5 1
5 1 6 1
5 1 7 1
5 1 8 1
5 1 9 1
5 1 10 1
5 1 11 1
5 1 12 1
5 1 13 1
5 1 14 1
6 1 2 1
6 1 3 1
6 1 4 1
6 1 5 1
6 1 6 1
6 1 7 1
6 1 8 1
6 1 9 1
6 1 10 1
6 1 11 1
6 1 12 1
6 1 13 1
6 1 14 1
7 1 2 1
7 1 3 1
7 1 4 1
7 1 5 1
7 1 6 1
7 1 7 1
7 1 8 1
7 1 9 1
7 1 10 1
7 1 11 1
7 1 12 1
7 1 13 1
7 1 14 1
8 1 2 1
8 1 3 1
8 1 4 1
8 1 5 1
8 1 6 1
8 1 7 1
8 1 8 1
8 1 9 1
8 1 10 1
8 1 11 1
8 1 12 1
8 1 13 1
8 1 14 1
9 1 2 1
9 1 3 1
9 1 4 1
9 1 5 1
9 1 6 1
9 1 7 1
9 1 8 1
9 1 9 1
9 1 10 1
9 1 11 1
9 1 12 1
9 1 13 1
9 1 14 1
10 1 2 1
10 1 3 1
10 1 4 1
10 1 5 1
10 1 6 1
10 1 7 1
10 1 8 1
10 1 9 1
10 1 10 1
10 1 11 1
10 1 12 1
10 1 13 1
10 1 14 1
11 1 2 1
11 1 3 1
11 1 4 1
11 1 5 1
11 1 6 1
11 1 7 1
11 1 8 1
11 1 9 1
11 1 10 1
11 1 11 1
11 1 12 1
11 1 13 1
11 1 14 1
12 1 2 1
12 1 3 1
12 1 4 1
12 1 5 1
12 1 6 1
12 1 7 1
12 1 8 1
12 1 9 1
12 1 10 1
12 1 11 1
12 1 12 1
12 1 13 1
12 1 14 1
13 1 2 1
13 1 3 1
13 1 4 1
13 1 5 1
13 1 6 1
13 1 7 1
13 1 8 1
13 1 9 1
13 1 10 1
13 1 11 1
13 1 12 1
13 1 13 1
13 1 14 1
14 1 2 1
14 1 3 1
14 1 4 1
14 1 5 1
14 1 6 1
14 1 7 1
14 1 8 1
14 1 9 1
14 1 10 1
14 1 11 1
14 1 12 1
14 1 13 1
14 1 14 1
15 1 2 1
15 1 3 1
15 1 4 1
15 1 5 1
15 1 6 1
15 1 7 1
15 1 8 1
15 1 9 1
15 1 10 1
15 1 11 1
15 1 12 1
15 1 13 1
15 1 14 1
16 1 2 1
16 1 3 1
16 1 4 1
16 1 5 1
16 1 6 1
16 1 7 1
16 1 8 1
16 1 9 1
16 1 10 1
16 1 11 1
16 1 12 1
16 1 13 1
16 1 14 1
17 1 2 1
17 1 3 1
17 1 4 1
17 1 5 1
17 1 6 1
17 1 7 1
17 1 8 1
17 1 9 1
17 1 10 1
17 1 11 1
17 1 12 1
17 1 13 1
17 1 14 1
18 1 2 1
18 1 3 1
18 1 4 1
18 1 5 1
18 1 6 1
18 1 7 1
18 1 8 1
18 1 9 1
18 1 10 1
18 1 11 1
18 1 12 1
18 1 13 1
18 1 14 1
19 1 2 1
19 1 3 1
19 1 4 1
19 1 5 1
19 1 6 1
19 1 7 1
19 1 8 1
19 1 9 1
19 1 10 1
19 1 11 1
19 1 12 1
19 1 13 1
19 1 14 1
20 1 2 1
20 1 3 1
20 1 4 1
20 1 5 1
20 1 6 1
20 1 7 1
20 1 8 1
20 1 9 1
20 1 10 1
20 1 11 1
20 1 12 1
20 1 13 1
20 1 14 1
21 1 2 1
21 1 3 1
21 1 4 1
21 1 5 1
21 1 6 1
21 1 7 1
21 1 8 1
21 1 9 1
21 1 10 1
21 1 11 1
21 1 12 1
21 1 13 1
21 1 14 1
22 1 2 1
22 1 3 1
22 1 4 1
22 1 5 1
22 1 6 1
22 1 7 1
22 1 8 1
22 1 9 1
22 1 10 1
22 1 11 1
22 1 12 1
22 1 13 1
22 1 14 1
23 1 2 1
23 1 3 1
23 1 4 1
23 1 5 1
23 1 6 1
23 1 7 1
23 1 8 1
23 1 9 1
23 1 10 1
23 1 11 1
23 1 12 1
23 1 13 1
23 1 14 1
24 1 2 1
24 1 3 1
24 1 4 1
24 1 5 1
24 1 6 1
24 1 7 1
24 1 8 1
24 1 9 1
24 1 10 1
24 1 11 1
24 1 12 1
24 1 13 1
24 1 14 1
25 1 2 1
25 1 3 1
25 1 4 1
25 1 5 1
25 1 6 1
25 1 7 1
25 1 8 1
25 1 9 1
25 1 10 1
25 1 11 1
25 1 12 1
25 1 13 1
25 1 14 1
26 1 2 1
26 1 3 1
26 1 4 1
26 1 5 1
26 1 6 1
26 1 7 1
26 1 8 1
26 1 9 1
26 1 10 1
26 1 11 1
26 1 12 1
26 1 13 1
26 1 14 1
27 1 2 1
27 1 3 1
27 1 4 1
27 1 5 1
27 1 6 1
27 1 7 1
27 1 8 1
27 1 9 1
27 1 10 1
27 1 11 1
27 1 12 1
27 1 13 1
27 1 14 1
28 1 2 1
28 1 3 1
28 1 4 1
28 1 5 1
28 1 6 1
28 1 7 1
28 1 8 1
28 1 9 1
28 1 10 1
28 1 11 1
28 1 12 1
28 1 13 1
28 1 14 1
29 1 2 1
29 1 3 1
29 1 4 1
29 1 5 1
29 1 6 1
29 1 7 1
29 1 8 1
29 1 9 1
29 1 10 1
29 1 11 1
29 1 12 1
29 1 13 1
29 1 14 1
30 1 2 1
30 1 3 1
30 1 4 1
30 1 5 1
30 1 6 1
30 1 7 1
30 1 8 1
30 1 9 1
30 1 10 1
30 1 11 1
30 1 12 1
30 1 13 1
30 1 14 1
31 1 2 1
31 1 3 1
31 1 4 1
31 1 5 1
31 1 6 1
31 1 7 1
31 1 8 1
31 1 9 1
31 1 10 1
31 1 11 1
31 1 12 1
31 1 13 1
31 1 14 1
32 1 2 1
32 1 3 1
32 1 4 1
32 1 5 1
32 1 6 1
32 1 7 1
32 1 8 1
32 1 9 1
32 1 10 1
32 1 11 1
32 1 12 1
32 1 13 1
32 1 14 1
33 1 2 1
33 1 3 1
33 1 4 1
33 1 5 1
33 1 6 1
33 1 7 1
33 1 8 1
33 1 9 1
33 1 10 1
33 1 11 1
33 1 12 1
33 1 13 1
33 1 14 1
34 1 2 1
34 1 3 1
34 1 4 1
34 1 5 1
34 1 6 1
34 1 7 1
34 1 8 1
34 1 9 1
34 1 10 1
34 1 11 1
34 1 12 1
34 1 13 1
34 1 14 1
35 1 2 1
35 1 3 1
35 1 4 1
35 1 5 1
35 1 6 1
35 1 7 1
35 1 8 1
35 1 9 1
35 1 10 1
35 1 11 1
35 1 12 1
35 1 13 1
35 1 14 1
36 1 2 1
36 1 3 1
36 1 4 1
36 1 5 1
36 1 6 1
36 1 7 1
36 1 8 1
36 1 9 1
36 1 10 1
36 1 11 1
36 1 12 1
36 1 13 1
36 1 14 1
37 1 2 1
37 1 3 1
37 1 4 1
37 1 5 1
37 1 6 1
37 1 7 1
37 1 8 1
37 1 9 1
37 1 10 1
37 1 11 1
37 1 12 1
37 1 13 1
37 1 14 1
38 1 2 1
38 1 3 1
38 1 4 1
38 1 5 1
38 1 6 1
38 1 7 1
38 1 8 1
38 1 9 1
38 1 10 1
38 1 11 1
38 1 12 1
38 1 13 1
38 1 14 1
1 2 1 1
1 3 1 1
1 4 1 1
1 5 1 1
1 6 1 1
1 7 1 1
1 8 1 1
1 9 1 1
1 10 1 1
1 11 1 1
1 12 1 1
1 13 1 1
1 14 1 1
2 2 1 1
2 3 1 1
2 4 1 1
2 5 1 1
2 6 1 1
2 7 1 1
2 8 1 1
2 9 1 1
2 10 1 1
2 11 1 1
2 12 1 1
2 13 1 1
2 14 1 1
3 2 1 1
3 3 1 1
3 4 1 1
3 5 1 1
3 6 1 1
3 7 1 1
3 8 1 1
3 9 1 1
3 10 1 1
3 11 1 1
3 12 1 1
3 13 1 1
3 14 1 1
4 2 1 1
4 3 1 1
4 4 1 1
4 5 1 1
4 6 1 1
4 7 1 1
4 8 1 1
4 9 1 1
4 10 1 1
4 11 1 1
4 12 1 1
4 13 1 1
4 14 1 1
5 2 1 1
5 3 1 1
5 4 1 1
5 5 1 1
5 6 1 1
5 7 1 1
5 8 1 1
5 9 1 1
5 10 1 1
5 11 1 1
5 12 1 1
5 13 1 1
5 14 1 1
6 2 1 1
6 3 1 1
6 4 1 1
6 5 1 1
6 6 1 1
6 7 1 1
6 8 1 1
6 9 1 1
6 10 1 1
6 11 1 1
6 12 1 1
6 13 1 1
6 14 1 1
7 2 1 1
7 3 1 1
7 4 1 1
7 5 1 1
7 6 1 1
7 7 1 1
7 8 1 1
7 9 1 1
7 10 1 1
7 11 1 1
7 12 1 1
7 13 1 1
7 14 1 1
8 2 1 1
8 3 1 1
8 4 1 1
8 5 1 1
8 6 1 1
8 7 1 1
8 8 1 1
8 9 1 1
8 10 1 1
8 11 1 1
8 12 1 1
8 13 1 1
8 14 1 1
9 2 1 1
9 3 1 1
9 4 1 1
9 5 1 1
9 6 1 1
9 7 1 1
9 8 1 1
9 9 1 1
9 10 1 1
9 11 1 1
9 12 1 1
9 13 1 1
9 14 1 1
10 2 1 1
10 3 1 1
10 4 1 1
10 5 1 1
10 6 1 1
10 7 1 1
10 8 1 1
10 9 1 1
10 10 1 1
10 11 1 1
10 12 1 1
10 13 1 1
10 14 1 1
11 2 1 1
11 3 1 1
11 4 1 1
11 5 1 1
11 6 1 1
11 7 1 1
11 8 1 1
11 9 1 1
11 10 1 1
11 11 1 1
11 12 1 1
11 13 1 1
11 14 1 1
12 2 1 1
12 3 1 1
12 4 1 1
12 5 1 1
12 6 1 1
12 7 1 1
12 8 1 1
12 9 1 1
12 10 1 1
12 11 1 1
12 12 1 1
12 13 1 1
12 14 1 1
13 2 1 1
13 3 1 1
13 4 1 1
13 5 1 1
13 6 1 1
13 7 1 1
13 8 1 1
13 9 1 1
13 10 1 1
13 11 1 1
13 12 1 1
13 13 1 1
13 14 1 1
14 2 1 1
14 3 1 1
14 4 1 1
14 5 1 1
14 6 1 1
14 7 1 1
14 8 1 1
14 9 1 1
14 10 1 1
14 11 1 1
14 12 1 1
14 13 1 1
14 14 1 1
15 2 1 1
15 3 1 1
15 4 1 1
15 5 1 1
15 6 1 1
15 7 1 1
15 8 1 1
15 9 1 1
15 10 1 1
15 11 1 1
15 12 1 1
15 13 1 1
15 14 1 1
16 2 1 1
16 3 1 1
16 4 1 1
16 5 1 1
16 6 1 1
16 7 1 1
16 8 1 1
16 9 1 1
16 10 1 1
16 11 1 1
16 12 1 1
16 13 1 1
16 14 1 1
17 2 1 1
17 3 1 1
17 4 1 1
17 5 1 1
17 6 1 1
17 7 1 1
17 8 1 1
17 9 1 1
17 10 1 1
17 11 1 1
17 12 1 1
17 13 1 1
17 14 1 1
18 2 1 1
18 3 1 1
18 4 1 1
18 5 1 1
18 6 1 1
18 7 1 1
18 8 1 1
18 9 1 1
18 10 1 1
18 11 1 1
18 12 1 1
18 13 1 1
18 14 1 1
19 2 1 1
19 3 1 1
19 4 1 1
19 5 1 1
19 6 1 1
19 7 1 1
19 8 1 1
19 9 1 1
19 10 1 1
19 11 1 1
19 12 1 1
19 13 1 1
19 14 1 1
20 2 1 1
20 3 1 1
20 4 1 1
20 5 1 1
20 6 1 1
20 7 1 1
20 8 1 1
20 9 1 1
20 10 1 1
20 11 1 1
20 12 1 1
20 13 1 1
20 14 1 1
21 2 1 1
21 3 1 1
21 4 1 1
21 5 1 1
21 6 1 1
21 7 1 1
21 8 1 1
21 9 1 1
21 10 1 1
21 11 1 1
21 12 1 1
21 13 1 1
21 14 1 1
22 2 1 1
22 3 1 1
22 4 1 1
22 5 1 1
22 6 1 1
22 7 1 1
22 8 1 1
22 9 1 1
22 10 1 1
22 11 1 1
22 12 1 1
22 13 1 1
22 14 1 1
23 2 1 1
23 3 1 1
23 4 1 1
23 5 1 1
23 6 1 1
23 7 1 1
23 8 1 1
23 9 1 1
23 10 1 1
23 11 1 1
23 12 1 1
23 13 1 1
23 14 1 1
24 2 1 1
24 3 1 1
24 4 1 1
24 5 1 1
24 6 1 1
24 7 1 1
24 8 1 1
24 9 1 1
24 10 1 1
24 11 1 1
24 12 1 1
24 13 1 1
24 14 1 1
25 2 1 1
25 3 1 1
25 4 1 1
25 5 1 1
25 6 1 1
25 7 1 1
25 8 1 1
25 9 1 1
25 10 1 1
25 11 1 1
25 12 1 1
25 13 1 1
25 14 1 1
26 2 1 1
26 3 1 1
26 4 1 1
26 5 1 1
26 6 1 1
26 7 1 1
26 8 1 1
26 9 1 1
26 10 1 1
26 11 1 1
26 12 1 1
26 13 1 1
26 14 1 1
27 2 1 1
27 3 1 1
27 4 1 1
27 5 1 1
27 6 1 1
27 7 1 1
27 8 1 1
27 9 1 1
27 10 1 1
27 11 1 1
27 12 1 1
27 13 1 1
27 14 1 1
28 2 1 1
28 3 1 1
28 4 1 1
28 5 1 1
28 6 1 1
28 7 1 1
28 8 1 1
28 9 1 1
28 10 1 1
28 11 1 1
28 12 1 1
28 13 1 1
28 14 1 1
29 2 1 1
29 3 1 1
29 4 1 1
29 5 1 1
29 6 1 1
29 7 1 1
29 8 1 1
29 9 1 1
29 10 1 1
29 11 1 1
29 12 1 1
29 13 1 1
29 14 1 1
30 2 1 1
30 3 1 1
30 4 1 1
30 5 1 1
30 6 1 1
30 7 1 1
30 8 1 1
30 9 1 1
30 10 1 1
30 11 1 1
30 12 1 1
30 13 1 1
30 14 1 1
31 2 1 1
31 3 1 1
31 4 1 1
31 5 1 1
31 6 1 1
31 7 1 1
31 8 1 1
31 9 1 1
31 10 1 1
31 11 1 1
31 12 1 1
31 13 1 1
31 14 1 1
32 2 1 1
32 3 1 1
32 4 1 1
32 5 1 1
32 6 1 1
32 7 1 1
32 8 1 1
32 9 1 1
32 10 1 1
32 11 1 1
32 12 1 1
32 13 1 1
32 14 1 1
33 2 1 1
33 3 1 1
33 4 1 1
33 5 1 1
33 6 1 1
33 7 1 1
33 8 1 1
33 9 1 1
33 10 1 1
33 11 1 1
33 12 1 1
33 13 1 1
33 14 1 1
34 2 1 1
34 3 1 1
34 4 1 1
34 5 1 1
34 6 1 1
34 7 1 1
34 8 1 1
34 9 1 1
34 10 1 1
34 11 1 1
34 12 1 1
34 13 1 1
34 14 1 1
35 2 1 1
35 3 1 1
35 4 1 1
35 5 1 1
35 6 1 1
35 7 1 1
35 8 1 1
35 9 1 1
35 10 1 1
35 11 1 1
35 12 1 1
35 13 1 1
35 14 1 1
36 2 1 1
36 3 1 1
36 4 1 1
36 5 1 1
36 6 1 1
36 7 1 1
36 8 1 1
36 9 1 1
36 10 1 1
36 11 1 1
36 12 1 1
36 13 1 1
36 14 1 1
37 2 1 1
37 3 1 1
37 4 1 1
37 5 1 1
37 6 1 1
37 7 1 1
37 8 1 1
37 9 1 1
37 10 1 1
37 11 1 1
37 12 1 1
37 13 1 1
37 14 1 1
38 2 1 1
38 3 1 1
38 4 1 1
38 5 1 1
38 6 1 1
38 7 1 1
38 8 1 1
38 9 1 1
38 10 1 1
38 11 1 1
38 12 1 1
38 13 1 1
38 14 1 1
;

param q:=
1 1 2 61.5634846047682
1 1 3 10.0160604651947
1 1 4 5.09186635222659
1 1 5 10.8452126967276
1 1 6 8.67712461893528
1 1 7 8.69762251983224
1 1 8 5.71240049270128
1 1 9 0.891186568574157
1 1 10 14.3575770216378
1 1 11 8.17664733441537
1 1 12 66.5229561520101
1 1 13 6.18171204927532
1 1 14 10.7887378016596
2 1 2 7.71815796708524
2 1 3 7.99655315292876
2 1 4 5.93538312765961
2 1 5 2.00774148470059
2 1 6 54.4586323430826
2 1 7 11.4646367133707
2 1 8 0.6
2 1 9 9.96018670722514
2 1 10 12.354472619224
2 1 11 11.1979030247946
2 1 12 5.57101360939813
2 1 13 13.8944150992533
2 1 14 4.40131252970102
3 1 2 7.92851474784574
3 1 3 5.26896036347426
3 1 4 5.63434265868909
3 1 5 12.6773172787589
3 1 6 7.89162358522337
3 1 7 3
3 1 8 10.7838446234389
3 1 9 6.86754901322306
3 1 10 9.8999577133174
3 1 11 1.27173271276146
3 1 12 5.1056093346825
3 1 13 8.47220280686417
3 1 14 9.29220220413747
4 1 2 5.69805926306559
4 1 3 6.50701413834662
4 1 4 4.03418360636442
4 1 5 6.3841260328914
4 1 6 10.6968781134964
4 1 7 61.3976207136642
4 1 8 12.2417370323227
4 1 9 3.30683946144503
4 1 10 1.56394742062568
4 1 11 9.71869040571588
4 1 12 14.3065271364571
4 1 13 6.63644677940066
4 1 14 6.49570632797833
5 1 2 12.7886382625445
5 1 3 56.2490216895921
5 1 4 2.7893515709669
5 1 5 0.915504361228015
5 1 6 57.0466667282322
5 1 7 12.100760140486
5 1 8 60.7143121817412
5 1 9 7.16758150707886
5 1 10 4.28065089525707
5 1 11 3
5 1 12 13.8657401657878
5 1 13 6.00154501433072
5 1 14 6.92074069547079
6 1 2 5.55220651838703
6 1 3 13.5067992490057
6 1 4 0.6
6 1 5 4.85105015643858
6 1 6 12.7340914751598
6 1 7 10.568774348699
6 1 8 8.37422471637556
6 1 9 8.42882646638256
6 1 10 8.01912300010101
6 1 11 17.1496551544671
6 1 12 10.691335559467
6 1 13 8.09716049856781
6 1 14 7.99154440355151
7 1 2 13.2796163613215
7 1 3 4.33314186650206
7 1 4 67.1059695615005
7 1 5 12.5644380269075
7 1 6 6.24265797169404
7 1 7 55.6635688826628
7 1 8 59.1190593791669
7 1 9 17.2849115059152
7 1 10 11.9597567651363
7 1 11 7.05793044434566
7 1 12 17.6358781816467
7 1 13 6.11545232634858
7 1 14 8.11897536614407
8 1 2 12.481622073631
8 1 3 68.3942620247823
8 1 4 8.32407390951921
8 1 5 4.89312209532126
8 1 6 13.5798082329928
8 1 7 0.653842664991847
8 1 8 10.8202777556837
8 1 9 6.78953384207855
8 1 10 1.12547673035878
8 1 11 0.664544346873938
8 1 12 8.72384657095022
8 1 13 13.1252635548073
8 1 14 0.6
9 1 2 3
9 1 3 11.118701314946
9 1 4 13.3674552691865
9 1 5 4.74050764969489
9 1 6 4.31945254260203
9 1 7 5.93513844787037
9 1 8 10.1723511613663
9 1 9 5.85280862040534
9 1 10 6.06723491228431
9 1 11 10.046716420506
9 1 12 8.65023104537272
9 1 13 13.4317889318092
9 1 14 11.3534255349677
10 1 2 10.4753132394463
10 1 3 12.9401685380076
10 1 4 8.66487998234173
10 1 5 8.37394552014922
10 1 6 2.3159890541108
10 1 7 12.6459443797037
10 1 8 12.6180759468593
10 1 9 11.6870684041565
10 1 10 1.63243425345366
10 1 11 6.27960196380371
10 1 12 7.56680825598981
10 1 13 6.13618491839981
10 1 14 13.1815177305797
11 1 2 13.9312008779467
11 1 3 12.2543499273749
11 1 4 1.75821521450284
11 1 5 0.6
11 1 6 8.94218256428741
11 1 7 7.08814744150899
11 1 8 12.8861166082016
11 1 9 8.41313218546178
11 1 10 13.2078179565412
11 1 11 5.13710322161321
11 1 12 4.35474543652562
11 1 13 5.89952187358593
11 1 14 4.13682811538577
12 1 2 8.44855041475189
12 1 3 11.0546212023565
12 1 4 5.61946388158082
12 1 5 13.5619642078539
12 1 6 7.63798625532645
12 1 7 1.38717235359806
12 1 8 5.79391729905822
12 1 9 67.4471407323204
12 1 10 10.0153019510795
12 1 11 13.4482843327976
12 1 12 4.52765395225967
12 1 13 12.6998421392266
12 1 14 9.3833670455511
13 1 2 7.43051624830896
13 1 3 7.49605049271682
13 1 4 6.4851451508684
13 1 5 1.50438090094117
13 1 6 59.3847998517967
13 1 7 16.3256977231516
13 1 8 15.7702431494557
13 1 9 13.3849021448003
13 1 10 8.10121469946481
13 1 11 3
13 1 12 12.7117095284891
13 1 13 1.14578270052829
13 1 14 11.4732509324653
14 1 2 0.671082876904167
14 1 3 4.72553354169025
14 1 4 7.90703992197615
14 1 5 12.3901780940322
14 1 6 9.30273269409299
14 1 7 9.14084313453508
14 1 8 8.22166468889586
14 1 9 13.6043179530292
14 1 10 14.2682558212902
14 1 11 17.0443132108484
14 1 12 7.07830927199604
14 1 13 2.10772625751081
14 1 14 55.9697318980761
15 1 2 7.05919509312145
15 1 3 9.24371563646783
15 1 4 8.88692267280233
15 1 5 13.0117194830906
15 1 6 6.25695585461494
15 1 7 0.738236691881675
15 1 8 4.75359955019891
15 1 9 15.5765171458338
15 1 10 12.0234534842107
15 1 11 5.64644976427993
15 1 12 11.3658159685697
15 1 13 13.2879904891436
15 1 14 0.874193444972777
16 1 2 14.4703090136258
16 1 3 13.4831709825916
16 1 4 6.0511489688452
16 1 5 12.11918095738
16 1 6 3.63794698796817
16 1 7 6.32180984364632
16 1 8 7.95042156289942
16 1 9 0.800251485983926
16 1 10 14.5464641081128
16 1 11 11.9132686315282
16 1 12 4.52928273131291
16 1 13 12.873041257096
16 1 14 3
17 1 2 5.03986802148984
17 1 3 10.70242683776
17 1 4 3
17 1 5 3.13345308348002
17 1 6 5.78567927380497
17 1 7 12.8508069080358
17 1 8 13.3860572775911
17 1 9 13.1762514383864
17 1 10 13.2043537366245
17 1 11 7.55257768349251
17 1 12 14.2905919986279
17 1 13 8.03423737407895
17 1 14 6.07320055185823
18 1 2 5.66613549248502
18 1 3 14.2145915050001
18 1 4 14.8580848131938
18 1 5 5.1301738520477
18 1 6 6.80981080697301
18 1 7 3.96548383238345
18 1 8 68.994395640702
18 1 9 3.66991940896402
18 1 10 13.6243226527455
18 1 11 15.1714184351934
18 1 12 6.02561849927333
18 1 13 7.16886733590999
18 1 14 5.07378201636729
19 1 2 3.80509174979
19 1 3 60.5306183184756
19 1 4 3.90059771219909
19 1 5 13.997381745524
19 1 6 1.03901250086873
19 1 7 54.1498563039388
19 1 8 7.18547847044585
19 1 9 14.0495540778174
19 1 10 0.6
19 1 11 11.1915955667149
19 1 12 5.3992095199023
19 1 13 3
19 1 14 15.2428426282519
20 1 2 15.6742410791293
20 1 3 7.48176257412086
20 1 4 11.3088252813672
20 1 5 5.92352251369284
20 1 6 3
20 1 7 5.75467537399943
20 1 8 11.1537654702603
20 1 9 2.031871216724
20 1 10 59.7209944288715
20 1 11 4.01741228126694
20 1 12 4.28792911405293
20 1 13 11.8318633579774
20 1 14 5.95526160266831
21 1 2 12.1322128583015
21 1 3 8.97957437127485
21 1 4 7.38209676843697
21 1 5 11.0799495383154
21 1 6 14.8978032170107
21 1 7 6.73519348366566
21 1 8 65.6446264166519
21 1 9 5.72023347888068
21 1 10 16.324881509089
21 1 11 4.91370464402813
21 1 12 1.18458924793272
21 1 13 62.8864601742861
21 1 14 1.89960036289926
22 1 2 0.6
22 1 3 6.366974585251
22 1 4 6.78281812969204
22 1 5 10.144829210832
22 1 6 11.1398004771913
22 1 7 8.88717430008978
22 1 8 6.50670704314558
22 1 9 9.14260778795802
22 1 10 60.2220867818592
22 1 11 5.16707650875528
22 1 12 13.3819285991321
22 1 13 11.4409218475751
22 1 14 6.18434066298543
23 1 2 15.7243018192035
23 1 3 11.2207155382916
23 1 4 13.4103019204461
23 1 5 0.6
23 1 6 58.5560553642616
23 1 7 63.2195560067124
23 1 8 5.51428774734556
23 1 9 12.5681922668822
23 1 10 8.94390877618548
23 1 11 6.38272112098122
23 1 12 15.7578812107888
23 1 13 61.8025464849587
23 1 14 16.1721244370473
24 1 2 13.7685451454691
24 1 3 15.0153538932104
24 1 4 6.19948184173041
24 1 5 16.9472938319742
24 1 6 12.2160092590895
24 1 7 2.32109487679869
24 1 8 0.628386295850025
24 1 9 14.3212948655952
24 1 10 8.69951497099682
24 1 11 9.10340260386819
24 1 12 57.152702544158
24 1 13 9.83060883217616
24 1 14 12.3240107555532
25 1 2 13.0880570443617
25 1 3 5.75618295683392
25 1 4 11.2531906894525
25 1 5 11.5747566062924
25 1 6 58.7090851314039
25 1 7 63.673886226899
25 1 8 6.24462848279229
25 1 9 7.65678727387424
25 1 10 6.96342140097326
25 1 11 7.64198135551337
25 1 12 7.53841826574375
25 1 13 7.05941929560694
25 1 14 6.76411935122906
26 1 2 5.59139422768488
26 1 3 9.31344109110476
26 1 4 16.5460268963452
26 1 5 11.3678274329913
26 1 6 8.18684023649833
26 1 7 6.67183569894867
26 1 8 5.41818202580722
26 1 9 62.3478635445321
26 1 10 13.3626686199051
26 1 11 12.8306106334119
26 1 12 5.84487293338936
26 1 13 6.7968700258643
26 1 14 12.3408318561944
27 1 2 11.2766130997292
27 1 3 11.5382493348359
27 1 4 6.4066906264374
27 1 5 12.1994699930635
27 1 6 57.2877839931296
27 1 7 9.62676967610767
27 1 8 13.1217111824126
27 1 9 11.3649814653238
27 1 10 4.9587169683273
27 1 11 7.36062991427905
27 1 12 0.6
27 1 13 7.02411432586418
27 1 14 11.4329424560445
28 1 2 4.88898158897618
28 1 3 16.5903069306339
28 1 4 8.1334845992973
28 1 5 12.4122680316423
28 1 6 9.5732297908392
28 1 7 1.2294514262992
28 1 8 6.69909819306754
28 1 9 58.5596657864342
28 1 10 60.8439310933397
28 1 11 9.29421055175935
28 1 12 15.0005073886117
28 1 13 3.60519051809385
28 1 14 4.77620389906794
29 1 2 10.3650597228413
29 1 3 11.2791392604782
29 1 4 3.50581766176555
29 1 5 4.6650450443979
29 1 6 5.75497275103911
29 1 7 8.83378836470498
29 1 8 12.7385934843435
29 1 9 11.1836018964922
29 1 10 6.31479410284291
29 1 11 11.0666197272403
29 1 12 7.38989978919018
29 1 13 12.8558834097085
29 1 14 59.6374233166633
30 1 2 9.48487463361594
30 1 3 11.7192868193676
30 1 4 4.80168857823328
30 1 5 0.6
30 1 6 11.4943521467575
30 1 7 15.4233609947523
30 1 8 7.855219218696
30 1 9 10.9625442836145
30 1 10 13.2614834812027
30 1 11 3.39146958975511
30 1 12 47.6960683625151
30 1 13 7.6804312443247
30 1 14 5.23048334540012
31 1 2 6.27219999460527
31 1 3 14.3605005986521
31 1 4 8.86169426644745
31 1 5 7.48540830556959
31 1 6 4.55999267653339
31 1 7 8.08636756398173
31 1 8 10.5957695828344
31 1 9 5.62219259581985
31 1 10 5.76551144784796
31 1 11 13.6734785427031
31 1 12 3.91906407217506
31 1 13 12.9695527171837
31 1 14 7.82623502516299
32 1 2 11.6605328227005
32 1 3 6.52708450814023
32 1 4 12.5238908992279
32 1 5 0.6
32 1 6 5.90712257544981
32 1 7 10.7987996018135
32 1 8 0.724809001217434
32 1 9 3
32 1 10 3
32 1 11 15.8492170387235
32 1 12 6.16984801037121
32 1 13 9.32830890564112
32 1 14 67.1478726122841
33 1 2 10.3203159796855
33 1 3 8.60643836891695
33 1 4 1.49101943376925
33 1 5 14.1980404880632
33 1 6 11.6425248191429
33 1 7 5.66272866800926
33 1 8 5.54684147713272
33 1 9 11.626672476506
33 1 10 10.1337911135468
33 1 11 4.8981662623838
33 1 12 15.2494356783825
33 1 13 7.60633512089016
33 1 14 4.71281189755034
34 1 2 10.7676088814626
34 1 3 14.4034782078155
34 1 4 1.3370587054172
34 1 5 4.02806125677366
34 1 6 4.86737097649107
34 1 7 13.7455044441771
34 1 8 14.9705949782534
34 1 9 6.38783129858355
34 1 10 9.7908912084347
34 1 11 10.9960559803197
34 1 12 13.9461806039202
34 1 13 6.02236127082071
34 1 14 3.05431600064033
35 1 2 17.7028719115791
35 1 3 6.08914746312912
35 1 4 8.04439494012737
35 1 5 61.0617864835381
35 1 6 7.77338705620962
35 1 7 6
35 1 8 5.09166947979782
35 1 9 11.2300912060663
35 1 10 3
35 1 11 13.3059276120264
35 1 12 12.0893558872
35 1 13 67.2305467041386
35 1 14 13.8722144242845
36 1 2 60.6984710156821
36 1 3 4.53389456273254
36 1 4 59.1805236320704
36 1 5 15.0588415556347
36 1 6 4.07687438722848
36 1 7 9.87384075479635
36 1 8 10.8319777800333
36 1 9 13.5558565501072
36 1 10 67.1653719197313
36 1 11 9.61120538815153
36 1 12 8.80204998744875
36 1 13 11.1166613080684
36 1 14 46.5564721601248
37 1 2 1.14715201560574
37 1 3 8.08701847342188
37 1 4 14.9919467639194
37 1 5 11.8745374766616
37 1 6 8.23752710991913
37 1 7 10.8115653573883
37 1 8 7.40688285470128
37 1 9 3
37 1 10 15.3556119717063
37 1 11 4.28563593518552
37 1 12 12.8512154124509
37 1 13 3.93219462629783
37 1 14 6.31237550879188
38 1 2 9.15038602756131
38 1 3 0.83854030241713
38 1 4 44.0299265489394
38 1 5 13.2181744764823
38 1 6 13.195004776394
38 1 7 1.61777505304272
38 1 8 15.2478560244918
38 1 9 14.4195148889514
38 1 10 1.33714727502291
38 1 11 6
38 1 12 1.28297312156828
38 1 13 51.0770921117977
38 1 14 14.4203999141369
1 2 1 81.8197238188073
1 3 1 16.8129211105446
1 4 1 6.79287118754842
1 5 1 13.4413645849793
1 6 1 8.26158073224475
1 7 1 11.9288904826846
1 8 1 7.71880206075421
1 9 1 1.35594727097354
1 10 1 17.7371249975658
1 11 1 10.6387291975537
1 12 1 90.290407040681
1 13 1 7.34575325811828
1 14 1 16.3573834257101
2 2 1 9.58688892422527
2 3 1 12.1511355787214
2 4 1 7.0024503813167
2 5 1 4.61271930192518
2 6 1 81.9760430748578
2 7 1 17.3023101813306
2 8 1 0.42
2 9 1 15.2815649147226
2 10 1 17.6524744201075
2 11 1 15.9657606459699
2 12 1 9.35736476542968
2 13 1 17.9035590813124
2 14 1 6.34123741775738
3 2 1 11.1019713714516
3 3 1 4.82003349996018
3 4 1 9.12710268994792
3 5 1 16.6622904607641
3 6 1 8.74409049732649
3 7 1 4.11375515574424
3 8 1 18.35932484765
3 9 1 7.76722156556335
3 10 1 16.6878001405889
3 11 1 2.50729493995085
3 12 1 5.26719517205358
3 13 1 14.4093484997636
3 14 1 12.3480370479666
4 2 1 5.59578683118976
4 3 1 11.4890161223558
4 4 1 5.25868702016604
4 5 1 9.19144659278527
4 6 1 15.3070406441773
4 7 1 76.9988878250872
4 8 1 18.2552285823001
4 9 1 4.44141702430669
4 10 1 1.83732001052393
4 11 1 13.0501532106654
4 12 1 16.9244719573292
4 13 1 10.6836549265235
4 14 1 11.2093061458252
5 2 1 14.0211756941816
5 3 1 69.4217375106146
5 4 1 3.31614995753579
5 5 1 2.87977303107299
5 6 1 92.9172050209194
5 7 1 20.1945566069333
5 8 1 80.2730164796692
5 9 1 8.03058367385666
5 10 1 4.81913948891484
5 11 1 2.91001772563046
5 12 1 13.9846460745322
5 13 1 11.6684502954712
5 14 1 11.5606725798001
6 2 1 6.9049038351129
6 3 1 15.5797344135524
6 4 1 0.42
6 5 1 10.8987353935616
6 6 1 19.0540537403951
6 7 1 14.3337144117719
6 8 1 5.90353057569895
6 9 1 9.93735366233105
6 10 1 13.0656551008496
6 11 1 19.8343263781809
6 12 1 18.3813340197412
6 13 1 13.9095525626579
6 14 1 16.3404856188971
7 2 1 17.9301445982281
7 3 1 6.54889528107259
7 4 1 95.4025001952397
7 5 1 20.0443478014243
7 6 1 8.84749789194567
7 7 1 66.1653794177028
7 8 1 87.9084146635825
7 9 1 28.3333119860397
7 10 1 19.7909836399218
7 11 1 8.25084750962616
7 12 1 20.4621747193163
7 13 1 8.20100034817672
7 14 1 11.332774996639
8 2 1 15.9063256266763
8 3 1 93.2714702043045
8 4 1 13.8046934232
8 5 1 5.1430618074856
8 6 1 20.1082917201629
8 7 1 0.900330342471896
8 8 1 23.1911968237899
8 9 1 10.3370550376548
8 10 1 1.7300236553459
8 11 1 1.01563062974646
8 12 1 12.8697957265307
8 13 1 14.4932368235833
8 14 1 0.748290157119888
9 2 1 2.19983176983504
9 3 1 12.255267144166
9 4 1 16.3822190494504
9 5 1 7.18430728373536
9 6 1 6.15176442532757
9 7 1 10.623780550762
9 8 1 11.8300440036545
9 9 1 7.99764595758161
9 10 1 8.38524211487966
9 11 1 14.0534069438191
9 12 1 11.9565158607588
9 13 1 17.1229096452164
9 14 1 14.0845285370649
10 2 1 8.61030631681063
10 3 1 11.0090334306026
10 4 1 16.0843401262043
10 5 1 7.88052657036247
10 6 1 1.86780563630874
10 7 1 16.6040736545317
10 8 1 18.3117306789602
10 9 1 14.0608167470672
10 10 1 3.09680795768357
10 11 1 9.80407282536997
10 12 1 11.5945465039101
10 13 1 7.20054319425165
10 14 1 19.5816294793876
11 2 1 15.7114141607624
11 3 1 16.1603589225607
11 4 1 1.49049848196131
11 5 1 0.42
11 6 1 12.5715199824642
11 7 1 9.53995874445248
11 8 1 16.2596560886728
11 9 1 11.2821159420117
11 10 1 17.9021597472124
11 11 1 5.34768447499097
11 12 1 7.9073309317733
11 13 1 10.739182006474
11 14 1 6.66943733040547
12 2 1 12.7335125325688
12 3 1 11.6084213041211
12 4 1 8.83878171847759
12 5 1 22.9750459254906
12 6 1 9.88512898119623
12 7 1 1.90046520648604
12 8 1 11.1660932543893
12 9 1 91.2538933261762
12 10 1 15.8610690319379
12 11 1 17.2752681128893
12 12 1 8.36436739086829
12 13 1 15.8266230010431
12 14 1 15.6492888673346
13 2 1 13.2222625024097
13 3 1 8.59934808798851
13 4 1 9.27670211196852
13 5 1 2.43694327544014
13 6 1 81.0358308505139
13 7 1 21.0392905886399
13 8 1 21.4224118171395
13 9 1 16.3676257015687
13 10 1 9.14816979752819
13 11 1 3.86434573966925
13 12 1 14.0716709178546
13 13 1 1.22438641569866
13 14 1 15.143336137837
14 2 1 1.50102160056549
14 3 1 7.55611503484658
14 4 1 8.40744147697669
14 5 1 19.6266129972117
14 6 1 13.6785189242035
14 7 1 12.004442127797
14 8 1 9.76490386488086
14 9 1 18.1485168078362
14 10 1 21.7806579006794
14 11 1 22.459543771279
14 12 1 9.90481641713759
14 13 1 3.36610884588286
14 14 1 79.6605621804324
15 2 1 7.01147469381518
15 3 1 12.0737031573786
15 4 1 12.8497350963087
15 5 1 18.041285621025
15 6 1 4.37986909823046
15 7 1 1.21187010960638
15 8 1 6.1123043882064
15 9 1 22.559216267465
15 10 1 18.5113089991884
15 11 1 8.36134258347103
15 12 1 16.1808344228002
15 13 1 23.3129983653126
15 14 1 1.65922606217422
16 2 1 21.6851130598759
16 3 1 15.9346140961928
16 4 1 7.86336403107065
16 5 1 15.3033069825375
16 6 1 7.8227851880272
16 7 1 8.58603527174301
16 8 1 11.5945272525151
16 9 1 1.41819134686761
16 10 1 13.651823133095
16 11 1 18.4255692837981
16 12 1 5.64534631468411
16 13 1 17.3753893592133
16 14 1 4.78422752920143
17 2 1 3.52790761504289
17 3 1 14.6298425434909
17 4 1 6.47480274597562
17 5 1 4.74313851281393
17 6 1 7.35259265120312
17 7 1 19.7257157958517
17 8 1 15.3618939894778
17 9 1 20.1461953512848
17 10 1 16.8960384420118
17 11 1 7.9677727562255
17 12 1 20.514637222621
17 13 1 17.1833553751342
17 14 1 9.64122319187554
18 2 1 8.77675448879151
18 3 1 19.9075156251038
18 4 1 18.8398045214045
18 5 1 9.2067250722509
18 6 1 9.55334716262703
18 7 1 6.43038306715371
18 8 1 94.9965935702911
18 9 1 10.1051467272144
18 10 1 23.5172915640493
18 11 1 17.6181591777256
18 12 1 8.42750474608982
18 13 1 13.6963223129779
18 14 1 9.378046132034
19 2 1 2.663564224853
19 3 1 80.0699385431599
19 4 1 4.83836323513122
19 5 1 16.83904885885
19 6 1 2.40912321168904
19 7 1 73.5682421263575
19 8 1 7.55107851168747
19 9 1 12.9274039307978
19 10 1 2.1310195245226
19 11 1 14.1980488551107
19 12 1 11.9122274313732
19 13 1 2.99174353159275
19 14 1 22.5128833419504
20 2 1 18.2686528825474
20 3 1 12.0249815507099
20 4 1 15.9356219974142
20 5 1 5.38019923066407
20 6 1 4.6600580938773
20 7 1 6.81222311023371
20 8 1 14.0093256353345
20 9 1 2.66002271128063
20 10 1 84.4641428459575
20 11 1 3.08401852583696
20 12 1 4.6916773968815
20 13 1 16.0008350738353
20 14 1 8.33717135049629
21 2 1 14.8657111245221
21 3 1 12.3084230542061
21 4 1 8.7723724884593
21 5 1 21.6018312354122
21 6 1 25.4065172305759
21 7 1 9.25544090899685
21 8 1 95.4315899730501
21 9 1 7.75515338774735
21 10 1 31.2896863432073
21 11 1 8.04239050454699
21 12 1 3.16262968063678
21 13 1 80.2998933809576
21 14 1 3.51218959532062
22 2 1 0.596385284412342
22 3 1 7.60978432551195
22 4 1 11.5067974354999
22 5 1 14.8576445986452
22 6 1 11.2178379400303
22 7 1 14.6600172318564
22 8 1 9.93801905437309
22 9 1 13.1302049420845
22 10 1 75.7391338362892
22 11 1 5.12842630147343
22 12 1 18.6223369802077
22 13 1 17.0953312919998
22 14 1 8.50409614635005
23 2 1 19.7172736449411
23 3 1 17.8199482708457
23 4 1 23.9892449369044
23 5 1 0.774323434423288
23 6 1 71.5795794121174
23 7 1 92.9018703624932
23 8 1 9.33836935473693
23 9 1 26.6270408751796
23 10 1 11.6112727502669
23 11 1 9.91397585216256
23 12 1 18.9910358992908
23 13 1 84.9881960206035
23 14 1 25.5506972514341
24 2 1 13.1766937462399
24 3 1 19.2448830836655
24 4 1 12.0118516772373
24 5 1 26.5393772768634
24 6 1 16.9529797592822
24 7 1 3.56859771357638
24 8 1 1.79953323777581
24 9 1 21.418473564883
24 10 1 11.1986080193212
24 11 1 8.94027573584743
24 12 1 84.6914687267389
24 13 1 9.12150238794163
24 14 1 18.6128607842348
25 2 1 19.3814376323394
25 3 1 5.71129251983973
25 4 1 19.9577757756935
25 5 1 16.1555247620443
25 6 1 92.8640620614193
25 7 1 92.0555543123661
25 8 1 8.64782453458443
25 9 1 12.3635040998661
25 10 1 10.3894782734597
25 11 1 9.60165771054726
25 12 1 8.12125048544926
25 13 1 10.4007058775693
25 14 1 12.7797562427345
26 2 1 8.58913198409476
26 3 1 13.9698572482953
26 4 1 22.9590686369829
26 5 1 18.9730840586696
26 6 1 9.39169806584547
26 7 1 8.98776028623084
26 8 1 7.74148241612789
26 9 1 83.4682919040295
26 10 1 14.6924361832342
26 11 1 11.3144828664485
26 12 1 7.98127792662362
26 13 1 8.73283087400107
26 14 1 16.8796607912238
27 2 1 17.7397601747882
27 3 1 18.5814499643599
27 4 1 10.5096777570211
27 5 1 9.44283849119524
27 6 1 79.3657990679135
27 7 1 14.254871357354
27 8 1 18.3547933448145
27 9 1 14.457013380815
27 10 1 8.98358651870048
27 11 1 11.725695114982
27 12 1 0.434965878465055
27 13 1 11.9846660911619
27 14 1 15.45593163416
28 2 1 4.90897926778311
28 3 1 19.845228278298
28 4 1 13.2160022328731
28 5 1 14.799639371711
28 6 1 14.544758707044
28 7 1 2.54326273879537
28 8 1 6.73619135106366
28 9 1 83.1590553330636
28 10 1 88.081345093945
28 11 1 13.4504295284107
28 12 1 24.3515754969763
28 13 1 2.92918620572214
28 14 1 3.47298355092753
29 2 1 16.9051966315367
29 3 1 16.3010427692795
29 4 1 5.28444536702592
29 5 1 7.68737818029504
29 6 1 9.14239000705491
29 7 1 12.3581963591699
29 8 1 11.5106788438224
29 9 1 19.1500463946532
29 10 1 12.0565410537221
29 11 1 20.4854207782047
29 12 1 13.0599334254663
29 13 1 16.0552906378187
29 14 1 94.8175163863921
30 2 1 11.4000901764525
30 3 1 12.0374101687332
30 4 1 9.5765756622815
30 5 1 1.29324609914219
30 6 1 16.5272177212801
30 7 1 20.7617615975079
30 8 1 12.9173902824238
30 9 1 16.9289299593044
30 10 1 16.0045250761177
30 11 1 10.0732745419895
30 12 1 66.183794777184
30 13 1 10.5445576708159
30 14 1 5.25869745564748
31 2 1 9.07362907280212
31 3 1 16.6405659786023
31 4 1 12.0560698896858
31 5 1 9.00321583898657
31 6 1 7.33689865318361
31 7 1 8.03225298297688
31 8 1 16.7452613697124
31 9 1 9.29200098575012
31 10 1 6.57660372533432
31 11 1 21.9782227540067
31 12 1 7.32381822323902
31 13 1 14.5650483831248
31 14 1 10.2155168669761
32 2 1 22.7824131970639
32 3 1 6.99243993157875
32 4 1 15.0961905138901
32 5 1 0.491027469618083
32 6 1 5.9868854339352
32 7 1 15.2443246798139
32 8 1 0.819036543581446
32 9 1 2.40904584802827
32 10 1 5.28974859441337
32 11 1 21.1650506905001
32 12 1 10.1517342411352
32 13 1 13.0019575511009
32 14 1 104.322639955857
33 2 1 11.8923507911733
33 3 1 13.4701570140835
33 4 1 1.21715743881938
33 5 1 18.2436891156521
33 6 1 20.0188049546754
33 7 1 10.0110209803422
33 8 1 10.7564630462636
33 9 1 17.0613072257251
33 10 1 11.4424531931899
33 11 1 8.51949057727976
33 12 1 25.9449359466148
33 13 1 10.6913637172931
33 14 1 7.76420671368564
34 2 1 12.6884796931323
34 3 1 14.0598445999927
34 4 1 0.935941093792037
34 5 1 5.01294793992707
34 6 1 6.72146279107394
34 7 1 16.4619172000527
34 8 1 22.2551453066392
34 9 1 14.2186666652312
34 10 1 14.3451188697972
34 11 1 16.9975328198178
34 12 1 16.4856470029954
34 13 1 11.7746963424278
34 14 1 2.66994416472095
35 2 1 20.598422272599
35 3 1 7.18325067781085
35 4 1 12.5480540386525
35 5 1 92.3200468446543
35 6 1 8.50417326894907
35 7 1 8.5544647519482
35 8 1 5.54718905865257
35 9 1 21.4895837834385
35 10 1 3.14126923498895
35 11 1 20.1166611384603
35 12 1 15.483472318702
35 13 1 100.495234156042
35 14 1 16.4318404974734
36 2 1 87.9481636086426
36 3 1 8.81091066303494
36 4 1 79.56476944177
36 5 1 27.3639125564594
36 6 1 3.70348666981861
36 7 1 13.2608655189776
36 8 1 16.2395504899306
36 9 1 14.7199586161786
36 10 1 96.0199096463774
36 11 1 10.0271205396293
36 12 1 15.8892668880358
36 13 1 18.7867701068812
36 14 1 61.7777593461933
37 2 1 2.49611013637803
37 3 1 15.6675857591125
37 4 1 19.2812443848757
37 5 1 19.5545629525548
37 6 1 7.38532348935513
37 7 1 13.8765851936768
37 8 1 9.37341069529665
37 9 1 5.01210075967581
37 10 1 26.5569395161254
37 11 1 7.06537615872159
37 12 1 16.3862721837445
37 13 1 6.1079681578017
37 14 1 10.1335920952813
38 2 1 14.5421451367935
38 3 1 1.66990771539559
38 4 1 63.9316734178366
38 5 1 19.9683746518408
38 6 1 23.428671695166
38 7 1 1.29091100412269
38 8 1 20.2156088293734
38 9 1 25.644427526396
38 10 1 1.27004631604509
38 11 1 7.08106312707867
38 12 1 2.14654754617747
38 13 1 65.1666347709819
38 14 1 24.2039438587066
;

param y_fixed:=
1 2 20 1
1 3 23 1
1 4 7 1
1 5 24 1
1 6 1 1
1 7 8 1
1 8 16 1
1 9 17 1
1 10 21 1
1 11 10 1
1 12 4 1
1 13 25 1
1 14 9 1
2 2 15 1
2 3 17 1
2 4 6 1
2 5 18 1
2 6 2 1
2 7 20 1
2 8 24 1
2 9 11 1
2 10 7 1
2 11 8 1
2 12 16 1
2 13 9 1
2 14 10 1
3 2 4 1
3 3 2 1
3 4 25 1
3 5 23 1
3 6 11 1
3 7 5 1
3 8 9 1
3 9 18 1
3 10 8 1
3 11 24 1
3 12 16 1
3 13 13 1
3 14 7 1
4 2 11 1
4 3 4 1
4 4 3 1
4 5 17 1
4 6 21 1
4 7 20 1
4 8 23 1
4 9 14 1
4 10 18 1
4 11 13 1
4 12 8 1
4 13 10 1
4 14 5 1
5 2 9 1
5 3 8 1
5 4 10 1
5 5 25 1
5 6 1 1
5 7 5 1
5 8 17 1
5 9 23 1
5 10 2 1
5 11 13 1
5 12 22 1
5 13 4 1
5 14 7 1
6 2 9 1
6 3 8 1
6 4 19 1
6 5 17 1
6 6 12 1
6 7 1 1
6 8 2 1
6 9 23 1
6 10 24 1
6 11 11 1
6 12 14 1
6 13 21 1
6 14 15 1
7 2 24 1
7 3 25 1
7 4 2 1
7 5 18 1
7 6 23 1
7 7 3 1
7 8 8 1
7 9 4 1
7 10 20 1
7 11 19 1
7 12 6 1
7 13 16 1
7 14 12 1
8 2 17 1
8 3 13 1
8 4 14 1
8 5 15 1
8 6 18 1
8 7 23 1
8 8 10 1
8 9 12 1
8 10 16 1
8 11 5 1
8 12 21 1
8 13 4 1
8 14 19 1
9 2 4 1
9 3 15 1
9 4 20 1
9 5 12 1
9 6 1 1
9 7 6 1
9 8 3 1
9 9 2 1
9 10 17 1
9 11 14 1
9 12 9 1
9 13 13 1
9 14 18 1
10 2 12 1
10 3 2 1
10 4 7 1
10 5 20 1
10 6 4 1
10 7 6 1
10 8 5 1
10 9 25 1
10 10 15 1
10 11 17 1
10 12 18 1
10 13 24 1
10 14 22 1
11 2 14 1
11 3 5 1
11 4 9 1
11 5 13 1
11 6 6 1
11 7 15 1
11 8 7 1
11 9 4 1
11 10 8 1
11 11 2 1
11 12 18 1
11 13 12 1
11 14 1 1
12 2 1 1
12 3 14 1
12 4 5 1
12 5 20 1
12 6 3 1
12 7 25 1
12 8 19 1
12 9 10 1
12 10 7 1
12 11 16 1
12 12 21 1
12 13 12 1
12 14 23 1
13 2 17 1
13 3 4 1
13 4 3 1
13 5 12 1
13 6 5 1
13 7 1 1
13 8 15 1
13 9 18 1
13 10 20 1
13 11 16 1
13 12 14 1
13 13 6 1
13 14 10 1
14 2 13 1
14 3 6 1
14 4 20 1
14 5 19 1
14 6 10 1
14 7 8 1
14 8 22 1
14 9 11 1
14 10 9 1
14 11 14 1
14 12 7 1
14 13 4 1
14 14 1 1
15 2 24 1
15 3 2 1
15 4 25 1
15 5 8 1
15 6 3 1
15 7 21 1
15 8 18 1
15 9 11 1
15 10 5 1
15 11 13 1
15 12 19 1
15 13 12 1
15 14 9 1
16 2 17 1
16 3 8 1
16 4 9 1
16 5 10 1
16 6 2 1
16 7 3 1
16 8 5 1
16 9 15 1
16 10 4 1
16 11 21 1
16 12 6 1
16 13 1 1
16 14 22 1
17 2 2 1
17 3 24 1
17 4 22 1
17 5 5 1
17 6 1 1
17 7 14 1
17 8 6 1
17 9 21 1
17 10 13 1
17 11 4 1
17 12 7 1
17 13 12 1
17 14 15 1
18 2 4 1
18 3 10 1
18 4 9 1
18 5 14 1
18 6 16 1
18 7 22 1
18 8 19 1
18 9 21 1
18 10 13 1
18 11 24 1
18 12 25 1
18 13 2 1
18 14 7 1
19 2 25 1
19 3 21 1
19 4 24 1
19 5 16 1
19 6 5 1
19 7 20 1
19 8 2 1
19 9 17 1
19 10 13 1
19 11 14 1
19 12 22 1
19 13 18 1
19 14 3 1
20 2 8 1
20 3 4 1
20 4 2 1
20 5 15 1
20 6 17 1
20 7 13 1
20 8 25 1
20 9 11 1
20 10 18 1
20 11 23 1
20 12 21 1
20 13 7 1
20 14 16 1
21 2 23 1
21 3 3 1
21 4 4 1
21 5 10 1
21 6 24 1
21 7 14 1
21 8 15 1
21 9 5 1
21 10 7 1
21 11 1 1
21 12 18 1
21 13 9 1
21 14 2 1
22 2 14 1
22 3 6 1
22 4 19 1
22 5 24 1
22 6 7 1
22 7 4 1
22 8 17 1
22 9 9 1
22 10 16 1
22 11 2 1
22 12 11 1
22 13 8 1
22 14 22 1
23 2 16 1
23 3 1 1
23 4 13 1
23 5 10 1
23 6 14 1
23 7 2 1
23 8 8 1
23 9 6 1
23 10 11 1
23 11 17 1
23 12 5 1
23 13 20 1
23 14 21 1
24 2 12 1
24 3 8 1
24 4 2 1
24 5 7 1
24 6 25 1
24 7 16 1
24 8 13 1
24 9 3 1
24 10 18 1
24 11 19 1
24 12 11 1
24 13 10 1
24 14 4 1
25 2 4 1
25 3 1 1
25 4 18 1
25 5 23 1
25 6 7 1
25 7 8 1
25 8 10 1
25 9 15 1
25 10 9 1
25 11 5 1
25 12 19 1
25 13 20 1
25 14 24 1
26 2 18 1
26 3 15 1
26 4 4 1
26 5 22 1
26 6 19 1
26 7 20 1
26 8 24 1
26 9 2 1
26 10 13 1
26 11 6 1
26 12 16 1
26 13 14 1
26 14 12 1
27 2 8 1
27 3 22 1
27 4 16 1
27 5 20 1
27 6 14 1
27 7 24 1
27 8 18 1
27 9 5 1
27 10 23 1
27 11 11 1
27 12 3 1
27 13 2 1
27 14 19 1
28 2 11 1
28 3 3 1
28 4 8 1
28 5 23 1
28 6 5 1
28 7 2 1
28 8 18 1
28 9 24 1
28 10 6 1
28 11 9 1
28 12 21 1
28 13 7 1
28 14 4 1
29 2 3 1
29 3 13 1
29 4 5 1
29 5 18 1
29 6 2 1
29 7 8 1
29 8 14 1
29 9 9 1
29 10 12 1
29 11 15 1
29 12 7 1
29 13 24 1
29 14 22 1
30 2 5 1
30 3 24 1
30 4 22 1
30 5 15 1
30 6 11 1
30 7 1 1
30 8 3 1
30 9 2 1
30 10 10 1
30 11 25 1
30 12 23 1
30 13 4 1
30 14 13 1
31 2 15 1
31 3 17 1
31 4 16 1
31 5 4 1
31 6 10 1
31 7 14 1
31 8 9 1
31 9 21 1
31 10 20 1
31 11 18 1
31 12 25 1
31 13 13 1
31 14 8 1
32 2 23 1
32 3 6 1
32 4 25 1
32 5 1 1
32 6 22 1
32 7 3 1
32 8 19 1
32 9 5 1
32 10 20 1
32 11 14 1
32 12 2 1
32 13 8 1
32 14 9 1
33 2 7 1
33 3 6 1
33 4 14 1
33 5 1 1
33 6 22 1
33 7 13 1
33 8 10 1
33 9 11 1
33 10 12 1
33 11 15 1
33 12 21 1
33 13 3 1
33 14 19 1
34 2 5 1
34 3 4 1
34 4 9 1
34 5 8 1
34 6 12 1
34 7 1 1
34 8 24 1
34 9 23 1
34 10 19 1
34 11 13 1
34 12 10 1
34 13 11 1
34 14 25 1
35 2 14 1
35 3 1 1
35 4 3 1
35 5 23 1
35 6 9 1
35 7 13 1
35 8 10 1
35 9 21 1
35 10 8 1
35 11 25 1
35 12 18 1
35 13 4 1
35 14 16 1
36 2 8 1
36 3 2 1
36 4 22 1
36 5 14 1
36 6 7 1
36 7 6 1
36 8 15 1
36 9 18 1
36 10 10 1
36 11 19 1
36 12 24 1
36 13 4 1
36 14 5 1
37 2 4 1
37 3 23 1
37 4 6 1
37 5 13 1
37 6 21 1
37 7 22 1
37 8 3 1
37 9 9 1
37 10 10 1
37 11 12 1
37 12 8 1
37 13 1 1
37 14 24 1
38 2 10 1
38 3 8 1
38 4 1 1
38 5 6 1
38 6 11 1
38 7 9 1
38 8 18 1
38 9 25 1
38 10 17 1
38 11 13 1
38 12 22 1
38 13 7 1
38 14 4 1
;
