Errori in output e loro risoluzione

'IndexedParam' object has no attribute 'dimen'   ->   Errore presente del file dat. Nello specifico un ":" di troppo

Expecting a tuple or equation. Examples:
	   summation(model.costs) == model.income ->  In questo caso vuole i vincoli per gli upper e lower bound nella forma (LB, ...., UB) Non gli piacciono vincoli separati
	   (0, model.price[item], 50)

Error accessing indexed component: Index '('Cake', 'Cake')' is not valid for array component 'a'   -> In questo caso l’errore era in
														= Constraint(model.I..) c’era
														  una J invece che una I





##########################################
#	Trucco Per Fare Debugging        #
##########################################

def prova(model):

    #for (i,j) in model.A:
    #    print (i,j)



    print '################################'


    for i in model.S:
        for j in model.NodesIn[i]:
            print j

    print '################################'

    return

model.prova = Param({1}, initialize = prova)


###########################################
ERRORE POSSIBILE FILE DAT COPIATO DA AMPL
###########################################

file ampl

param: D: s t :=	1  b d,	2  d e,
	3  b e;

A lui non piacciono le , le devi togliere

param: D: s t :=	1  b d	2  d e
	3  b e;

Se non le toglie ti prende le virgole come parametro…





















